EESchema Schematic File Version 2
LIBS:chip_media-rescue
LIBS:power
LIBS:device
LIBS:transistors
LIBS:conn
LIBS:linear
LIBS:regul
LIBS:74xx
LIBS:cmos4000
LIBS:adc-dac
LIBS:memory
LIBS:xilinx
LIBS:microcontrollers
LIBS:dsp
LIBS:microchip
LIBS:analog_switches
LIBS:motorola
LIBS:texas
LIBS:intel
LIBS:audio
LIBS:interface
LIBS:digital-audio
LIBS:philips
LIBS:display
LIBS:cypress
LIBS:siliconi
LIBS:opto
LIBS:atmel
LIBS:contrib
LIBS:valves
LIBS:chip_pro
LIBS:stm32f100vxx
LIBS:ABM8G
LIBS:drv8835
LIBS:lt1117cst
LIBS:stm32f0
LIBS:Carlolib-dev
LIBS:opendous
LIBS:mem_mic
LIBS:usba-plug
LIBS:imx233stamp-cache
LIBS:srf2012
LIBS:rclamp0502b
LIBS:usbconn
LIBS:usb_a
LIBS:onion2_new
LIBS:onion2
LIBS:JQC_3FF
LIBS:tcs3404
LIBS:sp481
LIBS:vof_6b_s5
LIBS:chip_media-cache
EELAYER 26 0
EELAYER END
$Descr A3 16535 11693
encoding utf-8
Sheet 3 5
Title ""
Date ""
Rev ""
Comp ""
Comment1 ""
Comment2 ""
Comment3 ""
Comment4 ""
$EndDescr
$Comp
L MOC3063M MOC1
U 1 1 599EEB8A
P 3125 1925
F 0 "MOC1" H 3125 2250 50  0000 C CNN
F 1 "MOC3063M" H 3125 2159 50  0000 C CNN
F 2 "MOC3063_:DIP8SMD" H 3125 2158 50  0001 C CIN
F 3 "" H 3115 1925 50  0000 L CNN
	1    3125 1925
	1    0    0    -1  
$EndComp
Text Notes 2725 2225 0    60   ~ 0
MOC3063SR2MTR-ND
$Comp
L GND #PWR052
U 1 1 599EF297
P 2275 2650
F 0 "#PWR052" H 2275 2650 30  0001 C CNN
F 1 "GND" H 2275 2580 30  0001 C CNN
F 2 "" H 2275 2650 60  0001 C CNN
F 3 "" H 2275 2650 60  0001 C CNN
	1    2275 2650
	-1   0    0    -1  
$EndComp
$Comp
L LED DM1
U 1 1 599EF29D
P 2275 2075
F 0 "DM1" H 2275 2175 50  0000 C CNN
F 1 "LED" H 2275 1975 50  0000 C CNN
F 2 "LEDs:LED_0603" H 2275 2075 60  0001 C CNN
F 3 "" H 2275 2075 60  0001 C CNN
	1    2275 2075
	0    -1   -1   0   
$EndComp
$Comp
L R RM1
U 1 1 599EF2A4
P 2275 2450
F 0 "RM1" V 2355 2450 50  0000 C CNN
F 1 "1k" V 2275 2450 50  0000 C CNN
F 2 "Resistors_SMD:R_0603" H 2275 2450 60  0001 C CNN
F 3 "" H 2275 2450 60  0001 C CNN
	1    2275 2450
	-1   0    0    1   
$EndComp
$Comp
L R RM2
U 1 1 599EF40D
P 2550 1825
F 0 "RM2" V 2630 1825 50  0000 C CNN
F 1 "500" V 2550 1825 50  0000 C CNN
F 2 "Resistors_SMD:R_0603" H 2550 1825 60  0001 C CNN
F 3 "" H 2550 1825 60  0001 C CNN
	1    2550 1825
	0    -1   -1   0   
$EndComp
$Comp
L GND #PWR053
U 1 1 599EF492
P 2575 2225
F 0 "#PWR053" H 2575 2225 30  0001 C CNN
F 1 "GND" H 2575 2155 30  0001 C CNN
F 2 "" H 2575 2225 60  0001 C CNN
F 3 "" H 2575 2225 60  0001 C CNN
	1    2575 2225
	-1   0    0    -1  
$EndComp
Text Notes 4275 2050 0    60   ~ 0
1740-1028-ND 
$Comp
L R RM4
U 1 1 599EF5AA
P 3850 2025
F 0 "RM4" V 3930 2025 50  0000 C CNN
F 1 "1k" V 3850 2025 50  0000 C CNN
F 2 "Resistors_SMD:R_1206" H 3850 2025 60  0001 C CNN
F 3 "" H 3850 2025 60  0001 C CNN
	1    3850 2025
	0    -1   -1   0   
$EndComp
$Comp
L R RM3
U 1 1 599EF642
P 3850 2250
F 0 "RM3" V 3930 2250 50  0000 C CNN
F 1 "1M" V 3850 2250 50  0000 C CNN
F 2 "Resistors_SMD:R_1206" H 3850 2250 60  0001 C CNN
F 3 "" H 3850 2250 60  0001 C CNN
	1    3850 2250
	0    -1   -1   0   
$EndComp
$Comp
L FUSE F1
U 1 1 599EF93C
P 5350 1175
F 0 "F1" H 5350 1452 40  0000 C CNN
F 1 "FUSE" H 5350 1376 40  0000 C CNN
F 2 "Capacitors_ThroughHole:C_Disc_D14.5mm_W5.0mm_P10.00mm" H 5350 1308 30  0001 C CNN
F 3 "" H 5350 1175 60  0001 C CNN
	1    5350 1175
	1    0    0    -1  
$EndComp
Text Notes 5050 1350 0    60   ~ 0
507-1405-ND 
$Comp
L CONN_2 LD1
U 1 1 599EFB80
P 5975 875
F 0 "LD1" H 5898 837 40  0000 R CNN
F 1 "CONN_2" H 5898 913 40  0001 R CNN
F 2 "modules:ED600" H 5975 875 30  0001 C CNN
F 3 "" H 5975 875 60  0001 C CNN
	1    5975 875 
	0    1    1    0   
$EndComp
Text Notes 6150 925  0    60   ~ 0
ED1627-ND
Text Notes 3550 2625 0    60   ~ 0
 RHM1MCKCT-ND 
Text Notes 3425 2525 0    60   ~ 0
RNCP1206FTD1K00CT-ND 
$Comp
L R RM5
U 1 1 599F13E0
P 3850 1500
F 0 "RM5" V 3930 1500 50  0000 C CNN
F 1 "470" V 3850 1500 50  0000 C CNN
F 2 "Resistors_SMD:R_1206" H 3850 1500 60  0001 C CNN
F 3 "" H 3850 1500 60  0001 C CNN
	1    3850 1500
	0    -1   -1   0   
$EndComp
Text Notes 3425 2425 0    60   ~ 0
311-470ERCT-ND 
$Comp
L R RL1
U 1 1 599F20FB
P 13350 2100
F 0 "RL1" V 13430 2100 50  0000 C CNN
F 1 "470" V 13350 2100 50  0000 C CNN
F 2 "Resistors_SMD:R_0603" H 13350 2100 60  0001 C CNN
F 3 "" H 13350 2100 60  0001 C CNN
	1    13350 2100
	0    -1   -1   0   
$EndComp
$Comp
L R RL2
U 1 1 599F2204
P 13550 2400
F 0 "RL2" V 13630 2400 50  0000 C CNN
F 1 "10k" V 13550 2400 50  0000 C CNN
F 2 "Resistors_SMD:R_0603" H 13550 2400 60  0001 C CNN
F 3 "" H 13550 2400 60  0001 C CNN
	1    13550 2400
	1    0    0    -1  
$EndComp
$Comp
L GND #PWR054
U 1 1 599F22D1
P 13725 2650
F 0 "#PWR054" H 13725 2650 30  0001 C CNN
F 1 "GND" H 13725 2580 30  0001 C CNN
F 2 "" H 13725 2650 60  0001 C CNN
F 3 "" H 13725 2650 60  0001 C CNN
	1    13725 2650
	-1   0    0    -1  
$EndComp
$Comp
L +5V #PWR055
U 1 1 599F2FAF
P 14125 1075
F 0 "#PWR055" H 14125 925 50  0001 C CNN
F 1 "+5V" H 14140 1248 50  0000 C CNN
F 2 "" H 14125 1075 50  0000 C CNN
F 3 "" H 14125 1075 50  0000 C CNN
	1    14125 1075
	1    0    0    -1  
$EndComp
$Comp
L LED DR1
U 1 1 599F321F
P 14125 1275
F 0 "DR1" H 14125 1375 50  0000 C CNN
F 1 "LED" H 14125 1175 50  0000 C CNN
F 2 "LEDs:LED_0603" H 14125 1275 60  0001 C CNN
F 3 "" H 14125 1275 60  0001 C CNN
	1    14125 1275
	0    -1   -1   0   
$EndComp
$Comp
L R RL3
U 1 1 599F3225
P 14125 1650
F 0 "RL3" V 14205 1650 50  0000 C CNN
F 1 "1k" V 14125 1650 50  0000 C CNN
F 2 "Resistors_SMD:R_0603" H 14125 1650 60  0001 C CNN
F 3 "" H 14125 1650 60  0001 C CNN
	1    14125 1650
	-1   0    0    1   
$EndComp
$Comp
L D_ALT DR2
U 1 1 599F3BE4
P 14375 1375
F 0 "DR2" V 14329 1454 50  0000 L CNN
F 1 "D_ALTS1M-13-F" V 14420 1454 50  0000 L CNN
F 2 "Diodes_SMD:D_SMA" V 14466 1454 50  0001 L CNN
F 3 "" H 14375 1375 50  0000 C CNN
	1    14375 1375
	0    1    1    0   
$EndComp
Text Notes 14450 1575 0    60   ~ 0
S1M-FDICT-ND
$Comp
L Q_NPN_BEC QR1
U 1 1 599F59A0
P 13775 2100
F 0 "QR1" H 13966 2146 50  0000 L CNN
F 1 "MMSS8050-H-TP" H 13966 2055 50  0000 L CNN
F 2 "TO_SOT_Packages_SMD:SOT-23" H 13966 2009 50  0001 L CNN
F 3 "" H 13775 2100 50  0000 C CNN
	1    13775 2100
	1    0    0    -1  
$EndComp
$Comp
L CONN_3X1F JK1
U 1 1 599F7F9B
P 15775 2325
F 0 "JK1" H 15878 2363 40  0000 L CNN
F 1 "CONN_3X1F" H 15878 2287 40  0001 L CNN
F 2 "modules:ED2601" H 15775 2325 60  0001 C CNN
F 3 "" H 15775 2325 60  0001 C CNN
	1    15775 2325
	1    0    0    -1  
$EndComp
Text Notes 15550 2100 0    60   ~ 0
ED2601-ND\n
Text HLabel 1725 1825 0    60   Input ~ 0
SSR1
$Comp
L R RL4
U 1 1 59A72B05
P 13300 4025
F 0 "RL4" V 13380 4025 50  0000 C CNN
F 1 "470" V 13300 4025 50  0000 C CNN
F 2 "Resistors_SMD:R_0603" H 13300 4025 60  0001 C CNN
F 3 "" H 13300 4025 60  0001 C CNN
	1    13300 4025
	0    -1   -1   0   
$EndComp
$Comp
L R RL5
U 1 1 59A72B0B
P 13500 4325
F 0 "RL5" V 13580 4325 50  0000 C CNN
F 1 "10k" V 13500 4325 50  0000 C CNN
F 2 "Resistors_SMD:R_0603" H 13500 4325 60  0001 C CNN
F 3 "" H 13500 4325 60  0001 C CNN
	1    13500 4325
	1    0    0    -1  
$EndComp
$Comp
L GND #PWR056
U 1 1 59A72B11
P 13675 4575
F 0 "#PWR056" H 13675 4575 30  0001 C CNN
F 1 "GND" H 13675 4505 30  0001 C CNN
F 2 "" H 13675 4575 60  0001 C CNN
F 3 "" H 13675 4575 60  0001 C CNN
	1    13675 4575
	-1   0    0    -1  
$EndComp
$Comp
L +5V #PWR057
U 1 1 59A72B1A
P 14075 3000
F 0 "#PWR057" H 14075 2850 50  0001 C CNN
F 1 "+5V" H 14090 3173 50  0000 C CNN
F 2 "" H 14075 3000 50  0000 C CNN
F 3 "" H 14075 3000 50  0000 C CNN
	1    14075 3000
	1    0    0    -1  
$EndComp
$Comp
L LED DR3
U 1 1 59A72B20
P 14075 3200
F 0 "DR3" H 14075 3300 50  0000 C CNN
F 1 "LED" H 14075 3100 50  0000 C CNN
F 2 "LEDs:LED_0603" H 14075 3200 60  0001 C CNN
F 3 "" H 14075 3200 60  0001 C CNN
	1    14075 3200
	0    -1   -1   0   
$EndComp
$Comp
L R RL6
U 1 1 59A72B26
P 14075 3575
F 0 "RL6" V 14155 3575 50  0000 C CNN
F 1 "1k" V 14075 3575 50  0000 C CNN
F 2 "Resistors_SMD:R_0603" H 14075 3575 60  0001 C CNN
F 3 "" H 14075 3575 60  0001 C CNN
	1    14075 3575
	-1   0    0    1   
$EndComp
$Comp
L D_ALT DR4
U 1 1 59A72B31
P 14325 3300
F 0 "DR4" V 14279 3379 50  0000 L CNN
F 1 "D_ALTS1M-13-F" V 14370 3379 50  0000 L CNN
F 2 "Diodes_SMD:D_SMA" V 14416 3379 50  0001 L CNN
F 3 "" H 14325 3300 50  0000 C CNN
	1    14325 3300
	0    1    1    0   
$EndComp
Text Notes 14400 3500 0    60   ~ 0
S1M-FDICT-ND
$Comp
L Q_NPN_BEC QR2
U 1 1 59A72B42
P 13725 4025
F 0 "QR2" H 13916 4071 50  0000 L CNN
F 1 "MMSS8050-H-TP" H 13916 3980 50  0000 L CNN
F 2 "TO_SOT_Packages_SMD:SOT-23" H 13916 3934 50  0001 L CNN
F 3 "" H 13725 4025 50  0000 C CNN
	1    13725 4025
	1    0    0    -1  
$EndComp
$Comp
L CONN_3X1F JK2
U 1 1 59A72B54
P 15775 2625
F 0 "JK2" H 15878 2663 40  0000 L CNN
F 1 "CONN_3X1F" H 15878 2587 40  0001 L CNN
F 2 "modules:ED2601" H 15775 2625 60  0001 C CNN
F 3 "" H 15775 2625 60  0001 C CNN
	1    15775 2625
	1    0    0    -1  
$EndComp
Text HLabel 1750 3850 0    60   Input ~ 0
SSR2
Text HLabel 12875 2100 0    60   Input ~ 0
REL1
$Comp
L MOC3063M MOC2
U 1 1 59A7493D
P 3150 3950
F 0 "MOC2" H 3150 4275 50  0000 C CNN
F 1 "MOC3063M" H 3150 4184 50  0000 C CNN
F 2 "MOC3063_:DIP8SMD" H 3150 4183 50  0001 C CIN
F 3 "" H 3140 3950 50  0000 L CNN
	1    3150 3950
	1    0    0    -1  
$EndComp
Text Notes 2750 4250 0    60   ~ 0
MOC3063SR2MTR-ND
$Comp
L GND #PWR058
U 1 1 59A74944
P 2300 4675
F 0 "#PWR058" H 2300 4675 30  0001 C CNN
F 1 "GND" H 2300 4605 30  0001 C CNN
F 2 "" H 2300 4675 60  0001 C CNN
F 3 "" H 2300 4675 60  0001 C CNN
	1    2300 4675
	-1   0    0    -1  
$EndComp
$Comp
L LED DM2
U 1 1 59A7494A
P 2300 4100
F 0 "DM2" H 2300 4200 50  0000 C CNN
F 1 "LED" H 2300 4000 50  0000 C CNN
F 2 "LEDs:LED_0603" H 2300 4100 60  0001 C CNN
F 3 "" H 2300 4100 60  0001 C CNN
	1    2300 4100
	0    -1   -1   0   
$EndComp
$Comp
L R RM6
U 1 1 59A74950
P 2300 4475
F 0 "RM6" V 2380 4475 50  0000 C CNN
F 1 "1k" V 2300 4475 50  0000 C CNN
F 2 "Resistors_SMD:R_0603" H 2300 4475 60  0001 C CNN
F 3 "" H 2300 4475 60  0001 C CNN
	1    2300 4475
	-1   0    0    1   
$EndComp
$Comp
L R RM7
U 1 1 59A74956
P 2575 3850
F 0 "RM7" V 2655 3850 50  0000 C CNN
F 1 "500" V 2575 3850 50  0000 C CNN
F 2 "Resistors_SMD:R_0603" H 2575 3850 60  0001 C CNN
F 3 "" H 2575 3850 60  0001 C CNN
	1    2575 3850
	0    -1   -1   0   
$EndComp
$Comp
L GND #PWR059
U 1 1 59A74960
P 2600 4250
F 0 "#PWR059" H 2600 4250 30  0001 C CNN
F 1 "GND" H 2600 4180 30  0001 C CNN
F 2 "" H 2600 4250 60  0001 C CNN
F 3 "" H 2600 4250 60  0001 C CNN
	1    2600 4250
	-1   0    0    -1  
$EndComp
Text Notes 4300 4075 0    60   ~ 0
1740-1028-ND 
$Comp
L R RM9
U 1 1 59A74972
P 3875 4050
F 0 "RM9" V 3955 4050 50  0000 C CNN
F 1 "1k" V 3875 4050 50  0000 C CNN
F 2 "Resistors_SMD:R_1206" H 3875 4050 60  0001 C CNN
F 3 "" H 3875 4050 60  0001 C CNN
	1    3875 4050
	0    -1   -1   0   
$EndComp
$Comp
L R RM8
U 1 1 59A74978
P 3875 4275
F 0 "RM8" V 3955 4275 50  0000 C CNN
F 1 "1M" V 3875 4275 50  0000 C CNN
F 2 "Resistors_SMD:R_1206" H 3875 4275 60  0001 C CNN
F 3 "" H 3875 4275 60  0001 C CNN
	1    3875 4275
	0    -1   -1   0   
$EndComp
$Comp
L FUSE F2
U 1 1 59A7498A
P 5375 3200
F 0 "F2" H 5375 3477 40  0000 C CNN
F 1 "FUSE" H 5375 3401 40  0000 C CNN
F 2 "Capacitors_ThroughHole:C_Disc_D14.5mm_W5.0mm_P10.00mm" H 5375 3333 30  0001 C CNN
F 3 "" H 5375 3200 60  0001 C CNN
	1    5375 3200
	1    0    0    -1  
$EndComp
Text Notes 5075 3375 0    60   ~ 0
507-1405-ND 
$Comp
L CONN_2 LD2
U 1 1 59A74991
P 6000 2900
F 0 "LD2" H 5923 2862 40  0000 R CNN
F 1 "CONN_2" H 5923 2938 40  0001 R CNN
F 2 "modules:ED600" H 6000 2900 30  0001 C CNN
F 3 "" H 6000 2900 60  0001 C CNN
	1    6000 2900
	0    1    1    0   
$EndComp
Text Notes 6050 4025 0    60   ~ 0
ED1627-ND
Text Notes 3575 4650 0    60   ~ 0
 RHM1MCKCT-ND 
Text Notes 3450 4550 0    60   ~ 0
RNCP1206FTD1K00CT-ND 
$Comp
L R RM10
U 1 1 59A749A0
P 3875 3525
F 0 "RM10" V 3955 3525 50  0000 C CNN
F 1 "470" V 3875 3525 50  0000 C CNN
F 2 "Resistors_SMD:R_1206" H 3875 3525 60  0001 C CNN
F 3 "" H 3875 3525 60  0001 C CNN
	1    3875 3525
	0    -1   -1   0   
$EndComp
Text Notes 3450 4450 0    60   ~ 0
311-470ERCT-ND 
Text HLabel 12825 4025 0    60   Input ~ 0
REL2
$Comp
L Q_TRIAC_GAA T1
U 1 1 59AB5D6E
P 4525 1725
F 0 "T1" H 4654 1771 50  0000 L CNN
F 1 "BTA208" H 4654 1680 50  0000 L CNN
F 2 "modules:to220_5771" H 4654 1634 50  0001 L CNN
F 3 "" V 4525 1725 50  0000 C CNN
	1    4525 1725
	1    0    0    -1  
$EndComp
$Comp
L Q_TRIAC_GAA T2
U 1 1 59AB66B8
P 4550 3750
F 0 "T2" H 4679 3796 50  0000 L CNN
F 1 "BTA208" H 4679 3705 50  0000 L CNN
F 2 "modules:to220_5771" H 4679 3659 50  0001 L CNN
F 3 "" V 4550 3750 50  0000 C CNN
	1    4550 3750
	1    0    0    -1  
$EndComp
Text Label 4900 2250 0    60   ~ 0
AC_GND
Text Label 5000 4275 0    60   ~ 0
AC_GND
$Comp
L CONN_2 PSAC1
U 1 1 59B6ECB5
P 7150 1525
F 0 "PSAC1" V 7025 1575 40  0000 R CNN
F 1 "CONN_2" H 7073 1563 40  0001 R CNN
F 2 "modules:ED600" H 7150 1525 30  0001 C CNN
F 3 "" H 7150 1525 60  0001 C CNN
	1    7150 1525
	0    1    1    0   
$EndComp
Text Notes 7350 1575 0    60   ~ 0
ED1627-ND
Text Label 7650 2450 2    60   ~ 0
AC_GND
$Comp
L MOC3063M MOC3
U 1 1 5A4BDB55
P 3125 6375
F 0 "MOC3" H 3125 6700 50  0000 C CNN
F 1 "MOC3063M" H 3125 6609 50  0000 C CNN
F 2 "MOC3063_:DIP8SMD" H 3125 6608 50  0001 C CIN
F 3 "" H 3115 6375 50  0000 L CNN
	1    3125 6375
	1    0    0    -1  
$EndComp
Text Notes 2725 6675 0    60   ~ 0
MOC3063SR2MTR-ND
$Comp
L GND #PWR060
U 1 1 5A4BDB5C
P 2275 7100
F 0 "#PWR060" H 2275 7100 30  0001 C CNN
F 1 "GND" H 2275 7030 30  0001 C CNN
F 2 "" H 2275 7100 60  0001 C CNN
F 3 "" H 2275 7100 60  0001 C CNN
	1    2275 7100
	-1   0    0    -1  
$EndComp
$Comp
L LED DM3
U 1 1 5A4BDB62
P 2275 6525
F 0 "DM3" H 2275 6625 50  0000 C CNN
F 1 "LED" H 2275 6425 50  0000 C CNN
F 2 "LEDs:LED_0603" H 2275 6525 60  0001 C CNN
F 3 "" H 2275 6525 60  0001 C CNN
	1    2275 6525
	0    -1   -1   0   
$EndComp
$Comp
L R RM11
U 1 1 5A4BDB68
P 2275 6900
F 0 "RM11" V 2355 6900 50  0000 C CNN
F 1 "1k" V 2275 6900 50  0000 C CNN
F 2 "Resistors_SMD:R_0603" H 2275 6900 60  0001 C CNN
F 3 "" H 2275 6900 60  0001 C CNN
	1    2275 6900
	-1   0    0    1   
$EndComp
$Comp
L R RM12
U 1 1 5A4BDB6E
P 2550 6275
F 0 "RM12" V 2630 6275 50  0000 C CNN
F 1 "500" V 2550 6275 50  0000 C CNN
F 2 "Resistors_SMD:R_0603" H 2550 6275 60  0001 C CNN
F 3 "" H 2550 6275 60  0001 C CNN
	1    2550 6275
	0    -1   -1   0   
$EndComp
$Comp
L GND #PWR061
U 1 1 5A4BDB76
P 2575 6675
F 0 "#PWR061" H 2575 6675 30  0001 C CNN
F 1 "GND" H 2575 6605 30  0001 C CNN
F 2 "" H 2575 6675 60  0001 C CNN
F 3 "" H 2575 6675 60  0001 C CNN
	1    2575 6675
	-1   0    0    -1  
$EndComp
Text Notes 4275 6500 0    60   ~ 0
1740-1028-ND 
$Comp
L R RM14
U 1 1 5A4BDB82
P 3850 6475
F 0 "RM14" V 3930 6475 50  0000 C CNN
F 1 "1k" V 3850 6475 50  0000 C CNN
F 2 "Resistors_SMD:R_1206" H 3850 6475 60  0001 C CNN
F 3 "" H 3850 6475 60  0001 C CNN
	1    3850 6475
	0    -1   -1   0   
$EndComp
$Comp
L R RM15
U 1 1 5A4BDB88
P 3850 6700
F 0 "RM15" V 3930 6700 50  0000 C CNN
F 1 "1M" V 3850 6700 50  0000 C CNN
F 2 "Resistors_SMD:R_1206" H 3850 6700 60  0001 C CNN
F 3 "" H 3850 6700 60  0001 C CNN
	1    3850 6700
	0    -1   -1   0   
$EndComp
$Comp
L FUSE F3
U 1 1 5A4BDB9A
P 5350 5625
F 0 "F3" H 5350 5902 40  0000 C CNN
F 1 "FUSE" H 5350 5826 40  0000 C CNN
F 2 "Capacitors_ThroughHole:C_Disc_D14.5mm_W5.0mm_P10.00mm" H 5350 5758 30  0001 C CNN
F 3 "" H 5350 5625 60  0001 C CNN
	1    5350 5625
	1    0    0    -1  
$EndComp
Text Notes 5050 5800 0    60   ~ 0
507-1405-ND 
$Comp
L CONN_2 LD3
U 1 1 5A4BDBA1
P 5975 5325
F 0 "LD3" H 5898 5287 40  0000 R CNN
F 1 "CONN_2" H 5898 5363 40  0001 R CNN
F 2 "modules:ED600" H 5975 5325 30  0001 C CNN
F 3 "" H 5975 5325 60  0001 C CNN
	1    5975 5325
	0    1    1    0   
$EndComp
Text Notes 6150 5375 0    60   ~ 0
ED1627-ND
Text Notes 3550 7075 0    60   ~ 0
 RHM1MCKCT-ND 
Text Notes 3425 6975 0    60   ~ 0
RNCP1206FTD1K00CT-ND 
$Comp
L R RM13
U 1 1 5A4BDBAE
P 3850 5950
F 0 "RM13" V 3930 5950 50  0000 C CNN
F 1 "470" V 3850 5950 50  0000 C CNN
F 2 "Resistors_SMD:R_1206" H 3850 5950 60  0001 C CNN
F 3 "" H 3850 5950 60  0001 C CNN
	1    3850 5950
	0    -1   -1   0   
$EndComp
Text Notes 3425 6875 0    60   ~ 0
311-470ERCT-ND 
Text HLabel 1725 6275 0    60   Input ~ 0
SSR3
Text HLabel 1750 8300 0    60   Input ~ 0
SSR4
$Comp
L MOC3063M MOC4
U 1 1 5A4BDBB9
P 3150 8400
F 0 "MOC4" H 3150 8725 50  0000 C CNN
F 1 "MOC3063M" H 3150 8634 50  0000 C CNN
F 2 "MOC3063_:DIP8SMD" H 3150 8633 50  0001 C CIN
F 3 "" H 3140 8400 50  0000 L CNN
	1    3150 8400
	1    0    0    -1  
$EndComp
Text Notes 2750 8700 0    60   ~ 0
MOC3063SR2MTR-ND
$Comp
L GND #PWR062
U 1 1 5A4BDBC0
P 2300 9125
F 0 "#PWR062" H 2300 9125 30  0001 C CNN
F 1 "GND" H 2300 9055 30  0001 C CNN
F 2 "" H 2300 9125 60  0001 C CNN
F 3 "" H 2300 9125 60  0001 C CNN
	1    2300 9125
	-1   0    0    -1  
$EndComp
$Comp
L LED DM4
U 1 1 5A4BDBC6
P 2300 8550
F 0 "DM4" H 2300 8650 50  0000 C CNN
F 1 "LED" H 2300 8450 50  0000 C CNN
F 2 "LEDs:LED_0603" H 2300 8550 60  0001 C CNN
F 3 "" H 2300 8550 60  0001 C CNN
	1    2300 8550
	0    -1   -1   0   
$EndComp
$Comp
L R RM16
U 1 1 5A4BDBCC
P 2300 8925
F 0 "RM16" V 2380 8925 50  0000 C CNN
F 1 "1k" V 2300 8925 50  0000 C CNN
F 2 "Resistors_SMD:R_0603" H 2300 8925 60  0001 C CNN
F 3 "" H 2300 8925 60  0001 C CNN
	1    2300 8925
	-1   0    0    1   
$EndComp
$Comp
L R RM17
U 1 1 5A4BDBD2
P 2575 8300
F 0 "RM17" V 2655 8300 50  0000 C CNN
F 1 "500" V 2575 8300 50  0000 C CNN
F 2 "Resistors_SMD:R_0603" H 2575 8300 60  0001 C CNN
F 3 "" H 2575 8300 60  0001 C CNN
	1    2575 8300
	0    -1   -1   0   
$EndComp
$Comp
L GND #PWR063
U 1 1 5A4BDBDA
P 2600 8700
F 0 "#PWR063" H 2600 8700 30  0001 C CNN
F 1 "GND" H 2600 8630 30  0001 C CNN
F 2 "" H 2600 8700 60  0001 C CNN
F 3 "" H 2600 8700 60  0001 C CNN
	1    2600 8700
	-1   0    0    -1  
$EndComp
Text Notes 4300 8525 0    60   ~ 0
1740-1028-ND 
$Comp
L R RM19
U 1 1 5A4BDBE6
P 3875 8500
F 0 "RM19" V 3955 8500 50  0000 C CNN
F 1 "1k" V 3875 8500 50  0000 C CNN
F 2 "Resistors_SMD:R_1206" H 3875 8500 60  0001 C CNN
F 3 "" H 3875 8500 60  0001 C CNN
	1    3875 8500
	0    -1   -1   0   
$EndComp
$Comp
L R RM20
U 1 1 5A4BDBEC
P 3875 8725
F 0 "RM20" V 3955 8725 50  0000 C CNN
F 1 "1M" V 3875 8725 50  0000 C CNN
F 2 "Resistors_SMD:R_1206" H 3875 8725 60  0001 C CNN
F 3 "" H 3875 8725 60  0001 C CNN
	1    3875 8725
	0    -1   -1   0   
$EndComp
$Comp
L FUSE F4
U 1 1 5A4BDBFE
P 5375 7650
F 0 "F4" H 5375 7927 40  0000 C CNN
F 1 "FUSE" H 5375 7851 40  0000 C CNN
F 2 "Capacitors_ThroughHole:C_Disc_D14.5mm_W5.0mm_P10.00mm" H 5375 7783 30  0001 C CNN
F 3 "" H 5375 7650 60  0001 C CNN
	1    5375 7650
	1    0    0    -1  
$EndComp
Text Notes 5075 7825 0    60   ~ 0
507-1405-ND 
$Comp
L CONN_2 LD4
U 1 1 5A4BDC05
P 6000 7350
F 0 "LD4" H 5923 7312 40  0000 R CNN
F 1 "CONN_2" H 5923 7388 40  0001 R CNN
F 2 "modules:ED600" H 6000 7350 30  0001 C CNN
F 3 "" H 6000 7350 60  0001 C CNN
	1    6000 7350
	0    1    1    0   
$EndComp
Text Notes 5950 7825 0    60   ~ 0
ED1627-ND
Text Notes 3575 9100 0    60   ~ 0
 RHM1MCKCT-ND 
Text Notes 3450 9000 0    60   ~ 0
RNCP1206FTD1K00CT-ND 
$Comp
L R RM18
U 1 1 5A4BDC12
P 3875 7975
F 0 "RM18" V 3955 7975 50  0000 C CNN
F 1 "470" V 3875 7975 50  0000 C CNN
F 2 "Resistors_SMD:R_1206" H 3875 7975 60  0001 C CNN
F 3 "" H 3875 7975 60  0001 C CNN
	1    3875 7975
	0    -1   -1   0   
$EndComp
Text Notes 3450 8900 0    60   ~ 0
311-470ERCT-ND 
$Comp
L Q_TRIAC_GAA T3
U 1 1 5A4BDC1B
P 4525 6175
F 0 "T3" H 4654 6221 50  0000 L CNN
F 1 "BTA208" H 4654 6130 50  0000 L CNN
F 2 "modules:to220_5771" H 4654 6084 50  0001 L CNN
F 3 "" V 4525 6175 50  0000 C CNN
	1    4525 6175
	1    0    0    -1  
$EndComp
$Comp
L Q_TRIAC_GAA T4
U 1 1 5A4BDC21
P 4550 8200
F 0 "T4" H 4679 8246 50  0000 L CNN
F 1 "BTA208" H 4679 8155 50  0000 L CNN
F 2 "modules:to220_5771" H 4679 8109 50  0001 L CNN
F 3 "" V 4550 8200 50  0000 C CNN
	1    4550 8200
	1    0    0    -1  
$EndComp
Text Label 4900 6700 0    60   ~ 0
AC_GND
Text Label 5000 8725 0    60   ~ 0
AC_GND
$Comp
L R RL7
U 1 1 5A4D8B2C
P 13300 6050
F 0 "RL7" V 13380 6050 50  0000 C CNN
F 1 "470" V 13300 6050 50  0000 C CNN
F 2 "Resistors_SMD:R_0603" H 13300 6050 60  0001 C CNN
F 3 "" H 13300 6050 60  0001 C CNN
	1    13300 6050
	0    -1   -1   0   
$EndComp
$Comp
L R RL8
U 1 1 5A4D8B32
P 13500 6350
F 0 "RL8" V 13580 6350 50  0000 C CNN
F 1 "10k" V 13500 6350 50  0000 C CNN
F 2 "Resistors_SMD:R_0603" H 13500 6350 60  0001 C CNN
F 3 "" H 13500 6350 60  0001 C CNN
	1    13500 6350
	1    0    0    -1  
$EndComp
$Comp
L GND #PWR064
U 1 1 5A4D8B38
P 13675 6600
F 0 "#PWR064" H 13675 6600 30  0001 C CNN
F 1 "GND" H 13675 6530 30  0001 C CNN
F 2 "" H 13675 6600 60  0001 C CNN
F 3 "" H 13675 6600 60  0001 C CNN
	1    13675 6600
	-1   0    0    -1  
$EndComp
$Comp
L +5V #PWR065
U 1 1 5A4D8B41
P 14075 5025
F 0 "#PWR065" H 14075 4875 50  0001 C CNN
F 1 "+5V" H 14090 5198 50  0000 C CNN
F 2 "" H 14075 5025 50  0000 C CNN
F 3 "" H 14075 5025 50  0000 C CNN
	1    14075 5025
	1    0    0    -1  
$EndComp
$Comp
L LED DR5
U 1 1 5A4D8B47
P 14075 5225
F 0 "DR5" H 14075 5325 50  0000 C CNN
F 1 "LED" H 14075 5125 50  0000 C CNN
F 2 "LEDs:LED_0603" H 14075 5225 60  0001 C CNN
F 3 "" H 14075 5225 60  0001 C CNN
	1    14075 5225
	0    -1   -1   0   
$EndComp
$Comp
L R RL9
U 1 1 5A4D8B4D
P 14075 5600
F 0 "RL9" V 14155 5600 50  0000 C CNN
F 1 "1k" V 14075 5600 50  0000 C CNN
F 2 "Resistors_SMD:R_0603" H 14075 5600 60  0001 C CNN
F 3 "" H 14075 5600 60  0001 C CNN
	1    14075 5600
	-1   0    0    1   
$EndComp
$Comp
L D_ALT DR6
U 1 1 5A4D8B58
P 14325 5325
F 0 "DR6" V 14279 5404 50  0000 L CNN
F 1 "D_ALTS1M-13-F" V 14370 5404 50  0000 L CNN
F 2 "Diodes_SMD:D_SMA" V 14416 5404 50  0001 L CNN
F 3 "" H 14325 5325 50  0000 C CNN
	1    14325 5325
	0    1    1    0   
$EndComp
Text Notes 14400 5525 0    60   ~ 0
S1M-FDICT-ND
$Comp
L Q_NPN_BEC QR3
U 1 1 5A4D8B69
P 13725 6050
F 0 "QR3" H 13916 6096 50  0000 L CNN
F 1 "MMSS8050-H-TP" H 13916 6005 50  0000 L CNN
F 2 "TO_SOT_Packages_SMD:SOT-23" H 13916 5959 50  0001 L CNN
F 3 "" H 13725 6050 50  0000 C CNN
	1    13725 6050
	1    0    0    -1  
$EndComp
Text HLabel 12825 6050 0    60   Input ~ 0
REL3
$Comp
L +5V #PWR066
U 1 1 5A4DF452
P 15350 2050
F 0 "#PWR066" H 15350 1900 50  0001 C CNN
F 1 "+5V" H 15365 2223 50  0000 C CNN
F 2 "" H 15350 2050 50  0000 C CNN
F 3 "" H 15350 2050 50  0000 C CNN
	1    15350 2050
	1    0    0    -1  
$EndComp
Wire Wire Line
	2275 2225 2275 2300
Wire Wire Line
	2700 1825 2825 1825
Wire Wire Line
	2825 2025 2575 2025
Wire Wire Line
	2575 2025 2575 2225
Wire Wire Line
	2275 2600 2275 2650
Wire Wire Line
	2275 1925 2275 1825
Wire Wire Line
	1725 1825 2400 1825
Wire Wire Line
	3425 2025 3700 2025
Wire Wire Line
	4000 2025 4175 2025
Wire Wire Line
	4175 2025 4175 1825
Wire Wire Line
	4175 1825 4375 1825
Wire Wire Line
	3500 2025 3500 2250
Wire Wire Line
	3500 2250 3700 2250
Connection ~ 3500 2025
Wire Wire Line
	4000 2250 5875 2250
Wire Wire Line
	4525 2250 4525 1875
Wire Wire Line
	4525 1175 4525 1575
Wire Wire Line
	4525 1175 5100 1175
Connection ~ 4525 2250
Wire Wire Line
	5600 1175 5875 1175
Wire Wire Line
	3425 1825 3550 1825
Wire Wire Line
	3550 1825 3550 1500
Connection ~ 4525 1500
Wire Wire Line
	3550 1500 3700 1500
Wire Wire Line
	4000 1500 4525 1500
Wire Wire Line
	13725 2600 13725 2650
Wire Wire Line
	13875 2600 13875 2300
Wire Wire Line
	13500 2100 13575 2100
Wire Wire Line
	14125 1425 14125 1500
Wire Wire Line
	14125 1800 14125 1850
Wire Wire Line
	14125 1075 14125 1125
Wire Wire Line
	13875 1850 14625 1850
Wire Wire Line
	13875 1850 13875 1900
Wire Wire Line
	14125 1100 14375 1100
Wire Wire Line
	14375 1100 14375 1225
Connection ~ 14125 1100
Wire Wire Line
	14375 1850 14375 1525
Connection ~ 14125 1850
Wire Wire Line
	13550 2250 13550 2100
Connection ~ 13550 2100
Wire Wire Line
	13550 2550 13550 2600
Wire Wire Line
	13550 2600 13875 2600
Connection ~ 13725 2600
Connection ~ 14375 1850
Connection ~ 14375 1100
Wire Wire Line
	12875 2100 13200 2100
Wire Wire Line
	13675 4525 13675 4575
Wire Wire Line
	13825 4525 13825 4225
Wire Wire Line
	13450 4025 13525 4025
Wire Wire Line
	14075 3350 14075 3425
Wire Wire Line
	14075 3725 14075 3775
Wire Wire Line
	14075 3000 14075 3050
Wire Wire Line
	13825 3775 14550 3775
Wire Wire Line
	13825 3775 13825 3825
Wire Wire Line
	14075 3025 14325 3025
Wire Wire Line
	14325 3025 14325 3150
Connection ~ 14075 3025
Wire Wire Line
	14325 3775 14325 3450
Connection ~ 14075 3775
Wire Wire Line
	13500 4175 13500 4025
Connection ~ 13500 4025
Wire Wire Line
	13500 4475 13500 4525
Wire Wire Line
	13500 4525 13825 4525
Connection ~ 13675 4525
Connection ~ 14325 3775
Connection ~ 14325 3025
Wire Wire Line
	12825 4025 13150 4025
Wire Wire Line
	2300 4250 2300 4325
Wire Wire Line
	2725 3850 2850 3850
Wire Wire Line
	2850 4050 2600 4050
Wire Wire Line
	2600 4050 2600 4250
Wire Wire Line
	2300 4625 2300 4675
Wire Wire Line
	2300 3950 2300 3850
Wire Wire Line
	1750 3850 2425 3850
Wire Wire Line
	3450 4050 3725 4050
Wire Wire Line
	4025 4050 4200 4050
Wire Wire Line
	4200 4050 4200 3850
Wire Wire Line
	4200 3850 4400 3850
Wire Wire Line
	3525 4050 3525 4275
Wire Wire Line
	3525 4275 3725 4275
Connection ~ 3525 4050
Wire Wire Line
	4025 4275 5900 4275
Wire Wire Line
	4550 4275 4550 3900
Wire Wire Line
	4550 3200 4550 3600
Wire Wire Line
	4550 3200 5125 3200
Connection ~ 4550 4275
Wire Wire Line
	5625 3200 5900 3200
Wire Wire Line
	3450 3850 3575 3850
Wire Wire Line
	3575 3850 3575 3525
Connection ~ 4550 3525
Wire Wire Line
	3575 3525 3725 3525
Wire Wire Line
	4025 3525 4550 3525
Connection ~ 2275 1825
Connection ~ 2300 3850
Wire Wire Line
	6075 1175 6575 1175
Wire Wire Line
	6575 1175 6575 7650
Wire Wire Line
	6575 3200 6100 3200
Wire Wire Line
	7050 1825 7050 2450
Wire Wire Line
	7050 2450 6575 2450
Connection ~ 6575 2450
Wire Wire Line
	7250 1825 7250 2450
Wire Wire Line
	2275 6675 2275 6750
Wire Wire Line
	2700 6275 2825 6275
Wire Wire Line
	2825 6475 2575 6475
Wire Wire Line
	2575 6475 2575 6675
Wire Wire Line
	2275 7050 2275 7100
Wire Wire Line
	2275 6375 2275 6275
Wire Wire Line
	1725 6275 2400 6275
Wire Wire Line
	3425 6475 3700 6475
Wire Wire Line
	4000 6475 4175 6475
Wire Wire Line
	4175 6475 4175 6275
Wire Wire Line
	4175 6275 4375 6275
Wire Wire Line
	3500 6475 3500 6700
Wire Wire Line
	3500 6700 3700 6700
Connection ~ 3500 6475
Wire Wire Line
	4000 6700 5875 6700
Wire Wire Line
	4525 6700 4525 6325
Wire Wire Line
	4525 5625 4525 6025
Wire Wire Line
	4525 5625 5100 5625
Connection ~ 4525 6700
Wire Wire Line
	5600 5625 5875 5625
Wire Wire Line
	3425 6275 3550 6275
Wire Wire Line
	3550 6275 3550 5950
Connection ~ 4525 5950
Wire Wire Line
	3550 5950 3700 5950
Wire Wire Line
	4000 5950 4525 5950
Wire Wire Line
	2300 8700 2300 8775
Wire Wire Line
	2725 8300 2850 8300
Wire Wire Line
	2850 8500 2600 8500
Wire Wire Line
	2600 8500 2600 8700
Wire Wire Line
	2300 9075 2300 9125
Wire Wire Line
	2300 8400 2300 8300
Wire Wire Line
	1750 8300 2425 8300
Wire Wire Line
	3450 8500 3725 8500
Wire Wire Line
	4025 8500 4200 8500
Wire Wire Line
	4200 8500 4200 8300
Wire Wire Line
	4200 8300 4400 8300
Wire Wire Line
	3525 8500 3525 8725
Wire Wire Line
	3525 8725 3725 8725
Connection ~ 3525 8500
Wire Wire Line
	4025 8725 5900 8725
Wire Wire Line
	4550 8725 4550 8350
Wire Wire Line
	4550 7650 4550 8050
Wire Wire Line
	4550 7650 5125 7650
Connection ~ 4550 8725
Wire Wire Line
	5625 7650 5900 7650
Wire Wire Line
	3450 8300 3575 8300
Wire Wire Line
	3575 8300 3575 7975
Connection ~ 4550 7975
Wire Wire Line
	3575 7975 3725 7975
Wire Wire Line
	4025 7975 4550 7975
Connection ~ 2275 6275
Connection ~ 2300 8300
Wire Wire Line
	6575 5625 6075 5625
Wire Wire Line
	6575 7650 6100 7650
Connection ~ 6575 6900
Connection ~ 6575 3200
Connection ~ 6575 5625
Wire Wire Line
	13675 6550 13675 6600
Wire Wire Line
	13825 6550 13825 6250
Wire Wire Line
	13450 6050 13525 6050
Wire Wire Line
	14075 5375 14075 5450
Wire Wire Line
	14075 5750 14075 5800
Wire Wire Line
	14075 5025 14075 5075
Wire Wire Line
	13825 5800 14525 5800
Wire Wire Line
	13825 5800 13825 5850
Wire Wire Line
	14075 5050 14325 5050
Wire Wire Line
	14325 5050 14325 5175
Connection ~ 14075 5050
Wire Wire Line
	14325 5800 14325 5475
Connection ~ 14075 5800
Wire Wire Line
	13500 6200 13500 6050
Connection ~ 13500 6050
Wire Wire Line
	13500 6500 13500 6550
Wire Wire Line
	13500 6550 13825 6550
Connection ~ 13675 6550
Connection ~ 14325 5800
Connection ~ 14325 5050
Wire Wire Line
	12825 6050 13150 6050
Wire Wire Line
	15625 2225 15350 2225
Wire Wire Line
	15350 2050 15350 2625
Wire Wire Line
	15350 2425 15625 2425
Connection ~ 15350 2225
Wire Wire Line
	15350 2625 15625 2625
Connection ~ 15350 2425
Wire Wire Line
	15625 2325 15450 2325
Wire Wire Line
	15625 2525 15450 2525
Wire Wire Line
	15625 2725 15450 2725
Text Label 15450 2325 0    39   ~ 0
DCL1
Text Label 15450 2525 0    39   ~ 0
DCL2
Text Label 15450 2725 0    39   ~ 0
DCL3
Text Label 14450 1850 0    39   ~ 0
DCL1
Text Label 14375 3775 0    39   ~ 0
DCL2
Text Label 14375 5800 0    39   ~ 0
DCL3
Text Notes 7125 4325 0    60   ~ 0
102-4242-ND\n
$Comp
L VOF_6B_S5 ACPS1
U 1 1 5A4D0316
P 8525 2250
F 0 "ACPS1" H 8525 2787 60  0000 C CNN
F 1 "VOF_6B_S5" H 8525 2681 60  0000 C CNN
F 2 "modules:vof_6b_s5" H 8525 2250 60  0001 C CNN
F 3 "" H 8525 2250 60  0001 C CNN
	1    8525 2250
	1    0    0    -1  
$EndComp
Wire Wire Line
	7250 2450 7800 2450
Wire Wire Line
	7800 2000 7050 2000
Connection ~ 7050 2000
$Comp
L GND #PWR067
U 1 1 5A4D2922
P 9375 2450
F 0 "#PWR067" H 9375 2450 30  0001 C CNN
F 1 "GND" H 9375 2380 30  0001 C CNN
F 2 "" H 9375 2450 60  0001 C CNN
F 3 "" H 9375 2450 60  0001 C CNN
	1    9375 2450
	1    0    0    -1  
$EndComp
$Comp
L +5V #PWR068
U 1 1 5A4D2928
P 9325 2000
F 0 "#PWR068" H 9325 1850 50  0001 C CNN
F 1 "+5V" H 9325 2150 50  0000 C CNN
F 2 "" H 9325 2000 50  0000 C CNN
F 3 "" H 9325 2000 50  0000 C CNN
	1    9325 2000
	-1   0    0    -1  
$EndComp
Wire Wire Line
	9250 2450 9375 2450
Wire Wire Line
	9250 2000 9325 2000
$EndSCHEMATC
