EESchema Schematic File Version 2
LIBS:chip_media-rescue
LIBS:power
LIBS:device
LIBS:transistors
LIBS:conn
LIBS:linear
LIBS:regul
LIBS:74xx
LIBS:cmos4000
LIBS:adc-dac
LIBS:memory
LIBS:xilinx
LIBS:microcontrollers
LIBS:dsp
LIBS:microchip
LIBS:analog_switches
LIBS:motorola
LIBS:texas
LIBS:intel
LIBS:audio
LIBS:interface
LIBS:digital-audio
LIBS:philips
LIBS:display
LIBS:cypress
LIBS:siliconi
LIBS:opto
LIBS:atmel
LIBS:contrib
LIBS:valves
LIBS:chip_pro
LIBS:stm32f100vxx
LIBS:ABM8G
LIBS:drv8835
LIBS:lt1117cst
LIBS:stm32f0
LIBS:Carlolib-dev
LIBS:opendous
LIBS:chip_media-cache
EELAYER 26 0
EELAYER END
$Descr A4 11693 8268
encoding utf-8
Sheet 3 3
Title ""
Date "1 jun 2013"
Rev ""
Comp ""
Comment1 ""
Comment2 ""
Comment3 ""
Comment4 ""
$EndDescr
Wire Wire Line
	3400 5850 3400 6250
Connection ~ 3400 5850
Connection ~ 3400 6150
Connection ~ 3400 6050
Connection ~ 3400 5950
Wire Wire Line
	4200 5950 4300 5950
Wire Wire Line
	4300 5950 4300 5900
Wire Wire Line
	4300 5900 4850 5900
Connection ~ 4400 6050
Wire Wire Line
	4400 6050 4400 5400
Wire Wire Line
	4400 5400 4550 5400
Connection ~ 2750 6200
Wire Wire Line
	2350 6200 3100 6200
Wire Wire Line
	2350 6200 2350 6100
Connection ~ 2900 6200
Wire Wire Line
	4400 6150 4400 6250
Connection ~ 3100 5600
Wire Wire Line
	6250 5900 5750 5900
Wire Wire Line
	6250 6050 5750 6050
Wire Wire Line
	2750 5700 2750 5600
Wire Wire Line
	2750 6100 2750 6300
Wire Wire Line
	3100 6200 3100 6100
Wire Wire Line
	2350 5700 2350 5600
Connection ~ 2750 5600
Wire Wire Line
	4550 5600 4550 5900
Connection ~ 4550 5900
Wire Wire Line
	5700 5500 5800 5500
Wire Wire Line
	5800 5500 5800 5600
Wire Wire Line
	3100 5450 3100 5700
Wire Wire Line
	2500 5450 2450 5450
Wire Wire Line
	2450 5450 2450 5400
Wire Wire Line
	4200 6050 4850 6050
Wire Wire Line
	4200 5600 4200 5850
Wire Wire Line
	2350 5600 4200 5600
Text GLabel 3400 6250 3    60   BiDi ~ 0
GND_CASE
$Comp
L USB_2A USB1
U 1 1 518A5D14
P 4000 6000
F 0 "USB1" H 3925 6250 60  0000 C CNN
F 1 "USB_2A" H 4050 5700 60  0001 C CNN
F 2 "conn_usb_A-vert" H 4000 6000 60  0001 C CNN
F 3 "" H 4000 6000 60  0001 C CNN
F 4 "VCC" H 4325 6150 50  0001 C CNN "VCC"
F 5 "D+" H 4300 6050 50  0001 C CNN "Data+"
F 6 "D-" H 4300 5950 50  0001 C CNN "Data-"
F 7 "GND" H 4325 5850 50  0001 C CNN "Ground"
	1    4000 6000
	1    0    0    -1  
$EndComp
$Comp
L INDUCTOR LE1
U 1 1 518A5D20
P 2800 5450
F 0 "LE1" V 2750 5450 40  0000 C CNN
F 1 "2A 120 ohm" V 2900 5450 40  0000 C CNN
F 2 "SM0805" H 2800 5450 60  0001 C CNN
F 3 "" H 2800 5450 60  0001 C CNN
	1    2800 5450
	0    -1   -1   0   
$EndComp
$Comp
L GND #PWR0114
U 1 1 518A5D2C
P 5800 5600
F 0 "#PWR0114" H 5800 5600 30  0001 C CNN
F 1 "GND" H 5800 5530 30  0001 C CNN
F 2 "" H 5800 5600 60  0001 C CNN
F 3 "" H 5800 5600 60  0001 C CNN
	1    5800 5600
	1    0    0    -1  
$EndComp
$Comp
L RCLAMP0502B UE5
U 1 1 518A5D38
P 5550 5200
F 0 "UE5" V 5500 6000 60  0000 C CNN
F 1 "RCLAMP0502B" V 5500 5600 60  0000 C CNN
F 2 "SOT-523" H 5550 5200 60  0001 C CNN
F 3 "" H 5550 5200 60  0001 C CNN
	1    5550 5200
	0    -1   -1   0   
$EndComp
$Comp
L DIODE DE1
U 1 1 518A5D3E
P 2350 5900
F 0 "DE1" H 2350 6000 40  0000 C CNN
F 1 "RSA5M" H 2350 5800 40  0000 C CNN
F 2 "SOD123" H 2350 5900 60  0001 C CNN
F 3 "" H 2350 5900 60  0001 C CNN
	1    2350 5900
	0    -1   -1   0   
$EndComp
$Comp
L GND #PWR0115
U 1 1 518A5D44
P 4400 6250
F 0 "#PWR0115" H 4400 6250 30  0001 C CNN
F 1 "GND" H 4400 6180 30  0001 C CNN
F 2 "" H 4400 6250 60  0001 C CNN
F 3 "" H 4400 6250 60  0001 C CNN
	1    4400 6250
	1    0    0    -1  
$EndComp
$Comp
L C CE1
U 1 1 518A5D4A
P 2750 5900
F 0 "CE1" H 2800 6000 50  0000 L CNN
F 1 "33uF" H 2800 5800 50  0000 L CNN
F 2 "SM1206" H 2750 5900 60  0001 C CNN
F 3 "" H 2750 5900 60  0001 C CNN
	1    2750 5900
	1    0    0    -1  
$EndComp
$Comp
L C CE2
U 1 1 518A5D50
P 3100 5900
F 0 "CE2" H 3150 6000 50  0000 L CNN
F 1 "100nF" H 3150 5800 50  0000 L CNN
F 2 "SM0603" H 3100 5900 60  0001 C CNN
F 3 "" H 3100 5900 60  0001 C CNN
	1    3100 5900
	1    0    0    -1  
$EndComp
$Comp
L VDD5V #PWR0116
U 1 1 518A5D5C
P 2450 5400
F 0 "#PWR0116" H 2450 5500 30  0001 C CNN
F 1 "VDD5V" H 2450 5500 30  0000 C CNN
F 2 "" H 2450 5400 60  0001 C CNN
F 3 "" H 2450 5400 60  0001 C CNN
	1    2450 5400
	1    0    0    -1  
$EndComp
Text Label 5850 6050 0    60   ~ 0
USB_DP1
Text Label 5850 5900 0    60   ~ 0
USB_DM1
$Comp
L SRF2012 LE9
U 1 1 518A5D64
P 5300 5950
F 0 "LE9" H 5300 5800 60  0000 C CNN
F 1 "SRF2012" H 5300 6050 60  0000 C CNN
F 2 "SRF2012" H 5300 5950 60  0001 C CNN
F 3 "" H 5300 5950 60  0001 C CNN
	1    5300 5950
	1    0    0    -1  
$EndComp
Wire Wire Line
	1800 2150 1300 2150
Wire Wire Line
	1800 2050 1300 2050
Text Label 1400 2050 0    60   ~ 0
USB_DP1
Text Label 1400 2150 0    60   ~ 0
USB_DM1
$Comp
L STEREO-AUDIO-JACK_SJ1-3524-SMT HP1
U 1 1 518A9EAD
P 3200 2050
F 0 "HP1" H 2950 1700 40  0000 C CNN
F 1 "Headphones" H 3125 2375 30  0000 C CNN
F 2 "SJ-3524-SMT_Stereo_Jack" H 3200 2050 60  0001 C CNN
F 3 "" H 3200 2050 60  0000 C CNN
	1    3200 2050
	1    0    0    -1  
$EndComp
$Comp
L STEREO-AUDIO-JACK_SJ1-3524-SMT HP2
U 1 1 518A832B
P 3200 3050
F 0 "HP2" H 2950 2700 40  0000 C CNN
F 1 "Line" H 3125 3375 30  0000 C CNN
F 2 "SJ-3524-SMT_Stereo_Jack" H 3200 3050 60  0001 C CNN
F 3 "" H 3200 3050 60  0000 C CNN
	1    3200 3050
	1    0    0    -1  
$EndComp
$Comp
L C CE5
U 1 1 518A8FB1
P 4250 2500
F 0 "CE5" H 4300 2600 50  0000 L CNN
F 1 "2.2nF" H 4300 2400 50  0000 L CNN
F 2 "Capacitors_SMD:C_0603" H 4250 2500 60  0001 C CNN
F 3 "" H 4250 2500 60  0001 C CNN
	1    4250 2500
	1    0    0    -1  
$EndComp
$Comp
L C CE9
U 1 1 518A8FB7
P 5300 2950
F 0 "CE9" H 5350 3050 50  0000 L CNN
F 1 "1uF" H 5350 2850 50  0000 L CNN
F 2 "Capacitors_SMD:C_0603" H 5300 2950 60  0001 C CNN
F 3 "" H 5300 2950 60  0001 C CNN
	1    5300 2950
	0    -1   -1   0   
$EndComp
Wire Wire Line
	3650 1800 3500 1800
Wire Wire Line
	3650 1950 3500 1950
Wire Wire Line
	3650 2300 3500 2300
NoConn ~ 3500 2200
Text Label 4000 1800 0    60   ~ 0
HP_VGND
Text Label 4050 1950 0    60   ~ 0
HP_R
Text Label 4050 2300 0    60   ~ 0
HP_L
Wire Wire Line
	4350 1800 3950 1800
Wire Wire Line
	3950 1950 4500 1950
Wire Wire Line
	3950 2300 4250 2300
$Comp
L C CE7
U 1 1 518ABD2E
P 4500 2500
F 0 "CE7" H 4550 2600 50  0000 L CNN
F 1 "2.2nF" H 4550 2400 50  0000 L CNN
F 2 "Capacitors_SMD:C_0603" H 4500 2500 60  0001 C CNN
F 3 "" H 4500 2500 60  0001 C CNN
	1    4500 2500
	1    0    0    -1  
$EndComp
Wire Wire Line
	4500 1950 4500 2350
Wire Wire Line
	4250 2700 4650 2700
Wire Wire Line
	3500 2800 3650 2800
Wire Wire Line
	3500 2950 3650 2950
Wire Wire Line
	3500 3300 3650 3300
NoConn ~ 3500 3200
$Comp
L GND #PWR0117
U 1 1 518ADE79
P 4650 2700
F 0 "#PWR0117" H 4650 2700 30  0001 C CNN
F 1 "GND" H 4650 2630 30  0001 C CNN
F 2 "" H 4650 2700 60  0001 C CNN
F 3 "" H 4650 2700 60  0001 C CNN
	1    4650 2700
	0    -1   -1   0   
$EndComp
Wire Wire Line
	4250 2800 3950 2800
Wire Wire Line
	4250 2650 4250 2800
Connection ~ 4500 2700
$Comp
L R RE3
U 1 1 518A8A54
P 4400 2950
F 0 "RE3" V 4480 2950 40  0000 C CNN
F 1 "10k" V 4407 2951 40  0000 C CNN
F 2 "Resistors_SMD:R_0603" V 4330 2950 30  0001 C CNN
F 3 "~" H 4400 2950 30  0000 C CNN
	1    4400 2950
	0    -1   -1   0   
$EndComp
$Comp
L R RE4
U 1 1 518A8E1A
P 4400 3300
F 0 "RE4" V 4480 3300 40  0000 C CNN
F 1 "10k" V 4407 3301 40  0000 C CNN
F 2 "Resistors_SMD:R_0603" V 4330 3300 30  0001 C CNN
F 3 "~" H 4400 3300 30  0000 C CNN
	1    4400 3300
	0    -1   -1   0   
$EndComp
$Comp
L R RE5
U 1 1 518A8E68
P 4800 3550
F 0 "RE5" V 4880 3550 40  0000 C CNN
F 1 "4.7k" V 4807 3551 40  0000 C CNN
F 2 "Resistors_SMD:R_0603" V 4730 3550 30  0001 C CNN
F 3 "~" H 4800 3550 30  0000 C CNN
	1    4800 3550
	-1   0    0    1   
$EndComp
$Comp
L R RE6
U 1 1 518A8F0D
P 5050 3550
F 0 "RE6" V 5130 3550 40  0000 C CNN
F 1 "4.7k" V 5057 3551 40  0000 C CNN
F 2 "Resistors_SMD:R_0603" V 4980 3550 30  0001 C CNN
F 3 "~" H 5050 3550 30  0000 C CNN
	1    5050 3550
	-1   0    0    1   
$EndComp
Wire Wire Line
	3950 2950 4250 2950
Wire Wire Line
	3950 3300 4250 3300
Wire Wire Line
	4550 3300 4800 3300
Wire Wire Line
	4550 2950 5150 2950
Wire Wire Line
	5050 2950 5050 3400
Wire Wire Line
	5050 3800 4800 3800
$Comp
L GND #PWR0118
U 1 1 518A9D75
P 4800 3900
F 0 "#PWR0118" H 4800 3900 30  0001 C CNN
F 1 "GND" H 4800 3830 30  0001 C CNN
F 2 "" H 4800 3900 60  0001 C CNN
F 3 "" H 4800 3900 60  0001 C CNN
	1    4800 3900
	1    0    0    -1  
$EndComp
Wire Wire Line
	4800 3700 4800 3900
Connection ~ 5050 2950
$Comp
L C CE10
U 1 1 518AAAA4
P 5300 3200
F 0 "CE10" H 5350 3300 50  0000 L CNN
F 1 "1uF" H 5350 3100 50  0000 L CNN
F 2 "Capacitors_SMD:C_0603" H 5300 3200 60  0001 C CNN
F 3 "" H 5300 3200 60  0001 C CNN
	1    5300 3200
	0    -1   -1   0   
$EndComp
Wire Wire Line
	4800 3200 4800 3400
Wire Wire Line
	4800 3200 5150 3200
Wire Wire Line
	5450 2950 5800 2950
Wire Wire Line
	5450 3200 5800 3200
Text Label 5550 2950 0    60   ~ 0
LINE_INR
Text Label 5550 3200 0    60   ~ 0
LINE_INL
Text Label 1350 1400 0    60   ~ 0
HP_VGND
Text Label 1400 1300 0    60   ~ 0
HP_R
Text Label 1400 1200 0    60   ~ 0
HP_L
Wire Wire Line
	1700 1400 1300 1400
Wire Wire Line
	1300 1300 1700 1300
Wire Wire Line
	1300 1200 1700 1200
Wire Wire Line
	1700 1550 1300 1550
Wire Wire Line
	1700 1650 1300 1650
Text Label 1350 1550 0    60   ~ 0
LINE_INR
Text Label 1350 1650 0    60   ~ 0
LINE_INL
Wire Wire Line
	1300 1850 1800 1850
Text Label 1450 1850 0    60   ~ 0
VDAC1
Wire Wire Line
	1700 1050 1300 1050
Wire Wire Line
	1800 950  1300 950 
Text Label 1350 1050 0    60   ~ 0
MIC
Text Label 1400 950  0    60   ~ 0
LRADC1
$Comp
L GND #PWR0119
U 1 1 518BA5AB
P 800 3100
F 0 "#PWR0119" H 800 3100 30  0001 C CNN
F 1 "GND" H 800 3030 30  0001 C CNN
F 2 "" H 800 3100 60  0001 C CNN
F 3 "" H 800 3100 60  0001 C CNN
	1    800  3100
	1    0    0    -1  
$EndComp
Wire Wire Line
	800  3100 800  3050
Wire Wire Line
	4200 6150 4400 6150
Wire Wire Line
	1500 3050 1800 3050
Text GLabel 1800 3050 2    60   BiDi ~ 0
GND_CASE
$Comp
L INDUCTOR LE10
U 1 1 518C0FF0
P 1200 3050
F 0 "LE10" V 1150 3050 40  0000 C CNN
F 1 "2A 120 ohm" V 1300 3050 40  0000 C CNN
F 2 "SM0805" H 1200 3050 60  0001 C CNN
F 3 "" H 1200 3050 60  0001 C CNN
	1    1200 3050
	0    -1   -1   0   
$EndComp
Wire Wire Line
	800  3050 900  3050
Connection ~ 1550 3050
$Comp
L GND #PWR0120
U 1 1 51A76D67
P 2750 6300
F 0 "#PWR0120" H 2750 6300 30  0001 C CNN
F 1 "GND" H 2750 6230 30  0001 C CNN
F 2 "" H 2750 6300 60  0001 C CNN
F 3 "" H 2750 6300 60  0001 C CNN
	1    2750 6300
	1    0    0    -1  
$EndComp
$Comp
L JACK-PLUG0 PWR1
U 1 1 51A7AF1E
P 1400 4350
F 0 "PWR1" H 1100 4550 50  0000 L BNN
F 1 "JACK-PLUG0" H 1100 4150 50  0000 L BNN
F 2 "J5" H 1400 4500 50  0001 C CNN
F 3 "" H 1400 4350 60  0000 C CNN
	1    1400 4350
	1    0    0    -1  
$EndComp
$Comp
L GND #PWR0121
U 1 1 51A7B777
P 1950 4400
F 0 "#PWR0121" H 1950 4400 30  0001 C CNN
F 1 "GND" H 1950 4330 30  0001 C CNN
F 2 "" H 1950 4400 60  0001 C CNN
F 3 "" H 1950 4400 60  0001 C CNN
	1    1950 4400
	1    0    0    -1  
$EndComp
Wire Wire Line
	1950 4400 1950 4350
Wire Wire Line
	1950 4350 1600 4350
$Comp
L VDD5V #PWR0122
U 1 1 51A7C1B8
P 1800 4200
F 0 "#PWR0122" H 1800 4300 30  0001 C CNN
F 1 "VDD5V" H 1800 4350 30  0000 C CNN
F 2 "" H 1800 4200 60  0001 C CNN
F 3 "" H 1800 4200 60  0001 C CNN
	1    1800 4200
	1    0    0    -1  
$EndComp
Wire Wire Line
	1800 4200 1800 4250
Wire Wire Line
	1800 4250 1600 4250
Text HLabel 1300 950  0    60   BiDi ~ 0
LRADC1
Text HLabel 1300 1050 0    60   BiDi ~ 0
MIC
Text HLabel 1300 1200 0    60   BiDi ~ 0
HP_L
Text HLabel 1300 1300 0    60   BiDi ~ 0
HP_R
Text HLabel 1300 1400 0    60   BiDi ~ 0
HP_VGND
Text HLabel 1300 1550 0    60   BiDi ~ 0
LINE_INR
Text HLabel 1300 1650 0    60   BiDi ~ 0
LINE_INL
Text HLabel 1300 1850 0    60   BiDi ~ 0
VDAC1
Text HLabel 1300 2050 0    60   BiDi ~ 0
USB_DP
Text HLabel 1300 2150 0    60   BiDi ~ 0
USB_DM
Wire Wire Line
	4250 2300 4250 2350
Wire Wire Line
	4500 2650 4500 2700
Connection ~ 4250 2700
Connection ~ 4800 3300
Wire Wire Line
	5050 3700 5050 3800
Connection ~ 4800 3800
$Comp
L L LA1
U 1 1 5847C463
P 3800 1800
F 0 "LA1" V 3850 1975 50  0000 C CNN
F 1 "LST1" V 3900 1625 50  0000 C CNN
F 2 "Resistors_SMD:R_0805" V 3898 1800 50  0001 C CNN
F 3 "" H 3800 1800 50  0000 C CNN
	1    3800 1800
	0    -1   -1   0   
$EndComp
$Comp
L L LA2
U 1 1 5847CBBC
P 3800 1950
F 0 "LA2" V 3850 2125 50  0000 C CNN
F 1 "LST1" V 3850 1775 50  0000 C CNN
F 2 "Resistors_SMD:R_0805" V 3898 1950 50  0001 C CNN
F 3 "" H 3800 1950 50  0000 C CNN
	1    3800 1950
	0    -1   -1   0   
$EndComp
$Comp
L L LA3
U 1 1 5847CC17
P 3800 2300
F 0 "LA3" V 3850 2500 50  0000 C CNN
F 1 "LST1" V 3875 2150 50  0000 C CNN
F 2 "Resistors_SMD:R_0805" V 3898 2300 50  0001 C CNN
F 3 "" H 3800 2300 50  0000 C CNN
	1    3800 2300
	0    -1   -1   0   
$EndComp
$Comp
L L LA4
U 1 1 5847CD0B
P 3800 2800
F 0 "LA4" V 3850 2975 50  0000 C CNN
F 1 "LST1" V 3850 2575 50  0000 C CNN
F 2 "Resistors_SMD:R_0805" V 3898 2800 50  0001 C CNN
F 3 "" H 3800 2800 50  0000 C CNN
	1    3800 2800
	0    -1   -1   0   
$EndComp
$Comp
L L LA5
U 1 1 5847CD88
P 3800 2950
F 0 "LA5" V 3850 3125 50  0000 C CNN
F 1 "LST1" V 3850 2725 50  0000 C CNN
F 2 "Resistors_SMD:R_0805" V 3898 2950 50  0001 C CNN
F 3 "" H 3800 2950 50  0000 C CNN
	1    3800 2950
	0    -1   -1   0   
$EndComp
$Comp
L L LA6
U 1 1 5847CDF0
P 3800 3300
F 0 "LA6" V 3850 3475 50  0000 C CNN
F 1 "LST1" V 3850 3075 50  0000 C CNN
F 2 "Resistors_SMD:R_0805" V 3898 3300 50  0001 C CNN
F 3 "" H 3800 3300 50  0000 C CNN
	1    3800 3300
	0    -1   -1   0   
$EndComp
$EndSCHEMATC
