EESchema Schematic File Version 2
LIBS:chip_media-rescue
LIBS:power
LIBS:device
LIBS:transistors
LIBS:conn
LIBS:linear
LIBS:regul
LIBS:74xx
LIBS:cmos4000
LIBS:adc-dac
LIBS:memory
LIBS:xilinx
LIBS:microcontrollers
LIBS:dsp
LIBS:microchip
LIBS:analog_switches
LIBS:motorola
LIBS:texas
LIBS:intel
LIBS:audio
LIBS:interface
LIBS:digital-audio
LIBS:philips
LIBS:display
LIBS:cypress
LIBS:siliconi
LIBS:opto
LIBS:atmel
LIBS:contrib
LIBS:valves
LIBS:chip_pro
LIBS:stm32f100vxx
LIBS:ABM8G
LIBS:drv8835
LIBS:lt1117cst
LIBS:stm32f0
LIBS:Carlolib-dev
LIBS:opendous
LIBS:mem_mic
LIBS:usba-plug
LIBS:imx233stamp-cache
LIBS:srf2012
LIBS:rclamp0502b
LIBS:usbconn
LIBS:usb_a
LIBS:onion2_new
LIBS:onion2
LIBS:JQC_3FF
LIBS:tcs3404
LIBS:sp481
LIBS:vof_6b_s5
LIBS:chip_media-cache
EELAYER 26 0
EELAYER END
$Descr A4 11693 8268
encoding utf-8
Sheet 1 5
Title ""
Date ""
Rev ""
Comp ""
Comment1 ""
Comment2 ""
Comment3 ""
Comment4 ""
$EndDescr
$Sheet
S 1900 2875 1825 2025
U 5844D827
F0 "stm32" 60
F1 "stm32.sch" 60
F2 "SAM_RX" O R 3725 4025 60 
F3 "SAM_TX" O R 3725 4125 60 
F4 "JNRST" B R 3725 3300 60 
F5 "JTMS" B R 3725 3400 60 
F6 "JTCK" B R 3725 3500 60 
F7 "JTDO" B R 3725 3700 60 
F8 "JTDI" B R 3725 3600 60 
F9 "JTRST" B R 3725 3800 60 
F10 "BOOT0" B R 3725 3900 60 
F11 "SDA" I L 1900 4175 60 
F12 "SCL" I L 1900 4275 60 
F13 "VRTC" I R 3725 4700 60 
$EndSheet
$Comp
L GND #PWR01
U 1 1 584632AC
P 4600 3100
F 0 "#PWR01" H 4600 3100 30  0001 C CNN
F 1 "GND" H 4600 3030 30  0001 C CNN
F 2 "" H 4600 3100 60  0001 C CNN
F 3 "" H 4600 3100 60  0001 C CNN
	1    4600 3100
	0    1    -1   0   
$EndComp
$Comp
L GND #PWR02
U 1 1 58463508
P 6800 3100
F 0 "#PWR02" H 6800 3100 30  0001 C CNN
F 1 "GND" H 6800 3030 30  0001 C CNN
F 2 "" H 6800 3100 60  0001 C CNN
F 3 "" H 6800 3100 60  0001 C CNN
	1    6800 3100
	0    -1   -1   0   
$EndComp
Text Label 3750 4125 0    60   ~ 0
SAM_TX
Text Label 3750 4025 0    60   ~ 0
SAM_RX
$Comp
L SW_PUSH PW1
U 1 1 5847760F
P 2750 6375
F 0 "PW1" H 2900 6485 50  0000 C CNN
F 1 "SW_PUSH" H 2750 6295 50  0000 C CNN
F 2 "Buttons_Switches_ThroughHole:SW_Tactile_SPST_Angled" H 2750 6375 60  0001 C CNN
F 3 "" H 2750 6375 60  0000 C CNN
	1    2750 6375
	0    -1   -1   0   
$EndComp
$Comp
L GND #PWR03
U 1 1 5847775B
P 2125 7425
F 0 "#PWR03" H 2125 7425 30  0001 C CNN
F 1 "GND" H 2125 7355 30  0001 C CNN
F 2 "" H 2125 7425 60  0001 C CNN
F 3 "" H 2125 7425 60  0001 C CNN
	1    2125 7425
	1    0    0    -1  
$EndComp
Text Label 1750 6900 0    60   ~ 0
RESET
$Comp
L CONN_01X06 ECOM1
U 1 1 5848971C
P 1175 4325
F 0 "ECOM1" V 1300 4300 50  0000 C CNN
F 1 "CONN_01X06" H 1253 4275 50  0001 L CNN
F 2 "Socket_Strips:Socket_Strip_Straight_1x06" H 1175 4325 50  0001 C CNN
F 3 "" H 1175 4325 50  0000 C CNN
	1    1175 4325
	-1   0    0    1   
$EndComp
$Comp
L GND #PWR04
U 1 1 5848BA42
P 1725 4375
F 0 "#PWR04" H 1725 4375 30  0001 C CNN
F 1 "GND" H 1725 4305 30  0001 C CNN
F 2 "" H 1725 4375 60  0001 C CNN
F 3 "" H 1725 4375 60  0001 C CNN
	1    1725 4375
	1    0    0    -1  
$EndComp
$Comp
L +3.3VP #PWR05
U 1 1 5848C3B2
P 1450 3975
F 0 "#PWR05" H 1500 4005 20  0001 C CNN
F 1 "+3.3VP" H 1450 4065 30  0000 C CNN
F 2 "" H 1450 3975 60  0001 C CNN
F 3 "" H 1450 3975 60  0001 C CNN
	1    1450 3975
	1    0    0    -1  
$EndComp
Text Label 1375 4475 0    60   ~ 0
G8_TX
Text Label 1375 4575 0    60   ~ 0
G8_RX
Text Label 1475 4175 0    60   ~ 0
SDA
Text Label 1475 4275 0    60   ~ 0
SCL
Text Label 6800 4600 0    60   ~ 0
SDA
Text Label 6800 4500 0    60   ~ 0
SCL
$Comp
L +3.3VP #PWR06
U 1 1 58497735
P 7000 2750
F 0 "#PWR06" H 7050 2780 20  0001 C CNN
F 1 "+3.3VP" H 6950 2875 30  0000 C CNN
F 2 "" H 7000 2750 60  0001 C CNN
F 3 "" H 7000 2750 60  0001 C CNN
	1    7000 2750
	1    0    0    -1  
$EndComp
$Comp
L R RGR8
U 1 1 5849C971
P 4325 3200
F 0 "RGR8" V 4405 3200 50  0000 C CNN
F 1 "1k" V 4325 3200 50  0000 C CNN
F 2 "Resistors_SMD:R_0603" H 4325 3200 60  0001 C CNN
F 3 "" H 4325 3200 60  0001 C CNN
	1    4325 3200
	0    1    1    0   
$EndComp
$Comp
L LED DRGR8
U 1 1 5849C978
P 4675 3200
F 0 "DRGR8" H 4700 3100 50  0000 C CNN
F 1 "LED" H 4675 3050 50  0001 C CNN
F 2 "LEDs:LED_0603" H 4675 3200 60  0001 C CNN
F 3 "" H 4675 3200 60  0001 C CNN
	1    4675 3200
	1    0    0    -1  
$EndComp
$Comp
L GND #PWR07
U 1 1 5849C97F
P 4150 3200
F 0 "#PWR07" H 4150 3200 30  0001 C CNN
F 1 "GND" H 4150 3130 30  0001 C CNN
F 2 "" H 4150 3200 60  0001 C CNN
F 3 "" H 4150 3200 60  0001 C CNN
	1    4150 3200
	0    1    -1   0   
$EndComp
Text Label 6725 3600 0    60   ~ 0
G8_TX
Text Label 6725 3500 0    60   ~ 0
G8_RX
$Sheet
S 7350 3175 650  350 
U 58715936
F0 "USB" 60
F1 "USB.sch" 60
F2 "USB_DM0" I L 7350 3400 60 
F3 "USB_DP0" I L 7350 3300 60 
$EndSheet
Text Label 6725 3300 0    60   ~ 0
USB_D0+
Text Label 6725 3400 0    60   ~ 0
USB_D0-
Text Label 6825 4300 0    60   ~ 0
RUN
$Comp
L ONION2 ON2_1
U 1 1 598E8081
P 6025 3700
F 0 "ON2_1" H 5800 4547 60  0000 C CNN
F 1 "ONION2" H 5800 4441 60  0000 C CNN
F 2 "modules:ONION2" H 7025 4525 60  0001 C CNN
F 3 "" H 7025 4525 60  0001 C CNN
	1    6025 3700
	1    0    0    -1  
$EndComp
Text Label 4500 3800 0    60   ~ 0
SAM_TX
Text Label 4500 3900 0    60   ~ 0
SAM_RX
Text Label 6725 3700 0    60   ~ 0
RESET
$Comp
L R RR2
U 1 1 598FA39B
P 2400 6900
F 0 "RR2" V 2480 6900 50  0000 C CNN
F 1 "1k" V 2400 6900 50  0000 C CNN
F 2 "Resistors_SMD:R_0603" H 2400 6900 60  0001 C CNN
F 3 "" H 2400 6900 60  0001 C CNN
	1    2400 6900
	0    -1   -1   0   
$EndComp
$Comp
L +3.3VP #PWR08
U 1 1 598FA3A1
P 2750 6025
F 0 "#PWR08" H 2800 6055 20  0001 C CNN
F 1 "+3.3VP" H 2700 6150 30  0000 C CNN
F 2 "" H 2750 6025 60  0001 C CNN
F 3 "" H 2750 6025 60  0001 C CNN
	1    2750 6025
	1    0    0    -1  
$EndComp
Wire Wire Line
	4600 3100 4875 3100
Wire Wire Line
	6800 3100 6725 3100
Wire Wire Line
	1650 4475 1375 4475
Wire Wire Line
	1650 4575 1375 4575
Wire Wire Line
	3725 4025 4125 4025
Wire Wire Line
	4125 4125 3725 4125
Wire Wire Line
	2550 6900 2750 6900
Wire Wire Line
	2125 7300 2125 7425
Wire Wire Line
	1750 6900 2250 6900
Wire Wire Line
	1375 4175 1900 4175
Wire Wire Line
	1900 4275 1375 4275
Wire Wire Line
	1375 4375 1725 4375
Wire Wire Line
	1450 3975 1450 4075
Wire Wire Line
	1450 4075 1375 4075
Wire Wire Line
	3725 3400 4875 3400
Wire Wire Line
	3725 3500 4875 3500
Wire Wire Line
	3725 3600 4875 3600
Wire Wire Line
	3725 3700 4875 3700
Wire Wire Line
	6725 4600 7075 4600
Wire Wire Line
	6725 4500 7075 4500
Wire Wire Line
	7075 3600 6725 3600
Wire Wire Line
	7075 3500 6725 3500
Wire Wire Line
	4150 3200 4175 3200
Wire Wire Line
	4475 3200 4525 3200
Wire Wire Line
	6725 3300 7350 3300
Wire Wire Line
	6725 3400 7350 3400
Wire Wire Line
	7975 3600 7975 3525
Wire Wire Line
	7025 4300 6725 4300
Wire Wire Line
	4475 3900 4875 3900
Wire Wire Line
	4875 3800 4475 3800
Wire Wire Line
	3725 3800 4300 3800
Wire Wire Line
	4300 3800 4300 4400
Wire Wire Line
	4300 4400 4875 4400
Wire Wire Line
	3725 3900 4225 3900
Wire Wire Line
	4225 3900 4225 4500
Wire Wire Line
	4225 4500 4875 4500
Wire Wire Line
	7000 3200 6725 3200
Wire Wire Line
	6725 4400 7125 4400
Wire Wire Line
	7000 2750 7000 3200
Wire Wire Line
	7075 3700 6725 3700
Wire Wire Line
	2750 6025 2750 6075
Connection ~ 2125 6900
Wire Wire Line
	3725 3300 4125 3300
Text Label 3750 3300 0    60   ~ 0
JNRST
Text Label 6825 4400 0    60   ~ 0
JNRST
Wire Wire Line
	4825 3200 4875 3200
$Comp
L MCP7940N RTC1
U 1 1 59A502EF
P 4800 6300
F 0 "RTC1" H 5150 6900 50  0000 C CNN
F 1 "MCP7940N" H 5250 6825 50  0000 C CNN
F 2 "Housings_SOIC:SOIC-8_3.9x4.9mm_Pitch1.27mm" H 4800 6300 50  0001 C CNN
F 3 "" H 4800 6300 50  0000 C CNN
	1    4800 6300
	1    0    0    -1  
$EndComp
Text Notes 3525 6900 0    60   ~ 0
MCP7940N-I/SN-ND
Text Label 3975 6200 0    60   ~ 0
SDA
Text Label 3975 6100 0    60   ~ 0
SCL
Wire Wire Line
	3875 6200 4400 6200
Wire Wire Line
	4400 6100 3875 6100
$Comp
L Crystal Y1
U 1 1 59A6481A
P 5550 6275
F 0 "Y1" V 5504 6406 50  0000 L CNN
F 1 "Crystal" V 5595 6406 50  0000 L CNN
F 2 "modules:txc_32k" H 5550 6275 50  0001 C CNN
F 3 "" H 5550 6275 50  0000 C CNN
	1    5550 6275
	0    1    1    0   
$EndComp
Wire Wire Line
	5200 6200 5275 6200
Wire Wire Line
	5275 6200 5275 6000
Wire Wire Line
	5275 6000 5725 6000
Wire Wire Line
	5550 6000 5550 6125
Wire Wire Line
	5200 6400 5275 6400
Wire Wire Line
	5275 6400 5275 6575
Wire Wire Line
	5275 6575 5725 6575
Wire Wire Line
	5550 6575 5550 6425
$Comp
L C CR1
U 1 1 59A65500
P 5875 6000
F 0 "CR1" H 5925 6100 50  0000 L CNN
F 1 "2pF" H 5925 5900 50  0000 L CNN
F 2 "Capacitors_SMD:C_0603" H 5875 6000 60  0001 C CNN
F 3 "" H 5875 6000 60  0001 C CNN
	1    5875 6000
	0    1    1    0   
$EndComp
$Comp
L C CR2
U 1 1 59A6570B
P 5875 6575
F 0 "CR2" H 5925 6675 50  0000 L CNN
F 1 "2pF" H 5925 6475 50  0000 L CNN
F 2 "Capacitors_SMD:C_0603" H 5875 6575 60  0001 C CNN
F 3 "" H 5875 6575 60  0001 C CNN
	1    5875 6575
	0    1    1    0   
$EndComp
Connection ~ 5550 6000
Connection ~ 5550 6575
$Comp
L GND #PWR09
U 1 1 59A65D89
P 6100 6000
F 0 "#PWR09" H 6100 6000 30  0001 C CNN
F 1 "GND" H 6100 5930 30  0001 C CNN
F 2 "" H 6100 6000 60  0001 C CNN
F 3 "" H 6100 6000 60  0001 C CNN
	1    6100 6000
	0    -1   -1   0   
$EndComp
$Comp
L GND #PWR010
U 1 1 59A660EA
P 6100 6575
F 0 "#PWR010" H 6100 6575 30  0001 C CNN
F 1 "GND" H 6100 6505 30  0001 C CNN
F 2 "" H 6100 6575 60  0001 C CNN
F 3 "" H 6100 6575 60  0001 C CNN
	1    6100 6575
	0    -1   -1   0   
$EndComp
Wire Wire Line
	6100 6000 6025 6000
Wire Wire Line
	6100 6575 6025 6575
$Comp
L GND #PWR011
U 1 1 59A66BD1
P 4800 6825
F 0 "#PWR011" H 4800 6825 30  0001 C CNN
F 1 "GND" H 4800 6755 30  0001 C CNN
F 2 "" H 4800 6825 60  0001 C CNN
F 3 "" H 4800 6825 60  0001 C CNN
	1    4800 6825
	1    0    0    -1  
$EndComp
Wire Wire Line
	4800 6700 4800 6825
$Comp
L +3.3VP #PWR012
U 1 1 59A676A9
P 4800 5325
F 0 "#PWR012" H 4850 5355 20  0001 C CNN
F 1 "+3.3VP" H 4750 5450 30  0000 C CNN
F 2 "" H 4800 5325 60  0001 C CNN
F 3 "" H 4800 5325 60  0001 C CNN
	1    4800 5325
	1    0    0    -1  
$EndComp
Wire Wire Line
	4800 5325 4800 5900
$Comp
L C CR3
U 1 1 59A679A5
P 4250 5600
F 0 "CR3" H 4300 5700 50  0000 L CNN
F 1 ".1uF" H 4300 5500 50  0000 L CNN
F 2 "Capacitors_SMD:C_0603" H 4250 5600 60  0001 C CNN
F 3 "" H 4250 5600 60  0001 C CNN
	1    4250 5600
	-1   0    0    1   
$EndComp
Wire Wire Line
	4250 5450 4250 5400
Wire Wire Line
	4250 5400 4800 5400
Connection ~ 4800 5400
$Comp
L GND #PWR013
U 1 1 59A67BB9
P 4250 5825
F 0 "#PWR013" H 4250 5825 30  0001 C CNN
F 1 "GND" H 4250 5755 30  0001 C CNN
F 2 "" H 4250 5825 60  0001 C CNN
F 3 "" H 4250 5825 60  0001 C CNN
	1    4250 5825
	1    0    0    -1  
$EndComp
Wire Wire Line
	4250 5750 4250 5825
$Comp
L BATTERY BT1
U 1 1 59A686DA
P 5675 5400
F 0 "BT1" H 5675 5715 50  0000 C CNN
F 1 "BATTERY" H 5675 5624 50  0000 C CNN
F 2 "1059:1059" H 5675 5400 60  0001 C CNN
F 3 "" H 5675 5400 60  0001 C CNN
	1    5675 5400
	1    0    0    -1  
$EndComp
Wire Wire Line
	4900 4700 4900 5900
Wire Wire Line
	4900 5400 5375 5400
$Comp
L GND #PWR014
U 1 1 59A689BD
P 6050 5400
F 0 "#PWR014" H 6050 5400 30  0001 C CNN
F 1 "GND" H 6050 5330 30  0001 C CNN
F 2 "" H 6050 5400 60  0001 C CNN
F 3 "" H 6050 5400 60  0001 C CNN
	1    6050 5400
	0    -1   -1   0   
$EndComp
Wire Wire Line
	6050 5400 5975 5400
Text Notes 6025 6300 0    60   ~ 0
XC1617DKR-ND
Text Notes 5400 5025 0    60   ~ 0
 36-1059-ND
Wire Wire Line
	4900 4700 3725 4700
Connection ~ 4900 5400
$Comp
L R RR3
U 1 1 59E630E3
P 2125 7150
F 0 "RR3" V 2205 7150 50  0000 C CNN
F 1 "3k" V 2125 7150 50  0000 C CNN
F 2 "Resistors_SMD:R_0603" H 2125 7150 60  0001 C CNN
F 3 "" H 2125 7150 60  0001 C CNN
	1    2125 7150
	-1   0    0    1   
$EndComp
Wire Wire Line
	2125 7000 2125 6900
Wire Wire Line
	2750 6900 2750 6675
$EndSCHEMATC
