EESchema Schematic File Version 2
LIBS:chip_media-rescue
LIBS:power
LIBS:device
LIBS:transistors
LIBS:conn
LIBS:linear
LIBS:regul
LIBS:74xx
LIBS:cmos4000
LIBS:adc-dac
LIBS:memory
LIBS:xilinx
LIBS:microcontrollers
LIBS:dsp
LIBS:microchip
LIBS:analog_switches
LIBS:motorola
LIBS:texas
LIBS:intel
LIBS:audio
LIBS:interface
LIBS:digital-audio
LIBS:philips
LIBS:display
LIBS:cypress
LIBS:siliconi
LIBS:opto
LIBS:atmel
LIBS:contrib
LIBS:valves
LIBS:chip_pro
LIBS:stm32f100vxx
LIBS:ABM8G
LIBS:drv8835
LIBS:lt1117cst
LIBS:stm32f0
LIBS:Carlolib-dev
LIBS:opendous
LIBS:mem_mic
LIBS:usba-plug
LIBS:imx233stamp-cache
LIBS:srf2012
LIBS:rclamp0502b
LIBS:usbconn
LIBS:usb_a
LIBS:onion2_new
LIBS:onion2
LIBS:JQC_3FF
LIBS:tcs3404
LIBS:sp481
LIBS:vof_6b_s5
LIBS:chip_media-cache
EELAYER 26 0
EELAYER END
$Descr User 12992 11811
encoding utf-8
Sheet 2 5
Title ""
Date "9 may 2013"
Rev ""
Comp ""
Comment1 ""
Comment2 ""
Comment3 ""
Comment4 ""
$EndDescr
Text HLabel 7225 4625 2    60   Output ~ 0
SAM_RX
Text HLabel 7225 4525 2    60   Output ~ 0
SAM_TX
$Comp
L C C410
U 1 1 516D62F9
P 5075 8775
F 0 "C410" H 5125 8875 50  0000 L CNN
F 1 "0.1uF" H 5125 8675 50  0000 L CNN
F 2 "Capacitors_SMD:C_0603" H 5075 8775 60  0001 C CNN
F 3 "" H 5075 8775 60  0001 C CNN
	1    5075 8775
	1    0    0    -1  
$EndComp
$Comp
L C C411
U 1 1 516D62F8
P 5425 8775
F 0 "C411" H 5475 8875 50  0000 L CNN
F 1 "1uF" H 5475 8675 50  0000 L CNN
F 2 "Capacitors_SMD:C_0603" H 5425 8775 60  0001 C CNN
F 3 "" H 5425 8775 60  0001 C CNN
	1    5425 8775
	1    0    0    -1  
$EndComp
$Comp
L GND #PWR015
U 1 1 516D62F6
P 5275 9075
F 0 "#PWR015" H 5275 9075 30  0001 C CNN
F 1 "GND" H 5275 9005 30  0001 C CNN
F 2 "" H 5275 9075 60  0001 C CNN
F 3 "" H 5275 9075 60  0001 C CNN
	1    5275 9075
	1    0    0    -1  
$EndComp
$Comp
L +3.3VP #PWR016
U 1 1 516D62A0
P 10525 1600
F 0 "#PWR016" H 10575 1630 20  0001 C CNN
F 1 "+3.3VP" H 10525 1690 30  0000 C CNN
F 2 "" H 10525 1600 60  0001 C CNN
F 3 "" H 10525 1600 60  0001 C CNN
	1    10525 1600
	1    0    0    -1  
$EndComp
$Comp
L +3.3VP #PWR017
U 1 1 516D629C
P 11125 1700
F 0 "#PWR017" H 11175 1730 20  0001 C CNN
F 1 "+3.3VP" H 11125 1790 30  0000 C CNN
F 2 "" H 11125 1700 60  0001 C CNN
F 3 "" H 11125 1700 60  0001 C CNN
	1    11125 1700
	1    0    0    -1  
$EndComp
$Comp
L +3.3VP #PWR018
U 1 1 516D625C
P 3175 8425
F 0 "#PWR018" H 3225 8455 20  0001 C CNN
F 1 "+3.3VP" H 3175 8515 30  0000 C CNN
F 2 "" H 3175 8425 60  0001 C CNN
F 3 "" H 3175 8425 60  0001 C CNN
	1    3175 8425
	1    0    0    -1  
$EndComp
$Comp
L C C401
U 1 1 516D60B5
P 2275 8775
F 0 "C401" H 2325 8875 50  0000 L CNN
F 1 "0.1uF" H 2325 8675 50  0000 L CNN
F 2 "Capacitors_SMD:C_0603" H 2275 8775 60  0001 C CNN
F 3 "" H 2275 8775 60  0001 C CNN
	1    2275 8775
	1    0    0    -1  
$EndComp
$Comp
L GND #PWR019
U 1 1 516D6095
P 3175 9075
F 0 "#PWR019" H 3175 9075 30  0001 C CNN
F 1 "GND" H 3175 9005 30  0001 C CNN
F 2 "" H 3175 9075 60  0001 C CNN
F 3 "" H 3175 9075 60  0001 C CNN
	1    3175 9075
	1    0    0    -1  
$EndComp
$Comp
L C C407
U 1 1 516D6094
P 3675 8775
F 0 "C407" H 3725 8875 50  0000 L CNN
F 1 "4.7uF" H 3725 8675 50  0000 L CNN
F 2 "Capacitors_SMD:C_0805" H 3675 8775 60  0001 C CNN
F 3 "" H 3675 8775 60  0001 C CNN
	1    3675 8775
	1    0    0    -1  
$EndComp
$Comp
L C C406
U 1 1 516D6093
P 3325 8775
F 0 "C406" H 3375 8875 50  0000 L CNN
F 1 "1uF" H 3375 8675 50  0000 L CNN
F 2 "Capacitors_SMD:C_0603" H 3325 8775 60  0001 C CNN
F 3 "" H 3325 8775 60  0001 C CNN
	1    3325 8775
	1    0    0    -1  
$EndComp
$Comp
L C C405
U 1 1 516D6092
P 2975 8775
F 0 "C405" H 3025 8875 50  0000 L CNN
F 1 "0.1uF" H 3025 8675 50  0000 L CNN
F 2 "Capacitors_SMD:C_0603" H 2975 8775 60  0001 C CNN
F 3 "" H 2975 8775 60  0001 C CNN
	1    2975 8775
	1    0    0    -1  
$EndComp
$Comp
L C C404
U 1 1 516D6091
P 2625 8775
F 0 "C404" H 2675 8875 50  0000 L CNN
F 1 "0.1uF" H 2675 8675 50  0000 L CNN
F 2 "Capacitors_SMD:C_0603" H 2625 8775 60  0001 C CNN
F 3 "" H 2625 8775 60  0001 C CNN
	1    2625 8775
	1    0    0    -1  
$EndComp
$Comp
L GND #PWR020
U 1 1 516D5EBB
P 875 3275
F 0 "#PWR020" H 875 3275 30  0001 C CNN
F 1 "GND" H 875 3205 30  0001 C CNN
F 2 "" H 875 3275 60  0001 C CNN
F 3 "" H 875 3275 60  0001 C CNN
	1    875  3275
	-1   0    0    1   
$EndComp
$Comp
L GND #PWR021
U 1 1 4E7B4E84
P 10525 2350
F 0 "#PWR021" H 10525 2350 30  0001 C CNN
F 1 "GND" H 10525 2280 30  0001 C CNN
F 2 "" H 10525 2350 60  0001 C CNN
F 3 "" H 10525 2350 60  0001 C CNN
	1    10525 2350
	1    0    0    -1  
$EndComp
$Comp
L C C76
U 1 1 4E7B4A85
P 10525 2050
F 0 "C76" H 10575 2150 50  0000 L CNN
F 1 "33uF" H 10575 1950 50  0000 L CNN
F 2 "Capacitors_SMD:C_1206" H 10525 2050 60  0001 C CNN
F 3 "" H 10525 2050 60  0001 C CNN
	1    10525 2050
	1    0    0    -1  
$EndComp
$Comp
L C C74
U 1 1 4E7B4A81
P 8875 2050
F 0 "C74" H 8925 2150 50  0000 L CNN
F 1 "33uF" H 8925 1950 50  0000 L CNN
F 2 "Capacitors_SMD:C_1206" H 8875 2050 60  0001 C CNN
F 3 "" H 8875 2050 60  0001 C CNN
	1    8875 2050
	1    0    0    -1  
$EndComp
$Comp
L GND #PWR022
U 1 1 4E7B44BE
P 9925 2350
F 0 "#PWR022" H 9925 2350 30  0001 C CNN
F 1 "GND" H 9925 2280 30  0001 C CNN
F 2 "" H 9925 2350 60  0001 C CNN
F 3 "" H 9925 2350 60  0001 C CNN
	1    9925 2350
	1    0    0    -1  
$EndComp
$Comp
L GND #PWR023
U 1 1 4E7B44A2
P 9075 1950
F 0 "#PWR023" H 9075 1950 30  0001 C CNN
F 1 "GND" H 9075 1880 30  0001 C CNN
F 2 "" H 9075 1950 60  0001 C CNN
F 3 "" H 9075 1950 60  0001 C CNN
	1    9075 1950
	1    0    0    -1  
$EndComp
$Comp
L LT1117CST U11
U 1 1 4E7B41E9
P 9525 1950
F 0 "U11" H 9375 2250 60  0000 C CNN
F 1 "LT1117CST-3.3" H 9525 1950 40  0000 C CNN
F 2 "TO_SOT_Packages_SMD:SOT-223" H 9525 1950 60  0001 C CNN
F 3 "" H 9525 1950 60  0001 C CNN
	1    9525 1950
	1    0    0    -1  
$EndComp
$Comp
L C C75
U 1 1 4E7B41E8
P 9925 2050
F 0 "C75" H 9975 2150 50  0000 L CNN
F 1 "100n" H 9975 1950 50  0000 L CNN
F 2 "Capacitors_SMD:C_0603" H 9925 2050 60  0001 C CNN
F 3 "" H 9925 2050 60  0001 C CNN
	1    9925 2050
	1    0    0    -1  
$EndComp
$Comp
L R R33
U 1 1 4E188E50
P 2050 3725
F 0 "R33" V 2130 3725 50  0000 C CNN
F 1 "1k" V 2050 3725 50  0000 C CNN
F 2 "Resistors_SMD:R_0603" H 2050 3725 60  0001 C CNN
F 3 "" H 2050 3725 60  0001 C CNN
	1    2050 3725
	0    1    1    0   
$EndComp
$Comp
L LED D9
U 1 1 4E188E4F
P 2400 3725
F 0 "D9" H 2250 3775 50  0000 C CNN
F 1 "LED" H 2550 3775 50  0000 C CNN
F 2 "LEDs:LED_0603" H 2400 3725 60  0001 C CNN
F 3 "" H 2400 3725 60  0001 C CNN
	1    2400 3725
	1    0    0    -1  
$EndComp
$Comp
L GND #PWR024
U 1 1 4E188E4E
P 1825 3725
F 0 "#PWR024" H 1825 3725 30  0001 C CNN
F 1 "GND" H 1825 3655 30  0001 C CNN
F 2 "" H 1825 3725 60  0001 C CNN
F 3 "" H 1825 3725 60  0001 C CNN
	1    1825 3725
	0    1    -1   0   
$EndComp
$Comp
L GND #PWR025
U 1 1 4E186DEB
P 11625 2200
F 0 "#PWR025" H 11625 2200 30  0001 C CNN
F 1 "GND" H 11625 2130 30  0001 C CNN
F 2 "" H 11625 2200 60  0001 C CNN
F 3 "" H 11625 2200 60  0001 C CNN
	1    11625 2200
	0    -1   1    0   
$EndComp
$Comp
L LED D8
U 1 1 4DCDB178
P 11225 1900
F 0 "D8" H 11225 2000 50  0000 C CNN
F 1 "LED" H 11225 1800 50  0000 C CNN
F 2 "LEDs:LED_0603" H 11225 1900 60  0001 C CNN
F 3 "" H 11225 1900 60  0001 C CNN
	1    11225 1900
	1    0    0    -1  
$EndComp
$Comp
L R R5
U 1 1 4DCDB177
P 11225 2200
F 0 "R5" V 11305 2200 50  0000 C CNN
F 1 "1k" V 11225 2200 50  0000 C CNN
F 2 "Resistors_SMD:R_0603" H 11225 2200 60  0001 C CNN
F 3 "" H 11225 2200 60  0001 C CNN
	1    11225 2200
	0    1    1    0   
$EndComp
$Comp
L C CHB1
U 1 1 5344E995
P 1625 8725
F 0 "CHB1" H 1675 8825 50  0000 L CNN
F 1 "0.1uF" H 1675 8625 50  0000 L CNN
F 2 "Capacitors_SMD:C_0603" H 1625 8725 60  0001 C CNN
F 3 "" H 1625 8725 60  0001 C CNN
	1    1625 8725
	1    0    0    -1  
$EndComp
$Comp
L GND #PWR026
U 1 1 5344E9A6
P 1625 9025
F 0 "#PWR026" H 1625 9025 30  0001 C CNN
F 1 "GND" H 1625 8955 30  0001 C CNN
F 2 "" H 1625 9025 60  0001 C CNN
F 3 "" H 1625 9025 60  0001 C CNN
	1    1625 9025
	1    0    0    -1  
$EndComp
$Comp
L +3.3VP #PWR027
U 1 1 5344E9B7
P 1625 8375
F 0 "#PWR027" H 1675 8405 20  0001 C CNN
F 1 "+3.3VP" H 1625 8465 30  0000 C CNN
F 2 "" H 1625 8375 60  0001 C CNN
F 3 "" H 1625 8375 60  0001 C CNN
	1    1625 8375
	1    0    0    -1  
$EndComp
$Comp
L C C403
U 1 1 541B3A98
P 1325 3025
F 0 "C403" H 1375 3125 50  0000 L CNN
F 1 "22pF" H 1375 2925 50  0000 L CIN
F 2 "Capacitors_SMD:C_0603" H 1325 3025 60  0001 C CNN
F 3 "" H 1325 3025 60  0001 C CNN
	1    1325 3025
	0    1    -1   0   
$EndComp
$Comp
L C C402
U 1 1 541B3BCF
P 1325 3625
F 0 "C402" V 1275 3725 50  0000 L CNN
F 1 "22pF" V 1275 3375 50  0000 L CNN
F 2 "Capacitors_SMD:C_0603" H 1325 3625 60  0001 C CNN
F 3 "" H 1325 3625 60  0001 C CNN
	1    1325 3625
	0    1    -1   0   
$EndComp
$Comp
L ABM8G X401
U 1 1 516D5EBA
P 1575 3325
F 0 "X401" H 1575 3475 60  0000 C CNN
F 1 "12MHz" H 1575 3175 60  0000 C CNN
F 2 "ABM8G" H 1575 3325 60  0001 C CNN
F 3 "" H 1575 3325 60  0001 C CNN
	1    1575 3325
	0    1    -1   0   
$EndComp
$Comp
L C CS2
U 1 1 541FDB17
P 1975 8775
F 0 "CS2" H 2025 8875 50  0000 L CNN
F 1 "0.1uF" H 2025 8675 50  0000 L CNN
F 2 "Capacitors_SMD:C_0603" H 1975 8775 60  0001 C CNN
F 3 "" H 1975 8775 60  0001 C CNN
	1    1975 8775
	1    0    0    -1  
$EndComp
$Comp
L R RST2
U 1 1 55340B77
P 2425 7525
F 0 "RST2" V 2505 7525 50  0000 C CNN
F 1 "4.7k" V 2425 7525 50  0000 C CNN
F 2 "Resistors_SMD:R_0603" H 2425 7525 60  0001 C CNN
F 3 "" H 2425 7525 60  0001 C CNN
	1    2425 7525
	-1   0    0    1   
$EndComp
$Comp
L R RST5
U 1 1 55340B7E
P 2275 7525
F 0 "RST5" V 2355 7525 50  0000 C CNN
F 1 "4.7k" V 2275 7525 50  0000 C CNN
F 2 "Resistors_SMD:R_0603" H 2275 7525 60  0001 C CNN
F 3 "" H 2275 7525 60  0001 C CNN
	1    2275 7525
	-1   0    0    1   
$EndComp
Text Label 1775 7775 0    60   ~ 0
I2C1_SDA
Text Label 1775 7925 0    60   ~ 0
I2C1_SCL
$Comp
L GND #PWR028
U 1 1 55340BA0
P 5600 6100
F 0 "#PWR028" H 5600 6100 30  0001 C CNN
F 1 "GND" H 5600 6030 30  0001 C CNN
F 2 "" H 5600 6100 60  0001 C CNN
F 3 "" H 5600 6100 60  0001 C CNN
	1    5600 6100
	0    -1   -1   0   
$EndComp
Text HLabel 2375 2225 0    60   BiDi ~ 0
JNRST
Text HLabel 7225 3525 2    60   BiDi ~ 0
JTMS
Text HLabel 7225 3625 2    60   BiDi ~ 0
JTCK
Text HLabel 7225 4225 2    60   BiDi ~ 0
JTDO
Text HLabel 7225 3725 2    60   BiDi ~ 0
JTDI
$Comp
L GND #PWR029
U 1 1 55340BF8
P 4675 6200
F 0 "#PWR029" H 4675 6200 30  0001 C CNN
F 1 "GND" H 4675 6130 30  0001 C CNN
F 2 "" H 4675 6200 60  0001 C CNN
F 3 "" H 4675 6200 60  0001 C CNN
	1    4675 6200
	1    0    0    -1  
$EndComp
Text Label 5075 1425 3    60   ~ 0
VDDAST
Text Label 2375 2225 0    60   ~ 0
JNRST
Text Label 2375 2425 0    60   ~ 0
BOOT0
Text Label 7600 4825 2    47   ~ 0
I2C1_SDA
Text Label 7600 4725 2    47   ~ 0
I2C1_SCL
$Comp
L +3.3VP #PWR030
U 1 1 55348E6E
P 4775 1525
F 0 "#PWR030" H 4825 1555 20  0001 C CNN
F 1 "+3.3VP" H 4775 1615 30  0000 C CNN
F 2 "" H 4775 1525 60  0001 C CNN
F 3 "" H 4775 1525 60  0001 C CNN
	1    4775 1525
	1    0    0    -1  
$EndComp
Text Label 4725 8575 0    60   ~ 0
VDDAST
$Comp
L +3.3VP #PWR031
U 1 1 5534F04B
P 4125 8425
F 0 "#PWR031" H 4175 8455 20  0001 C CNN
F 1 "+3.3VP" H 4125 8515 30  0000 C CNN
F 2 "" H 4125 8425 60  0001 C CNN
F 3 "" H 4125 8425 60  0001 C CNN
	1    4125 8425
	1    0    0    -1  
$EndComp
$Comp
L +3.3VP #PWR032
U 1 1 55350905
P 2425 7175
F 0 "#PWR032" H 2475 7205 20  0001 C CNN
F 1 "+3.3VP" H 2425 7265 30  0000 C CNN
F 2 "" H 2425 7175 60  0001 C CNN
F 3 "" H 2425 7175 60  0001 C CNN
	1    2425 7175
	1    0    0    -1  
$EndComp
$Comp
L R RST3
U 1 1 55363A5E
P 6325 8725
F 0 "RST3" V 6405 8725 50  0000 C CNN
F 1 "10k" V 6325 8725 50  0000 C CNN
F 2 "Resistors_SMD:R_0603" H 6325 8725 60  0001 C CNN
F 3 "" H 6325 8725 60  0001 C CNN
	1    6325 8725
	-1   0    0    1   
$EndComp
Text Label 6325 8500 2    60   ~ 0
BOOT0
$Comp
L GND #PWR033
U 1 1 55363A74
P 6325 8925
F 0 "#PWR033" H 6325 8925 30  0001 C CNN
F 1 "GND" H 6325 8855 30  0001 C CNN
F 2 "" H 6325 8925 60  0001 C CNN
F 3 "" H 6325 8925 60  0001 C CNN
	1    6325 8925
	1    0    0    -1  
$EndComp
Text HLabel 7225 4325 2    60   BiDi ~ 0
JTRST
$Comp
L GND #PWR034
U 1 1 55370C19
P 8875 2350
F 0 "#PWR034" H 8875 2350 30  0001 C CNN
F 1 "GND" H 8875 2280 30  0001 C CNN
F 2 "" H 8875 2350 60  0001 C CNN
F 3 "" H 8875 2350 60  0001 C CNN
	1    8875 2350
	1    0    0    -1  
$EndComp
$Comp
L L L2
U 1 1 5846A387
P 5375 6100
F 0 "L2" V 5565 6100 50  0000 C CNN
F 1 "LST1" V 5474 6100 50  0000 C CNN
F 2 "Resistors_SMD:R_0805" V 5473 6100 50  0001 C CNN
F 3 "" H 5375 6100 50  0000 C CNN
	1    5375 6100
	0    -1   -1   0   
$EndComp
$Comp
L L L1
U 1 1 5846AC8F
P 4500 8575
F 0 "L1" V 4690 8575 50  0000 C CNN
F 1 "LST2" V 4599 8575 50  0000 C CNN
F 2 "Resistors_SMD:R_0805" V 4598 8575 50  0001 C CNN
F 3 "" H 4500 8575 50  0000 C CNN
	1    4500 8575
	0    -1   -1   0   
$EndComp
$Comp
L +5V #PWR035
U 1 1 5846FFCE
P 8875 1700
F 0 "#PWR035" H 8875 1550 50  0001 C CNN
F 1 "+5V" H 8890 1873 50  0000 C CNN
F 2 "" H 8875 1700 50  0000 C CNN
F 3 "" H 8875 1700 50  0000 C CNN
	1    8875 1700
	1    0    0    -1  
$EndComp
Text HLabel 6050 8500 0    60   BiDi ~ 0
BOOT0
$Comp
L STM32F100RBTx U401
U 1 1 584946CF
P 4875 3825
F 0 "U401" H 3600 5425 50  0000 C CNN
F 1 "STM32F100RBT6B" H 3625 5300 50  0000 C CNN
F 2 "Housings_QFP:LQFP-64_10x10mm_Pitch0.5mm" H 4875 5911 50  0001 C CNN
F 3 "" H 4875 3825 50  0000 C CNN
	1    4875 3825
	1    0    0    -1  
$EndComp
$Comp
L R RST4
U 1 1 584AACB4
P 6825 8725
F 0 "RST4" V 6905 8725 50  0000 C CNN
F 1 "10k" V 6825 8725 50  0000 C CNN
F 2 "Resistors_SMD:R_0603" H 6825 8725 60  0001 C CNN
F 3 "" H 6825 8725 60  0001 C CNN
	1    6825 8725
	-1   0    0    1   
$EndComp
Text Label 6825 8500 2    60   ~ 0
BOOT1
$Comp
L +3.3VP #PWR036
U 1 1 584AB784
P 6825 8925
F 0 "#PWR036" H 6875 8955 20  0001 C CNN
F 1 "+3.3VP" H 6825 9015 30  0000 C CNN
F 2 "" H 6825 8925 60  0001 C CNN
F 3 "" H 6825 8925 60  0001 C CNN
	1    6825 8925
	-1   0    0    1   
$EndComp
Text Label 7575 4125 2    60   ~ 0
BOOT1
Text Label 7375 2825 2    60   ~ 0
EC_S
Text Label 7375 2725 2    60   ~ 0
PH_S
Text HLabel 1725 7775 0    60   Input ~ 0
SDA
Text HLabel 1725 7925 0    60   Input ~ 0
SCL
Text Notes 10075 1400 0    60   ~ 0
Mount LSEL2 or LSEL3 not both
$Sheet
S 8900 4150 1075 900 
U 599EEB2A
F0 "Aquarium_IOs" 60
F1 "aquarium.sch" 60
F2 "SSR1" I L 8900 4325 60 
F3 "SSR2" I L 8900 4425 60 
F4 "REL1" I L 8900 4775 60 
F5 "REL2" I L 8900 4875 60 
F6 "SSR3" I L 8900 4525 60 
F7 "SSR4" I L 8900 4625 60 
F8 "REL3" I L 8900 4975 60 
$EndSheet
$Sheet
S 8900 2675 1275 1150
U 59A02AFB
F0 "Sensors" 60
F1 "sensorsch.sch" 60
F2 "EC_PROBE" I R 10175 3125 60 
F3 "EC_VOUT" O L 8900 3125 60 
F4 "PH_PROBE" I R 10175 3450 60 
F5 "PH_VOUT" O L 8900 3400 60 
F6 "TC1" I L 8900 3650 60 
$EndSheet
Text Label 8800 3125 2    60   ~ 0
EC_S
Text Label 8825 3400 2    60   ~ 0
PH_S
Text Label 8650 4325 0    60   ~ 0
SSR1
Text Label 8650 4425 0    60   ~ 0
SSR2
Text Label 8650 4775 0    60   ~ 0
REL1
Text Label 8650 4875 0    60   ~ 0
REL2
Text Label 7125 3125 0    60   ~ 0
SSR1
Text Label 7125 3025 0    60   ~ 0
SSR2
Text Label 7125 3325 0    60   ~ 0
SSR4
Text Label 7125 3225 0    60   ~ 0
SSR3
$Comp
L TCS3404 CS1
U 1 1 59A6E238
P 9225 6550
F 0 "CS1" H 9275 7047 60  0000 C CNN
F 1 "TCS3404" H 9275 6941 60  0000 C CNN
F 2 "modules:TCS3472" H 9225 6550 60  0001 C CNN
F 3 "" H 9225 6550 60  0001 C CNN
	1    9225 6550
	1    0    0    -1  
$EndComp
Text Label 9775 6300 0    60   ~ 0
I2C1_SDA
Text Label 8325 6400 0    60   ~ 0
I2C1_SCL
$Comp
L +3.3VP #PWR037
U 1 1 59A6F937
P 8500 6200
F 0 "#PWR037" H 8550 6230 20  0001 C CNN
F 1 "+3.3VP" H 8500 6290 30  0000 C CNN
F 2 "" H 8500 6200 60  0001 C CNN
F 3 "" H 8500 6200 60  0001 C CNN
	1    8500 6200
	1    0    0    -1  
$EndComp
$Comp
L GND #PWR038
U 1 1 59A6FD37
P 8725 6550
F 0 "#PWR038" H 8725 6550 30  0001 C CNN
F 1 "GND" H 8725 6480 30  0001 C CNN
F 2 "" H 8725 6550 60  0001 C CNN
F 3 "" H 8725 6550 60  0001 C CNN
	1    8725 6550
	1    0    0    -1  
$EndComp
Text Label 9775 6400 0    60   ~ 0
INTCS
$Comp
L C CCS1
U 1 1 59A6E0D3
P 7950 6500
F 0 "CCS1" H 8000 6600 50  0000 L CNN
F 1 "0.1uF" H 8000 6400 50  0000 L CNN
F 2 "Capacitors_SMD:C_0603" H 7950 6500 60  0001 C CNN
F 3 "" H 7950 6500 60  0001 C CNN
	1    7950 6500
	1    0    0    -1  
$EndComp
$Comp
L GND #PWR039
U 1 1 59A6E77D
P 7950 6700
F 0 "#PWR039" H 7950 6700 30  0001 C CNN
F 1 "GND" H 7950 6630 30  0001 C CNN
F 2 "" H 7950 6700 60  0001 C CNN
F 3 "" H 7950 6700 60  0001 C CNN
	1    7950 6700
	1    0    0    -1  
$EndComp
Text Label 8825 3650 2    60   ~ 0
TC1
$Comp
L BNC PEC1
U 1 1 59A8B49B
P 10425 3125
F 0 "PEC1" H 10526 3101 50  0000 L CNN
F 1 "BNC" H 10526 3010 50  0000 L CNN
F 2 "modules:BNC" H 10425 3125 50  0001 C CNN
F 3 "" H 10425 3125 50  0000 C CNN
	1    10425 3125
	1    0    0    -1  
$EndComp
$Comp
L BNC PPH1
U 1 1 59A8B71E
P 10675 3450
F 0 "PPH1" H 10776 3426 50  0000 L CNN
F 1 "BNC" H 10776 3335 50  0000 L CNN
F 2 "modules:BNC" H 10675 3450 50  0001 C CNN
F 3 "" H 10675 3450 50  0000 C CNN
	1    10675 3450
	1    0    0    -1  
$EndComp
$Comp
L GND #PWR040
U 1 1 59A8BDF2
P 10675 3675
F 0 "#PWR040" H 10675 3675 30  0001 C CNN
F 1 "GND" H 10675 3605 30  0001 C CNN
F 2 "" H 10675 3675 60  0001 C CNN
F 3 "" H 10675 3675 60  0001 C CNN
	1    10675 3675
	1    0    0    -1  
$EndComp
$Comp
L GND #PWR041
U 1 1 59A8C3E8
P 10425 3325
F 0 "#PWR041" H 10425 3325 30  0001 C CNN
F 1 "GND" H 10425 3255 30  0001 C CNN
F 2 "" H 10425 3325 60  0001 C CNN
F 3 "" H 10425 3325 60  0001 C CNN
	1    10425 3325
	1    0    0    -1  
$EndComp
$Comp
L SP481 U485
U 1 1 59AD552D
P 10150 8525
F 0 "U485" H 9725 8088 60  0000 C CNN
F 1 "SP481" H 9725 8194 60  0000 C CNN
F 2 "Housings_SOIC:SOIC-8_3.9x4.9mm_Pitch1.27mm" H 10150 8525 60  0001 C CNN
F 3 "" H 10150 8525 60  0001 C CNN
	1    10150 8525
	1    0    0    1   
$EndComp
$Comp
L R RMB1
U 1 1 59AD6BCD
P 8900 8875
F 0 "RMB1" V 8980 8875 50  0000 C CNN
F 1 "680" V 8900 8875 50  0000 C CNN
F 2 "Resistors_SMD:R_0603" H 8900 8875 60  0001 C CNN
F 3 "" H 8900 8875 60  0001 C CNN
	1    8900 8875
	0    -1   -1   0   
$EndComp
Text Label 8375 8375 0    60   ~ 0
485_RX
Text Label 8375 8875 0    60   ~ 0
485_TX
Text Label 8375 8475 0    60   ~ 0
485_EN
$Comp
L CONN_3X1F MB1
U 1 1 59AD7C12
P 10950 8575
F 0 "MB1" H 11053 8575 40  0000 L CNN
F 1 "CONN_3X1F" H 11053 8537 40  0001 L CNN
F 2 "modules:ED2601" H 10950 8575 60  0001 C CNN
F 3 "" H 10950 8575 60  0001 C CNN
	1    10950 8575
	1    0    0    -1  
$EndComp
$Comp
L +5V #PWR042
U 1 1 59AD80F4
P 10525 8925
F 0 "#PWR042" H 10525 8775 50  0001 C CNN
F 1 "+5V" H 10540 9098 50  0000 C CNN
F 2 "" H 10525 8925 50  0000 C CNN
F 3 "" H 10525 8925 50  0000 C CNN
	1    10525 8925
	0    1    1    0   
$EndComp
$Comp
L C CMB1
U 1 1 59AD8F97
P 10450 9200
F 0 "CMB1" H 10500 9300 50  0000 L CNN
F 1 "0.1uF" H 10500 9100 50  0000 L CNN
F 2 "Capacitors_SMD:C_0603" H 10450 9200 60  0001 C CNN
F 3 "" H 10450 9200 60  0001 C CNN
	1    10450 9200
	1    0    0    -1  
$EndComp
$Comp
L GND #PWR043
U 1 1 59ADA36A
P 10450 9400
F 0 "#PWR043" H 10450 9400 30  0001 C CNN
F 1 "GND" H 10450 9330 30  0001 C CNN
F 2 "" H 10450 9400 60  0001 C CNN
F 3 "" H 10450 9400 60  0001 C CNN
	1    10450 9400
	1    0    0    -1  
$EndComp
Text Label 7175 2425 0    60   ~ 0
485_RX
Text Label 7175 2525 0    60   ~ 0
485_TX
Text Label 7175 2625 0    60   ~ 0
485_EN
$Comp
L GND #PWR044
U 1 1 59AD98F8
P 10825 8100
F 0 "#PWR044" H 10825 8100 30  0001 C CNN
F 1 "GND" H 10825 8030 30  0001 C CNN
F 2 "" H 10825 8100 60  0001 C CNN
F 3 "" H 10825 8100 60  0001 C CNN
	1    10825 8100
	0    -1   -1   0   
$EndComp
Text Label 2525 4225 2    60   ~ 0
TC1
$Comp
L CONN_8X2M90 EXT1
U 1 1 59AED191
P 11225 5600
F 0 "EXT1" H 11250 5866 40  0000 C CNN
F 1 "CONN_8X2M90" H 11250 5866 40  0001 C CNN
F 2 "Socket_Strips:Socket_Strip_Straight_2x08_Pitch2.54mm" H 11225 5600 60  0001 C CNN
F 3 "" H 11225 5600 60  0001 C CNN
	1    11225 5600
	-1   0    0    1   
$EndComp
Text Label 2275 4825 0    60   ~ 0
EX0
Text Label 2275 4725 0    60   ~ 0
EX1
Text Label 2275 4625 0    60   ~ 0
EX2
Text Label 2275 4525 0    60   ~ 0
EX3
Text Label 7175 5325 0    60   ~ 0
EX5
Text Label 7175 5225 0    60   ~ 0
EX6
Text Label 7175 5125 0    60   ~ 0
EX7
Text Label 7175 5025 0    60   ~ 0
VCAP1
Text Label 7175 4925 0    60   ~ 0
EX9
Text Label 11525 5250 0    60   ~ 0
EX4
Text Label 10625 5250 0    60   ~ 0
EX5
Text Label 11525 5350 0    60   ~ 0
EX6
Text Label 10625 5350 0    60   ~ 0
EX7
Text Label 11475 5050 0    60   ~ 0
EX0
Text Label 10575 5050 0    60   ~ 0
EX1
Text Label 11475 5150 0    60   ~ 0
EX2
Text Label 10575 5150 0    60   ~ 0
EX3
Text Label 7175 5425 0    60   ~ 0
EX4
Text Label 2275 4125 0    60   ~ 0
ADC1
Text Label 2275 4025 0    60   ~ 0
ADC2
Text Label 2275 3925 0    60   ~ 0
ADC3
Text Label 7125 2225 0    60   ~ 0
ADC0
Text Label 10575 5650 0    60   ~ 0
ADC1
Text Label 11475 5550 0    60   ~ 0
ADC2
Text Label 10575 5550 0    60   ~ 0
ADC3
Text Label 11475 5650 0    60   ~ 0
ADC0
$Comp
L +3.3VP #PWR045
U 1 1 59AF6EA6
P 10800 5750
F 0 "#PWR045" H 10850 5780 20  0001 C CNN
F 1 "+3.3VP" H 10800 5840 30  0000 C CNN
F 2 "" H 10800 5750 60  0001 C CNN
F 3 "" H 10800 5750 60  0001 C CNN
	1    10800 5750
	0    -1   -1   0   
$EndComp
$Comp
L GND #PWR046
U 1 1 59AF73F7
P 11575 5750
F 0 "#PWR046" H 11575 5750 30  0001 C CNN
F 1 "GND" H 11575 5680 30  0001 C CNN
F 2 "" H 11575 5750 60  0001 C CNN
F 3 "" H 11575 5750 60  0001 C CNN
	1    11575 5750
	0    -1   -1   0   
$EndComp
$Comp
L Crystal Y2
U 1 1 59B24019
P 1600 5550
F 0 "Y2" V 1554 5681 50  0000 L CNN
F 1 "Crystal" V 1645 5681 50  0000 L CNN
F 2 "modules:txc_32k" H 1600 5550 50  0001 C CNN
F 3 "" H 1600 5550 50  0000 C CNN
	1    1600 5550
	0    -1   -1   0   
$EndComp
$Comp
L C CRs2
U 1 1 59B24024
P 1275 5825
F 0 "CRs2" H 1325 5925 50  0000 L CNN
F 1 "2pF" H 1325 5725 50  0000 L CNN
F 2 "Capacitors_SMD:C_0603" H 1275 5825 60  0001 C CNN
F 3 "" H 1275 5825 60  0001 C CNN
	1    1275 5825
	0    -1   -1   0   
$EndComp
$Comp
L C CRS1
U 1 1 59B2402B
P 1275 5250
F 0 "CRS1" H 1325 5350 50  0000 L CNN
F 1 "2pF" H 1325 5150 50  0000 L CNN
F 2 "Capacitors_SMD:C_0603" H 1275 5250 60  0001 C CNN
F 3 "" H 1275 5250 60  0001 C CNN
	1    1275 5250
	0    -1   -1   0   
$EndComp
$Comp
L GND #PWR047
U 1 1 59B24034
P 1050 5825
F 0 "#PWR047" H 1050 5825 30  0001 C CNN
F 1 "GND" H 1050 5755 30  0001 C CNN
F 2 "" H 1050 5825 60  0001 C CNN
F 3 "" H 1050 5825 60  0001 C CNN
	1    1050 5825
	0    1    1    0   
$EndComp
$Comp
L GND #PWR048
U 1 1 59B2403A
P 1050 5250
F 0 "#PWR048" H 1050 5250 30  0001 C CNN
F 1 "GND" H 1050 5180 30  0001 C CNN
F 2 "" H 1050 5250 60  0001 C CNN
F 3 "" H 1050 5250 60  0001 C CNN
	1    1050 5250
	0    1    1    0   
$EndComp
Text Notes 1125 5585 2    60   ~ 0
XC1617DKR-ND
Text HLabel 2500 2625 0    60   Input ~ 0
VRTC
$Comp
L C VCA1
U 1 1 59DCD7BB
P 7800 5200
F 0 "VCA1" H 7850 5300 50  0000 L CNN
F 1 "4.7uF" H 7850 5100 50  0000 L CNN
F 2 "Capacitors_SMD:C_1206" H 7800 5200 60  0001 C CNN
F 3 "" H 7800 5200 60  0001 C CNN
	1    7800 5200
	1    0    0    -1  
$EndComp
$Comp
L GND #PWR049
U 1 1 59DCE27A
P 7800 5400
F 0 "#PWR049" H 7800 5400 30  0001 C CNN
F 1 "GND" H 7800 5330 30  0001 C CNN
F 2 "" H 7800 5400 60  0001 C CNN
F 3 "" H 7800 5400 60  0001 C CNN
	1    7800 5400
	1    0    0    -1  
$EndComp
Wire Wire Line
	5525 6100 5600 6100
Wire Wire Line
	5425 8975 5425 8925
Wire Wire Line
	5425 8575 5425 8625
Wire Wire Line
	5075 8925 5075 8975
Wire Wire Line
	5075 8625 5075 8575
Wire Wire Line
	1975 8925 1975 8975
Wire Wire Line
	2275 8925 2275 8975
Wire Wire Line
	2625 8975 2625 8925
Wire Wire Line
	2975 8975 2975 8925
Wire Wire Line
	3325 8975 3325 8925
Wire Wire Line
	3675 8975 3675 8925
Wire Wire Line
	3675 8575 3675 8625
Wire Wire Line
	3325 8575 3325 8625
Wire Wire Line
	2975 8575 2975 8625
Wire Wire Line
	2625 8575 2625 8625
Wire Wire Line
	2275 8625 2275 8575
Wire Wire Line
	1975 8625 1975 8575
Wire Wire Line
	2275 7675 2275 7775
Wire Wire Line
	2275 7375 2275 7275
Connection ~ 2425 7275
Wire Wire Line
	6325 8875 6325 8925
Wire Wire Line
	6325 8500 6050 8500
Wire Wire Line
	6325 8500 6325 8575
Wire Wire Line
	4125 8575 4125 8425
Wire Wire Line
	4650 8575 5425 8575
Wire Wire Line
	4675 5825 4675 6200
Wire Wire Line
	2425 7175 2425 7375
Wire Wire Line
	4775 1525 4775 1825
Wire Wire Line
	7600 4825 7075 4825
Wire Wire Line
	7075 4725 7600 4725
Wire Wire Line
	5075 6100 5225 6100
Wire Wire Line
	5075 1425 5075 1825
Wire Wire Line
	2375 2225 2675 2225
Wire Wire Line
	2375 2425 2675 2425
Wire Wire Line
	2275 7775 1725 7775
Wire Wire Line
	2425 7925 1725 7925
Wire Wire Line
	2425 7675 2425 7925
Wire Wire Line
	2275 7275 2425 7275
Wire Wire Line
	4775 5825 4775 6100
Wire Wire Line
	4675 6100 4975 6100
Connection ~ 4675 6100
Connection ~ 2275 8975
Connection ~ 2275 8575
Wire Wire Line
	1075 3625 1175 3625
Wire Wire Line
	1475 3625 2675 3625
Wire Wire Line
	1475 3025 1825 3025
Wire Wire Line
	1075 3025 1175 3025
Wire Wire Line
	1625 8375 1625 8575
Wire Wire Line
	1625 8875 1625 9025
Connection ~ 2625 8575
Wire Wire Line
	1975 8575 3675 8575
Wire Wire Line
	9175 1750 8875 1750
Connection ~ 10525 1750
Wire Wire Line
	9825 1750 10525 1750
Wire Wire Line
	9925 2200 9925 2350
Connection ~ 9925 1750
Connection ~ 9925 1850
Wire Wire Line
	10525 1600 10525 1900
Wire Wire Line
	9925 1850 9825 1850
Wire Wire Line
	11575 1700 11125 1700
Wire Wire Line
	10875 1900 11075 1900
Wire Wire Line
	10875 2200 10875 1900
Wire Wire Line
	10875 2200 11075 2200
Wire Wire Line
	11375 2200 11625 2200
Wire Wire Line
	11575 1900 11575 1700
Wire Wire Line
	11375 1900 11575 1900
Wire Wire Line
	2550 3725 2675 3725
Wire Wire Line
	9075 1850 9075 1950
Wire Wire Line
	9175 1850 9075 1850
Wire Wire Line
	9925 1750 9925 1900
Wire Wire Line
	10525 2200 10525 2350
Wire Wire Line
	8875 2200 8875 2350
Wire Wire Line
	8875 1700 8875 1900
Connection ~ 8875 1750
Wire Wire Line
	875  3325 875  3275
Wire Wire Line
	875  3325 1125 3325
Wire Wire Line
	1125 3375 1175 3375
Wire Wire Line
	1125 3275 1125 3375
Wire Wire Line
	1125 3275 1175 3275
Connection ~ 1575 3625
Connection ~ 1575 3025
Wire Wire Line
	1075 3025 1075 3625
Connection ~ 1125 3325
Connection ~ 1075 3325
Wire Wire Line
	1825 3525 2675 3525
Wire Wire Line
	1825 3025 1825 3525
Connection ~ 1825 3025
Connection ~ 3175 8575
Wire Wire Line
	3175 8575 3175 8425
Connection ~ 2975 8575
Connection ~ 2975 8975
Connection ~ 3325 8975
Connection ~ 3325 8575
Wire Wire Line
	3175 8975 3175 9075
Connection ~ 3175 8975
Wire Wire Line
	1975 8975 3675 8975
Connection ~ 2625 8975
Wire Wire Line
	5075 8975 5425 8975
Connection ~ 5275 8975
Wire Wire Line
	5275 8975 5275 9075
Connection ~ 5425 8575
Connection ~ 5425 8975
Connection ~ 5075 8975
Connection ~ 5075 8575
Wire Wire Line
	4350 8575 4125 8575
Wire Wire Line
	7075 4225 7225 4225
Wire Wire Line
	7075 4325 7225 4325
Wire Wire Line
	7075 3525 7225 3525
Wire Wire Line
	7075 3625 7225 3625
Wire Wire Line
	7075 3725 7225 3725
Wire Wire Line
	4975 6100 4975 5825
Wire Wire Line
	5075 6100 5075 5825
Wire Wire Line
	7075 4625 7225 4625
Wire Wire Line
	7075 4525 7225 4525
Wire Wire Line
	4675 1825 4675 1675
Wire Wire Line
	4675 1675 4975 1675
Connection ~ 4775 1675
Wire Wire Line
	4875 1675 4875 1825
Wire Wire Line
	4975 1675 4975 1825
Connection ~ 4875 1675
Wire Wire Line
	1825 3725 1900 3725
Wire Wire Line
	2200 3725 2250 3725
Wire Wire Line
	4875 6100 4875 5825
Connection ~ 4775 6100
Connection ~ 4875 6100
Wire Wire Line
	6825 8875 6825 8925
Wire Wire Line
	6525 8500 6825 8500
Wire Wire Line
	7075 4125 7575 4125
Connection ~ 6825 8500
Wire Wire Line
	7075 2825 7375 2825
Wire Wire Line
	7075 2725 7375 2725
Wire Wire Line
	8600 3125 8900 3125
Wire Wire Line
	8600 3400 8900 3400
Wire Wire Line
	8600 4325 8900 4325
Wire Wire Line
	8600 4425 8900 4425
Wire Wire Line
	8600 4775 8900 4775
Wire Wire Line
	8600 4875 8900 4875
Wire Wire Line
	7075 3125 7375 3125
Wire Wire Line
	7075 3025 7375 3025
Wire Wire Line
	7075 3325 7375 3325
Wire Wire Line
	7075 3225 7375 3225
Wire Wire Line
	10275 6300 9725 6300
Wire Wire Line
	8825 6400 8275 6400
Wire Wire Line
	7950 6300 8825 6300
Wire Wire Line
	8500 6300 8500 6200
Wire Wire Line
	8825 6500 8725 6500
Wire Wire Line
	8725 6500 8725 6550
Wire Wire Line
	9725 6400 10275 6400
Wire Wire Line
	7950 6300 7950 6350
Connection ~ 8500 6300
Wire Wire Line
	7950 6650 7950 6700
Wire Wire Line
	8600 3650 8900 3650
Wire Wire Line
	10275 3125 10175 3125
Wire Wire Line
	10525 3450 10175 3450
Wire Wire Line
	10675 3650 10675 3675
Wire Wire Line
	10425 3325 10425 3325
Wire Wire Line
	9150 8775 9050 8775
Wire Wire Line
	9050 8775 9050 8475
Wire Wire Line
	8375 8475 9150 8475
Connection ~ 9050 8475
Wire Wire Line
	9150 8375 8375 8375
Wire Wire Line
	9150 8875 9050 8875
Wire Wire Line
	8375 8875 8750 8875
Wire Wire Line
	10300 8925 10525 8925
Wire Wire Line
	10450 9050 10450 8925
Connection ~ 10450 8925
Wire Wire Line
	10450 9350 10450 9400
Wire Wire Line
	10300 8375 10750 8375
Wire Wire Line
	10750 8100 10750 8475
Wire Wire Line
	10750 8475 10800 8475
Wire Wire Line
	10300 8725 10750 8725
Wire Wire Line
	10750 8725 10750 8675
Wire Wire Line
	10750 8675 10800 8675
Wire Wire Line
	10300 8575 10800 8575
Wire Wire Line
	7075 2625 7525 2625
Wire Wire Line
	7075 2425 7525 2425
Wire Wire Line
	7075 2525 7525 2525
Wire Wire Line
	10825 8100 10750 8100
Connection ~ 10750 8375
Wire Wire Line
	2675 4225 2350 4225
Wire Wire Line
	2225 4525 2675 4525
Wire Wire Line
	2225 4625 2675 4625
Wire Wire Line
	2225 4725 2675 4725
Wire Wire Line
	2225 4825 2675 4825
Wire Wire Line
	7075 5325 7525 5325
Wire Wire Line
	7075 5225 7525 5225
Wire Wire Line
	7075 5125 7525 5125
Wire Wire Line
	7075 5025 7800 5025
Wire Wire Line
	7075 4925 7525 4925
Wire Wire Line
	11425 5250 11875 5250
Wire Wire Line
	10350 5250 10975 5250
Wire Wire Line
	11425 5350 11875 5350
Wire Wire Line
	10350 5350 10975 5350
Wire Wire Line
	10350 5150 10975 5150
Wire Wire Line
	11425 5150 11875 5150
Wire Wire Line
	10525 5050 10975 5050
Wire Wire Line
	11425 5050 11875 5050
Wire Wire Line
	7075 5425 7525 5425
Wire Wire Line
	2225 3925 2675 3925
Wire Wire Line
	2225 4025 2675 4025
Wire Wire Line
	2225 4125 2675 4125
Wire Wire Line
	7075 2225 7525 2225
Wire Wire Line
	10525 5550 10975 5550
Wire Wire Line
	11425 5550 11875 5550
Wire Wire Line
	10525 5650 10975 5650
Wire Wire Line
	11425 5650 11875 5650
Wire Wire Line
	10800 5750 10975 5750
Wire Wire Line
	11425 5750 11575 5750
Wire Wire Line
	1425 5825 1875 5825
Wire Wire Line
	1600 5825 1600 5700
Wire Wire Line
	1425 5250 1875 5250
Wire Wire Line
	1600 5250 1600 5400
Connection ~ 1600 5825
Connection ~ 1600 5250
Wire Wire Line
	1050 5825 1125 5825
Wire Wire Line
	1050 5250 1125 5250
Wire Wire Line
	1875 5250 1875 5325
Wire Wire Line
	1875 5325 2675 5325
Wire Wire Line
	1875 5825 1875 5425
Wire Wire Line
	1875 5425 2675 5425
Wire Wire Line
	2675 2625 2500 2625
Wire Wire Line
	7800 5025 7800 5050
Wire Wire Line
	7800 5350 7800 5400
Wire Wire Line
	6825 8500 6825 8575
Text Notes 10025 4475 0    60   ~ 0
Q300-ND Power Entry Connector male, fuse, Switch\nQ338-ND Power Entry Connector Female
Text Label 8650 4525 0    60   ~ 0
SSR3
Text Label 8650 4625 0    60   ~ 0
SSR4
Wire Wire Line
	8600 4525 8900 4525
Wire Wire Line
	8600 4625 8900 4625
Text Label 8650 4975 0    60   ~ 0
REL3
Wire Wire Line
	8600 4975 8900 4975
$Comp
L GND #PWR050
U 1 1 5A4C4D2B
P 11575 5450
F 0 "#PWR050" H 11575 5450 30  0001 C CNN
F 1 "GND" H 11575 5380 30  0001 C CNN
F 2 "" H 11575 5450 60  0001 C CNN
F 3 "" H 11575 5450 60  0001 C CNN
	1    11575 5450
	0    -1   -1   0   
$EndComp
Wire Wire Line
	11425 5450 11575 5450
$Comp
L +5V #PWR051
U 1 1 5A4C561A
P 10800 5450
F 0 "#PWR051" H 10800 5300 50  0001 C CNN
F 1 "+5V" H 10800 5700 50  0000 C CNN
F 2 "" H 10800 5450 50  0000 C CNN
F 3 "" H 10800 5450 50  0000 C CNN
	1    10800 5450
	0    -1   -1   0   
$EndComp
Wire Wire Line
	10975 5450 10800 5450
Text Label 10350 5350 0    39   ~ 0
REL1
Text Label 10350 5250 0    39   ~ 0
REL2
Text Label 10350 5150 0    39   ~ 0
REL3
$EndSCHEMATC
