(module ED600 (layer F.Cu) (tedit 599F07EC)
  (fp_text reference REF** (at 0 -6) (layer F.SilkS)
    (effects (font (size 1 1) (thickness 0.1)))
  )
  (fp_text value ED600 (at 0 -4.5) (layer F.Fab)
    (effects (font (size 1 1) (thickness 0.1)))
  )
  (fp_line (start -12.5 -3.5) (end -12.5 4) (layer F.SilkS) (width 0.15))
  (fp_line (start 12.5 -3.5) (end -12.5 -3.5) (layer F.SilkS) (width 0.15))
  (fp_line (start 12.5 4) (end 12.5 -3.5) (layer F.SilkS) (width 0.15))
  (fp_line (start -12.5 4) (end 12.5 4) (layer F.SilkS) (width 0.15))
  (pad 2 thru_hole circle (at 10 0) (size 1.8 1.8) (drill 1.1) (layers *.Cu *.Mask))
  (pad 1 thru_hole circle (at -10 0) (size 1.8 1.8) (drill 1.1) (layers *.Cu *.Mask))
)
