PCBNEW-LibModule-V1  lun 02 sep 2013 23:23:27 COT
# encoding utf-8
Units mm
$INDEX
282817_2
$EndINDEX
$MODULE 282817_2
Po 0 0 0 15 5225642B 00000000 ~~
Li 282817_2
Sc 0
AR 
Op 0 0 0
T0 -11.51 -12.73 1.524 1.524 0 0.3048 N V 21 N "282817_2"
T1 -10.97 6.74 1.524 1.524 0 0.3048 N V 21 N "VAL**"
DS 12.5 0 12.5 -10 0.381 21
DS -2.5 -10 -2.5 0.06 0.381 21
DS 12.5 2 -2.5 2 0.381 21
DS 12.5 -10 -2.47 -10 0.381 21
DS 12.5 0.01 12.5 2 0.381 21
DS -2.5 0 -2.5 2 0.381 21
$PAD
Sh "2" C 3.6 3.6 0 0 0
Dr 1.6 0 0
At STD N 00E0FFFF
Ne 0 ""
Po 10 0
$EndPAD
$PAD
Sh "1" C 3.6 3.6 0 0 0
Dr 1.6 0 0
At STD N 00E0FFFF
Ne 0 ""
Po 0 0
$EndPAD
$EndMODULE 282817_2
$EndLIBRARY
