PCBNEW-LibModule-V1  mar 22 abr 2014 10:57:47 COT
# encoding utf-8
Units mm
$INDEX
ac220s05dc-10w
$EndINDEX
$MODULE ac220s05dc-10w
Po 0 0 0 15 53569119 00000000 ~~
Li ac220s05dc-10w
Sc 0
AR 
Op 0 0 0
T0 0.17 3.28 1.524 1.524 0 0.3048 N V 21 N "ac220s05dc-10w"
T1 0 0 1.524 1.524 0 0.3048 N V 21 N "VAL**"
DS 50.98 -22.53 50.98 22.47 0.381 21
DS 50.98 -22.53 -4.01 -22.51 0.381 21
DS -4 22.5 50.99 22.48 0.381 21
DS -4 22.5 -4 -22.5 0.381 21
$PAD
Sh "8" C 2.6 2.6 0 0 0
Dr 1.6 0 0
At STD N 00E0FFFF
Ne 0 ""
Po 47 -10
$EndPAD
$PAD
Sh "4" C 2.6 2.6 0 0 0
Dr 1.6 0 0
At STD N 00E0FFFF
Ne 0 ""
Po 47 10
$EndPAD
$PAD
Sh "3" C 2.6 2.6 0 0 0
Dr 1.6 0 0
At STD N 00E0FFFF
Ne 0 ""
Po 0 -17.5
$EndPAD
$PAD
Sh "1" C 2.6 2.6 0 0 0
Dr 1.6 0 0
At STD N 00E0FFFF
Ne 0 ""
Po 0 17.5
$EndPAD
$PAD
Sh "2" C 2.6 2.6 0 0 0
Dr 1.6 0 0
At STD N 00E0FFFF
Ne 0 ""
Po 0 0
$EndPAD
$EndMODULE ac220s05dc-10w
$EndLIBRARY
