PCBNEW-LibModule-V1  lun 17 jun 2013 09:50:49 COT
# encoding utf-8
Units mm
$INDEX
mic29301
$EndINDEX
$MODULE mic29301
Po 0 0 0 15 51BF2236 00000000 ~~
Li mic29301
Sc 0
AR 
Op 0 0 0
T0 18.49 -8.95 1.524 1.524 0 0.3048 N V 21 N "mic29301"
T1 18.76 -5.26 1.524 1.524 0 0.3048 N V 21 N "VAL**"
$PAD
Sh "5" R 1.1 4.6 0 0 0
Dr 0 0 0
At SMD N 00888000
Ne 0 ""
Po 3.4 0
$EndPAD
$PAD
Sh "3" R 1.1 4.6 0 0 0
Dr 0 0 0
At SMD N 00888000
Ne 0 ""
Po 0 0
$EndPAD
$PAD
Sh "4" R 1.1 4.6 0 0 0
Dr 0 0 0
At SMD N 00888000
Ne 0 ""
Po 1.7 0
$EndPAD
$PAD
Sh "2" R 1.1 4.6 0 0 0
Dr 0 0 0
At SMD N 00888000
Ne 0 ""
Po -1.7 0
$EndPAD
$PAD
Sh "1" R 1.1 4.6 0 0 0
Dr 0 0 0
At SMD N 00888000
Ne 0 ""
Po -3.4 0
$EndPAD
$PAD
Sh "TAB" R 10.8 9.4 0 0 0
Dr 0 0 0
At SMD N 00888000
Ne 0 ""
Po 0 -9.15
$EndPAD
$EndMODULE mic29301
$EndLIBRARY
