(export (version D)
  (design
    (source /home/cain/Embedded/media_lab/PCB/chip_base/chip_media.sch)
    (date "Fri 10 Feb 2017 06:55:35 PM COT")
    (tool "Eeschema 201611191048+7361~55~ubuntu14.04.1-product")
    (sheet (number 1) (name /) (tstamps /)
      (title_block
        (title)
        (company)
        (rev)
        (date)
        (source chip_media.sch)
        (comment (number 1) (value ""))
        (comment (number 2) (value ""))
        (comment (number 3) (value ""))
        (comment (number 4) (value ""))))
    (sheet (number 2) (name /USB/) (tstamps /58715936/)
      (title_block
        (title)
        (company)
        (rev)
        (date "1 jun 2013")
        (source USB.sch)
        (comment (number 1) (value ""))
        (comment (number 2) (value ""))
        (comment (number 3) (value ""))
        (comment (number 4) (value "")))))
  (components
    (comp (ref U1)
      (value chip_pro)
      (footprint CHIP_Pro-Footprint:CHIP_PRO)
      (libsource (lib chip_pro) (part chip_pro))
      (sheetpath (names /) (tstamps /))
      (tstamp 5844E7A8))
    (comp (ref PW1)
      (value SW_PUSH)
      (footprint Buttons_Switches_ThroughHole:SW_Tactile_SPST_Angled)
      (libsource (lib Carlolib-dev) (part SW_PUSH))
      (sheetpath (names /) (tstamps /))
      (tstamp 5847760F))
    (comp (ref HP1)
      (value Headphones)
      (footprint SJ-3524-SMT_Stereo_Jack)
      (libsource (lib opendous) (part STEREO-AUDIO-JACK_SJ1-3524-SMT))
      (sheetpath (names /) (tstamps /))
      (tstamp 58464B08))
    (comp (ref CE1)
      (value 2.2nF)
      (footprint Capacitors_SMD:C_0603)
      (libsource (lib device) (part C))
      (sheetpath (names /) (tstamps /))
      (tstamp 58464B16))
    (comp (ref CE2)
      (value 2.2nF)
      (footprint Capacitors_SMD:C_0603)
      (libsource (lib device) (part C))
      (sheetpath (names /) (tstamps /))
      (tstamp 58464B2E))
    (comp (ref LA1)
      (value LST1)
      (footprint Resistors_SMD:R_0805)
      (libsource (lib device) (part L))
      (sheetpath (names /) (tstamps /))
      (tstamp 58464B81))
    (comp (ref LA2)
      (value LST1)
      (footprint Resistors_SMD:R_0805)
      (libsource (lib device) (part L))
      (sheetpath (names /) (tstamps /))
      (tstamp 58464B88))
    (comp (ref LA3)
      (value LST1)
      (footprint Resistors_SMD:R_0805)
      (libsource (lib device) (part L))
      (sheetpath (names /) (tstamps /))
      (tstamp 58464B8F))
    (comp (ref ECOM1)
      (value CONN_01X06)
      (footprint Socket_Strips:Socket_Strip_Straight_1x06)
      (libsource (lib conn) (part CONN_01X06))
      (sheetpath (names /) (tstamps /))
      (tstamp 5848971C))
    (comp (ref LSEL3)
      (value LST1)
      (footprint Resistors_SMD:R_0805)
      (libsource (lib device) (part L))
      (sheetpath (names /) (tstamps /))
      (tstamp 58496B21))
    (comp (ref RGR8)
      (value 1k)
      (footprint Resistors_SMD:R_0603)
      (libsource (lib device) (part R))
      (sheetpath (names /) (tstamps /))
      (tstamp 5849C971))
    (comp (ref DRGR8)
      (value LED)
      (footprint LEDs:LED_0603)
      (libsource (lib device) (part LED))
      (sheetpath (names /) (tstamps /))
      (tstamp 5849C978))
    (comp (ref CM2)
      (value .1uF)
      (footprint Capacitors_SMD:C_0603)
      (libsource (lib device) (part C))
      (sheetpath (names /) (tstamps /))
      (tstamp 58701499))
    (comp (ref CM1)
      (value .1uF)
      (footprint Capacitors_SMD:C_0603)
      (libsource (lib device) (part C))
      (sheetpath (names /) (tstamps /))
      (tstamp 58701889))
    (comp (ref CM3)
      (value .1uF)
      (footprint Capacitors_SMD:C_0603)
      (libsource (lib device) (part C))
      (sheetpath (names /) (tstamps /))
      (tstamp 58701991))
    (comp (ref MIC1)
      (value SPW2430HR5H-B)
      (footprint modules:SPW2430HR5H-B)
      (libsource (lib mem_mic) (part MEM_MIC))
      (sheetpath (names /) (tstamps /))
      (tstamp 58702594))
    (comp (ref PWR1)
      (value DC_POWER_JACK)
      (footprint Connect:BARREL_JACK)
      (libsource (lib opendous) (part DC_POWER_JACK))
      (sheetpath (names /) (tstamps /))
      (tstamp 587139AE))
    (comp (ref PROG1)
      (value CONN_01X05)
      (footprint Socket_Strips:Socket_Strip_Angled_1x05_Pitch2.54mm)
      (libsource (lib conn) (part CONN_01X05))
      (sheetpath (names /) (tstamps /))
      (tstamp 58726582))
    (comp (ref CPW3)
      (value 33uF)
      (footprint Capacitors_SMD:C_1206)
      (libsource (lib device) (part C))
      (sheetpath (names /) (tstamps /))
      (tstamp 58995C8F))
    (comp (ref CPW1)
      (value 33uF)
      (footprint Capacitors_SMD:C_1206)
      (libsource (lib device) (part C))
      (sheetpath (names /) (tstamps /))
      (tstamp 58995C96))
    (comp (ref UP1)
      (value LT1117CST-3.3)
      (footprint TO_SOT_Packages_SMD:SOT-223)
      (libsource (lib lt1117cst) (part LT1117CST))
      (sheetpath (names /) (tstamps /))
      (tstamp 58995CA9))
    (comp (ref CPW2)
      (value 100n)
      (footprint Capacitors_SMD:C_0603)
      (libsource (lib device) (part C))
      (sheetpath (names /) (tstamps /))
      (tstamp 58995CB0))
    (comp (ref DL1)
      (value LED)
      (footprint LEDs:LED_0603)
      (libsource (lib device) (part LED))
      (sheetpath (names /) (tstamps /))
      (tstamp 58995CBD))
    (comp (ref RL1)
      (value 1k)
      (footprint Resistors_SMD:R_0603)
      (libsource (lib device) (part R))
      (sheetpath (names /) (tstamps /))
      (tstamp 58995CC4))
    (comp (ref LSEL2)
      (value LST1)
      (footprint Resistors_SMD:R_0805)
      (libsource (lib device) (part L))
      (sheetpath (names /) (tstamps /))
      (tstamp 58995CED))
    (comp (ref PB1)
      (value SW_PUSH)
      (footprint Buttons_Switches_ThroughHole:SW_Tactile_SPST_Angled)
      (libsource (lib Carlolib-dev) (part SW_PUSH))
      (sheetpath (names /) (tstamps /))
      (tstamp 589973E3))
    (comp (ref PB2)
      (value SW_PUSH)
      (footprint Buttons_Switches_ThroughHole:SW_Tactile_SPST_Angled)
      (libsource (lib Carlolib-dev) (part SW_PUSH))
      (sheetpath (names /) (tstamps /))
      (tstamp 589975F1))
    (comp (ref RPB1)
      (value 10k)
      (footprint Resistors_SMD:R_0603)
      (libsource (lib device) (part R))
      (sheetpath (names /) (tstamps /))
      (tstamp 58997B94))
    (comp (ref RPB2)
      (value 10k)
      (footprint Resistors_SMD:R_0603)
      (libsource (lib device) (part R))
      (sheetpath (names /) (tstamps /))
      (tstamp 58998BD2))
    (comp (ref RRD1)
      (value 100k)
      (footprint Resistors_SMD:R_0603)
      (libsource (lib device) (part R))
      (sheetpath (names /) (tstamps /))
      (tstamp 5899FE29))
    (comp (ref CRD2)
      (value 33uF)
      (footprint Capacitors_SMD:C_1206)
      (libsource (lib device) (part C))
      (sheetpath (names /) (tstamps /))
      (tstamp 589A18E1))
    (comp (ref CRD1)
      (value 100n)
      (footprint Capacitors_SMD:C_0603)
      (libsource (lib device) (part C))
      (sheetpath (names /) (tstamps /))
      (tstamp 589A1F42))
    (comp (ref USB0)
      (value USB_2A)
      (footprint opendous:CONN_USB_A_Vertical_Opendous)
      (fields
        (field (name VCC) VCC)
        (field (name Data+) D+)
        (field (name Data-) D-)
        (field (name Ground) GND))
      (libsource (lib usb_a) (part USB_2A))
      (sheetpath (names /USB/) (tstamps /58715936/))
      (tstamp 518A5D14))
    (comp (ref LUS1)
      (value "2A 120 ohm")
      (footprint Resistors_SMD:R_0805)
      (libsource (lib imx233stamp-cache) (part INDUCTOR))
      (sheetpath (names /USB/) (tstamps /58715936/))
      (tstamp 518A5D20))
    (comp (ref UU1)
      (value RCLAMP0502B)
      (footprint SMD:SOT-523)
      (libsource (lib rclamp0502b) (part RCLAMP0502B))
      (sheetpath (names /USB/) (tstamps /58715936/))
      (tstamp 518A5D38))
    (comp (ref CUS1)
      (value 33uF)
      (footprint Capacitors_SMD:C_1206)
      (libsource (lib device) (part C))
      (sheetpath (names /USB/) (tstamps /58715936/))
      (tstamp 518A5D4A))
    (comp (ref CUS2)
      (value 100nF)
      (footprint Capacitors_SMD:C_0603)
      (libsource (lib device) (part C))
      (sheetpath (names /USB/) (tstamps /58715936/))
      (tstamp 518A5D50))
    (comp (ref LUS2)
      (value SRF2012)
      (footprint SRF2012:SRF2012)
      (libsource (lib srf2012) (part SRF2012))
      (sheetpath (names /USB/) (tstamps /58715936/))
      (tstamp 518A5D64))
    (comp (ref DU1)
      (value DIODESCH)
      (footprint Diodes_SMD:SOD-123)
      (libsource (lib imx233stamp-cache) (part DIODESCH))
      (sheetpath (names /USB/) (tstamps /58715936/))
      (tstamp 5871649A))
    (comp (ref UU2)
      (value RCLAMP0502B)
      (footprint SMD:SOT-523)
      (libsource (lib rclamp0502b) (part RCLAMP0502B))
      (sheetpath (names /USB/) (tstamps /58715936/))
      (tstamp 5871C5A2))
    (comp (ref LUS4)
      (value SRF2012)
      (footprint SRF2012:SRF2012)
      (libsource (lib srf2012) (part SRF2012))
      (sheetpath (names /USB/) (tstamps /58715936/))
      (tstamp 5871C5C0))
    (comp (ref USB1)
      (value CONN_01X04)
      (footprint Socket_Strips:Socket_Strip_Straight_1x04)
      (libsource (lib conn) (part CONN_01X04))
      (sheetpath (names /USB/) (tstamps /58715936/))
      (tstamp 5872D16F)))
  (libparts
    (libpart (lib device) (part C)
      (description "Unpolarized capacitor")
      (footprints
        (fp C?)
        (fp C_????_*)
        (fp C_????)
        (fp SMD*_c)
        (fp Capacitor*))
      (fields
        (field (name Reference) C)
        (field (name Value) C))
      (pins
        (pin (num 1) (name ~) (type passive))
        (pin (num 2) (name ~) (type passive))))
    (libpart (lib conn) (part CONN_01X04)
      (description "Connector, single row, 01x04")
      (footprints
        (fp Pin_Header_Straight_1X04)
        (fp Pin_Header_Angled_1X04)
        (fp Socket_Strip_Straight_1X04)
        (fp Socket_Strip_Angled_1X04))
      (fields
        (field (name Reference) P)
        (field (name Value) CONN_01X04))
      (pins
        (pin (num 1) (name P1) (type passive))
        (pin (num 2) (name P2) (type passive))
        (pin (num 3) (name P3) (type passive))
        (pin (num 4) (name P4) (type passive))))
    (libpart (lib conn) (part CONN_01X05)
      (description "Connector, single row, 01x05")
      (footprints
        (fp Pin_Header_Straight_1X05)
        (fp Pin_Header_Angled_1X05)
        (fp Socket_Strip_Straight_1X05)
        (fp Socket_Strip_Angled_1X05))
      (fields
        (field (name Reference) P)
        (field (name Value) CONN_01X05))
      (pins
        (pin (num 1) (name P1) (type passive))
        (pin (num 2) (name P2) (type passive))
        (pin (num 3) (name P3) (type passive))
        (pin (num 4) (name P4) (type passive))
        (pin (num 5) (name P5) (type passive))))
    (libpart (lib conn) (part CONN_01X06)
      (description "Connector, single row, 01x06")
      (footprints
        (fp Pin_Header_Straight_1X06)
        (fp Pin_Header_Angled_1X06)
        (fp Socket_Strip_Straight_1X06)
        (fp Socket_Strip_Angled_1X06))
      (fields
        (field (name Reference) P)
        (field (name Value) CONN_01X06))
      (pins
        (pin (num 1) (name P1) (type passive))
        (pin (num 2) (name P2) (type passive))
        (pin (num 3) (name P3) (type passive))
        (pin (num 4) (name P4) (type passive))
        (pin (num 5) (name P5) (type passive))
        (pin (num 6) (name P6) (type passive))))
    (libpart (lib opendous) (part DC_POWER_JACK)
      (fields
        (field (name Reference) J)
        (field (name Value) DC_POWER_JACK))
      (pins
        (pin (num 1) (name ~) (type power_in))
        (pin (num 2) (name ~) (type power_in))
        (pin (num 3) (name ~) (type power_in))))
    (libpart (lib imx233stamp-cache) (part DIODESCH)
      (footprints
        (fp D?)
        (fp S*))
      (fields
        (field (name Reference) D)
        (field (name Value) DIODESCH))
      (pins
        (pin (num 1) (name A) (type passive))
        (pin (num 2) (name K) (type passive))))
    (libpart (lib imx233stamp-cache) (part INDUCTOR)
      (fields
        (field (name Reference) L)
        (field (name Value) INDUCTOR))
      (pins
        (pin (num 1) (name 1) (type passive))
        (pin (num 2) (name 2) (type passive))))
    (libpart (lib device) (part L)
      (description Inductor)
      (footprints
        (fp Choke_*)
        (fp *Coil*))
      (fields
        (field (name Reference) L)
        (field (name Value) L))
      (pins
        (pin (num 1) (name 1) (type passive))
        (pin (num 2) (name 2) (type passive))))
    (libpart (lib device) (part LED)
      (description "LED generic")
      (footprints
        (fp LED*))
      (fields
        (field (name Reference) D)
        (field (name Value) LED))
      (pins
        (pin (num 1) (name K) (type passive))
        (pin (num 2) (name A) (type passive))))
    (libpart (lib lt1117cst) (part LT1117CST)
      (fields
        (field (name Reference) U)
        (field (name Value) LT1117CST))
      (pins
        (pin (num 1) (name GND) (type input))
        (pin (num 2) (name OUT) (type BiDi))
        (pin (num 3) (name IN) (type BiDi))
        (pin (num 4) (name OUTT) (type BiDi))))
    (libpart (lib mem_mic) (part MEM_MIC)
      (fields
        (field (name Reference) U)
        (field (name Value) MEM_MIC))
      (pins
        (pin (num 1) (name VDD) (type input))
        (pin (num 2) (name GND) (type input))
        (pin (num 3) (name GND) (type input))
        (pin (num 4) (name OUT) (type input))))
    (libpart (lib device) (part R)
      (description Resistor)
      (footprints
        (fp R_*)
        (fp Resistor_*))
      (fields
        (field (name Reference) R)
        (field (name Value) R))
      (pins
        (pin (num 1) (name ~) (type passive))
        (pin (num 2) (name ~) (type passive))))
    (libpart (lib rclamp0502b) (part RCLAMP0502B)
      (fields
        (field (name Reference) U)
        (field (name Value) RCLAMP0502B))
      (pins
        (pin (num 1) (name K1) (type input))
        (pin (num 2) (name K2) (type input))
        (pin (num 3) (name GND) (type input))))
    (libpart (lib srf2012) (part SRF2012)
      (fields
        (field (name Reference) L)
        (field (name Value) SRF2012))
      (pins
        (pin (num 1) (name ~) (type BiDi))
        (pin (num 2) (name ~) (type BiDi))
        (pin (num 3) (name ~) (type BiDi))
        (pin (num 4) (name ~) (type BiDi))))
    (libpart (lib opendous) (part STEREO-AUDIO-JACK_SJ1-3524-SMT)
      (description "Stereo Audio Jack 4Pin")
      (fields
        (field (name Reference) U)
        (field (name Value) STEREO-AUDIO-JACK_SJ1-3524-SMT))
      (pins
        (pin (num 1) (name GND) (type passive))
        (pin (num 2) (name 2) (type passive))
        (pin (num 3) (name 3) (type passive))
        (pin (num 4) (name 4) (type passive))))
    (libpart (lib Carlolib-dev) (part SW_PUSH)
      (footprints
        (fp SW_PUSH_small))
      (fields
        (field (name Reference) SW)
        (field (name Value) SW_PUSH)
        (field (name Footprint) Switch))
      (pins
        (pin (num 1) (name 1) (type passive))
        (pin (num 2) (name 2) (type passive))))
    (libpart (lib usb_a) (part USB_2A)
      (fields
        (field (name Reference) J)
        (field (name Value) USB_2A)
        (field (name VCC) VCC)
        (field (name Data+) D+)
        (field (name Data-) D-)
        (field (name Ground) GND))
      (pins
        (pin (num 1) (name ~) (type input))
        (pin (num 2) (name ~) (type input))
        (pin (num 3) (name ~) (type input))
        (pin (num 4) (name ~) (type input))
        (pin (num 5) (name c1) (type input))
        (pin (num 6) (name c2) (type input))
        (pin (num 7) (name c3) (type input))
        (pin (num 8) (name c4) (type input))))
    (libpart (lib chip_pro) (part chip_pro)
      (fields
        (field (name Reference) U)
        (field (name Value) chip_pro))
      (pins
        (pin (num 1) (name GND) (type input))
        (pin (num 2) (name VCC_3v3) (type input))
        (pin (num 3) (name IPSOUT) (type input))
        (pin (num 4) (name CHG_IN) (type input))
        (pin (num 5) (name PWRON) (type input))
        (pin (num 6) (name GND) (type input))
        (pin (num 7) (name TEMPSENSE) (type input))
        (pin (num 8) (name BAT) (type input))
        (pin (num 9) (name PB2/SPDIF_D0/PWM0) (type input))
        (pin (num 10) (name PG13/EINT13/PWM1) (type input))
        (pin (num 11) (name PB16/GPIO/TWI1_SDA) (type input))
        (pin (num 12) (name PB15/GPIO/TWI1_SCK) (type input))
        (pin (num 13) (name PD2/LCD_D2/UART2_TX) (type input))
        (pin (num 14) (name PD3/LCD_D3/UART2_RX) (type input))
        (pin (num 15) (name PD4/LCD_D4/UART2_CTS) (type input))
        (pin (num 16) (name PD5/LCD_D5/UART2_RTS) (type input))
        (pin (num 17) (name GND) (type input))
        (pin (num 18) (name HPL) (type input))
        (pin (num 19) (name HPCOM) (type input))
        (pin (num 20) (name HPR) (type input))
        (pin (num 21) (name I2S_MCLK) (type input))
        (pin (num 22) (name I2S_BCLK) (type input))
        (pin (num 23) (name I2S_LCLK) (type input))
        (pin (num 24) (name I2S_DO) (type input))
        (pin (num 25) (name I2S_DI) (type input))
        (pin (num 26) (name AGND) (type input))
        (pin (num 27) (name MICIN1) (type input))
        (pin (num 28) (name MICIN2) (type input))
        (pin (num 29) (name VMIC) (type input))
        (pin (num 30) (name PE11/UART1_RX/CSID7) (type input))
        (pin (num 31) (name PE10/UART1_TX/CSID6) (type input))
        (pin (num 32) (name PE9/SDC2_CLK/CSID5) (type input))
        (pin (num 33) (name PE8/SDC2_CMD/CSID4) (type input))
        (pin (num 34) (name PE7/SDC2_D3/CSID3) (type input))
        (pin (num 35) (name PE6/SDC2_D2/CSID2) (type input))
        (pin (num 36) (name PE5/SDC2_D1/CSID1) (type input))
        (pin (num 37) (name PE4/SDC2_D0/CSID0) (type input))
        (pin (num 38) (name PE3/SPI2_MISO/CSIVSYNC) (type input))
        (pin (num 39) (name PE2/SPI2_MOSI/CSIHSYNC) (type input))
        (pin (num 40) (name PE1/SPI2_CLK/CSIMCLK) (type input))
        (pin (num 41) (name PE0/SPI2_CS0/CSIPCK) (type input))
        (pin (num 42) (name LRADC0) (type input))
        (pin (num 43) (name PG4/EINT4/UART1_RX) (type input))
        (pin (num 44) (name PG3/EINT3/UART1_TX) (type input))
        (pin (num 45) (name GND) (type input))
        (pin (num 46) (name GND) (type input))
        (pin (num 47) (name USB1+UDP1) (type input))
        (pin (num 48) (name USB1-UDM1) (type input))
        (pin (num 49) (name GND) (type input))
        (pin (num 50) (name VBUS) (type input))
        (pin (num 51) (name USB0+UDP0) (type input))
        (pin (num 52) (name USB0-UDM0) (type input))
        (pin (num 53) (name GND) (type input)))))
  (libraries
    (library (logical device)
      (uri /usr/share/kicad/library/device.lib))
    (library (logical conn)
      (uri /usr/share/kicad/library/conn.lib))
    (library (logical chip_pro)
      (uri /home/cain/Embedded/media_lab/PCB/chip_base/../components/chip_pro.lib))
    (library (logical lt1117cst)
      (uri /home/cain/Embedded/media_lab/PCB/chip_base/../components/lt1117cst.lib))
    (library (logical Carlolib-dev)
      (uri /home/cain/Embedded/media_lab/PCB/chip_base/../components/Carlolib-dev.lib))
    (library (logical opendous)
      (uri /home/cain/Embedded/media_lab/PCB/chip_base/../components/opendous.lib))
    (library (logical mem_mic)
      (uri /home/cain/Embedded/media_lab/PCB/chip_base/../components/mem_mic.lib))
    (library (logical imx233stamp-cache)
      (uri /home/cain/Embedded/media_lab/PCB/chip_base/../components/imx233stamp-cache.lib))
    (library (logical srf2012)
      (uri /home/cain/Embedded/media_lab/PCB/chip_base/../components/srf2012.lib))
    (library (logical rclamp0502b)
      (uri /home/cain/Embedded/media_lab/PCB/chip_base/../components/rclamp0502b.lib))
    (library (logical usb_a)
      (uri /home/cain/Embedded/media_lab/PCB/chip_base/../components/usb_a.lib)))
  (nets
    (net (code 1) (name "Net-(HP1-Pad2)")
      (node (ref LA3) (pin 1))
      (node (ref HP1) (pin 2)))
    (net (code 2) (name "Net-(HP1-Pad3)")
      (node (ref LA2) (pin 1))
      (node (ref HP1) (pin 3)))
    (net (code 3) (name "Net-(HP1-Pad1)")
      (node (ref LA1) (pin 1))
      (node (ref HP1) (pin 1)))
    (net (code 4) (name /PWR_ON)
      (node (ref U1) (pin 5))
      (node (ref PW1) (pin 1)))
    (net (code 5) (name "Net-(DRGR8-Pad2)")
      (node (ref U1) (pin 16))
      (node (ref DRGR8) (pin 2)))
    (net (code 6) (name "Net-(CM1-Pad1)")
      (node (ref MIC1) (pin 4))
      (node (ref CM1) (pin 1))
      (node (ref CM2) (pin 1)))
    (net (code 7) (name "Net-(DRGR8-Pad1)")
      (node (ref RGR8) (pin 1))
      (node (ref DRGR8) (pin 1)))
    (net (code 8) (name /G8_RX)
      (node (ref ECOM1) (pin 1))
      (node (ref U1) (pin 14)))
    (net (code 9) (name /G8_TX)
      (node (ref ECOM1) (pin 2))
      (node (ref U1) (pin 13)))
    (net (code 10) (name /SCL)
      (node (ref ECOM1) (pin 3))
      (node (ref U1) (pin 12)))
    (net (code 11) (name /SDA)
      (node (ref U1) (pin 11))
      (node (ref ECOM1) (pin 4)))
    (net (code 12) (name "Net-(DL1-Pad2)")
      (node (ref DL1) (pin 2))
      (node (ref RL1) (pin 2)))
    (net (code 13) (name "Net-(CPW2-Pad1)")
      (node (ref UP1) (pin 2))
      (node (ref CPW2) (pin 1))
      (node (ref UP1) (pin 4))
      (node (ref LSEL2) (pin 1)))
    (net (code 14) (name GND)
      (node (ref U1) (pin 6))
      (node (ref U1) (pin 45))
      (node (ref USB1) (pin 1))
      (node (ref U1) (pin 46))
      (node (ref U1) (pin 49))
      (node (ref CRD1) (pin 2))
      (node (ref CRD2) (pin 2))
      (node (ref UU1) (pin 3))
      (node (ref U1) (pin 1))
      (node (ref U1) (pin 17))
      (node (ref DU1) (pin 1))
      (node (ref UU2) (pin 3))
      (node (ref USB0) (pin 4))
      (node (ref PW1) (pin 2))
      (node (ref USB0) (pin 5))
      (node (ref USB0) (pin 6))
      (node (ref USB0) (pin 7))
      (node (ref USB0) (pin 8))
      (node (ref CPW1) (pin 2))
      (node (ref UP1) (pin 1))
      (node (ref CUS1) (pin 2))
      (node (ref CUS2) (pin 2))
      (node (ref ECOM1) (pin 5))
      (node (ref U1) (pin 53))
      (node (ref CPW2) (pin 2))
      (node (ref RL1) (pin 1))
      (node (ref PWR1) (pin 3))
      (node (ref PWR1) (pin 2))
      (node (ref RGR8) (pin 2))
      (node (ref CPW3) (pin 2))
      (node (ref RRD1) (pin 1))
      (node (ref PB1) (pin 2))
      (node (ref PB2) (pin 2))
      (node (ref PROG1) (pin 1)))
    (net (code 15) (name +3.3VP)
      (node (ref CPW3) (pin 1))
      (node (ref ECOM1) (pin 6))
      (node (ref LSEL3) (pin 2))
      (node (ref PROG1) (pin 5))
      (node (ref RPB1) (pin 2))
      (node (ref RPB2) (pin 2))
      (node (ref LSEL2) (pin 2))
      (node (ref DL1) (pin 1))
      (node (ref CRD1) (pin 1))
      (node (ref CRD2) (pin 1)))
    (net (code 16) (name /RUN)
      (node (ref PB2) (pin 1))
      (node (ref RPB2) (pin 1))
      (node (ref U1) (pin 33)))
    (net (code 17) (name /RECORD)
      (node (ref PB1) (pin 1))
      (node (ref RPB1) (pin 1))
      (node (ref U1) (pin 32)))
    (net (code 18) (name /CLK_PG)
      (node (ref U1) (pin 35))
      (node (ref PROG1) (pin 3)))
    (net (code 19) (name +5V)
      (node (ref LUS1) (pin 1))
      (node (ref UP1) (pin 3))
      (node (ref CPW1) (pin 1))
      (node (ref PWR1) (pin 1))
      (node (ref U1) (pin 4))
      (node (ref U1) (pin 3)))
    (net (code 20) (name /DATA_PG)
      (node (ref RRD1) (pin 2))
      (node (ref PROG1) (pin 4))
      (node (ref U1) (pin 36)))
    (net (code 21) (name /PL_PG)
      (node (ref PROG1) (pin 2))
      (node (ref U1) (pin 34)))
    (net (code 22) (name /USB_D1-)
      (node (ref U1) (pin 48))
      (node (ref LUS4) (pin 2)))
    (net (code 23) (name /USB_D1+)
      (node (ref U1) (pin 47))
      (node (ref LUS4) (pin 3)))
    (net (code 24) (name /USB_D0-)
      (node (ref U1) (pin 52))
      (node (ref LUS2) (pin 2)))
    (net (code 25) (name /USB_D0+)
      (node (ref U1) (pin 51))
      (node (ref LUS2) (pin 3)))
    (net (code 26) (name /MICIN1)
      (node (ref CM2) (pin 2))
      (node (ref U1) (pin 28)))
    (net (code 27) (name /MICIN2)
      (node (ref U1) (pin 27)))
    (net (code 28) (name "Net-(LSEL3-Pad1)")
      (node (ref LSEL3) (pin 1))
      (node (ref U1) (pin 2)))
    (net (code 29) (name "Net-(U1-Pad39)")
      (node (ref U1) (pin 39)))
    (net (code 30) (name /HP_VGND)
      (node (ref LA1) (pin 2))
      (node (ref U1) (pin 19)))
    (net (code 31) (name /HP_L)
      (node (ref U1) (pin 18))
      (node (ref CE1) (pin 1))
      (node (ref LA3) (pin 2)))
    (net (code 32) (name /HP_R)
      (node (ref CE2) (pin 1))
      (node (ref U1) (pin 20))
      (node (ref LA2) (pin 2)))
    (net (code 33) (name "Net-(HP1-Pad4)")
      (node (ref HP1) (pin 4)))
    (net (code 34) (name /BAT)
      (node (ref U1) (pin 8)))
    (net (code 35) (name /TS)
      (node (ref U1) (pin 7)))
    (net (code 36) (name "Net-(U1-Pad40)")
      (node (ref U1) (pin 40)))
    (net (code 37) (name "Net-(U1-Pad42)")
      (node (ref U1) (pin 42)))
    (net (code 38) (name "Net-(U1-Pad22)")
      (node (ref U1) (pin 22)))
    (net (code 39) (name "Net-(U1-Pad41)")
      (node (ref U1) (pin 41)))
    (net (code 40) (name "Net-(U1-Pad31)")
      (node (ref U1) (pin 31)))
    (net (code 41) (name "Net-(U1-Pad21)")
      (node (ref U1) (pin 21)))
    (net (code 42) (name "Net-(U1-Pad50)")
      (node (ref U1) (pin 50)))
    (net (code 43) (name "Net-(U1-Pad30)")
      (node (ref U1) (pin 30)))
    (net (code 44) (name "Net-(U1-Pad10)")
      (node (ref U1) (pin 10)))
    (net (code 45) (name "Net-(U1-Pad9)")
      (node (ref U1) (pin 9)))
    (net (code 46) (name "Net-(U1-Pad38)")
      (node (ref U1) (pin 38)))
    (net (code 47) (name "Net-(U1-Pad37)")
      (node (ref U1) (pin 37)))
    (net (code 48) (name "Net-(U1-Pad25)")
      (node (ref U1) (pin 25)))
    (net (code 49) (name "Net-(U1-Pad15)")
      (node (ref U1) (pin 15)))
    (net (code 50) (name "Net-(U1-Pad44)")
      (node (ref U1) (pin 44)))
    (net (code 51) (name "Net-(U1-Pad24)")
      (node (ref U1) (pin 24)))
    (net (code 52) (name "Net-(U1-Pad43)")
      (node (ref U1) (pin 43)))
    (net (code 53) (name "Net-(U1-Pad23)")
      (node (ref U1) (pin 23)))
    (net (code 54) (name /AGND)
      (node (ref MIC1) (pin 3))
      (node (ref CE1) (pin 2))
      (node (ref CE2) (pin 2))
      (node (ref CM3) (pin 1))
      (node (ref MIC1) (pin 2))
      (node (ref U1) (pin 26))
      (node (ref CM1) (pin 2)))
    (net (code 55) (name /VMIC)
      (node (ref CM3) (pin 2))
      (node (ref U1) (pin 29))
      (node (ref MIC1) (pin 1)))
    (net (code 56) (name /USB/USB1+)
      (node (ref USB1) (pin 2))
      (node (ref LUS4) (pin 4))
      (node (ref UU2) (pin 2)))
    (net (code 57) (name /USB/USB1-)
      (node (ref USB1) (pin 3))
      (node (ref LUS4) (pin 1))
      (node (ref UU2) (pin 1)))
    (net (code 58) (name /USB/USB0-)
      (node (ref LUS2) (pin 1))
      (node (ref UU1) (pin 1))
      (node (ref USB0) (pin 2)))
    (net (code 59) (name "Net-(CUS1-Pad1)")
      (node (ref LUS1) (pin 2))
      (node (ref USB0) (pin 1))
      (node (ref DU1) (pin 2))
      (node (ref CUS1) (pin 1))
      (node (ref USB1) (pin 4))
      (node (ref CUS2) (pin 1)))
    (net (code 60) (name /USB/USB0+)
      (node (ref UU1) (pin 2))
      (node (ref LUS2) (pin 4))
      (node (ref USB0) (pin 3)))))