EESchema Schematic File Version 2
LIBS:chip_media-rescue
LIBS:power
LIBS:device
LIBS:transistors
LIBS:conn
LIBS:linear
LIBS:regul
LIBS:74xx
LIBS:cmos4000
LIBS:adc-dac
LIBS:memory
LIBS:xilinx
LIBS:microcontrollers
LIBS:dsp
LIBS:microchip
LIBS:analog_switches
LIBS:motorola
LIBS:texas
LIBS:intel
LIBS:audio
LIBS:interface
LIBS:digital-audio
LIBS:philips
LIBS:display
LIBS:cypress
LIBS:siliconi
LIBS:opto
LIBS:atmel
LIBS:contrib
LIBS:valves
LIBS:chip_pro
LIBS:stm32f100vxx
LIBS:ABM8G
LIBS:drv8835
LIBS:lt1117cst
LIBS:stm32f0
LIBS:Carlolib-dev
LIBS:opendous
LIBS:mem_mic
LIBS:usba-plug
LIBS:imx233stamp-cache
LIBS:srf2012
LIBS:rclamp0502b
LIBS:usbconn
LIBS:usb_a
LIBS:chip_media-cache
EELAYER 26 0
EELAYER END
$Descr A4 11693 8268
encoding utf-8
Sheet 1 2
Title ""
Date ""
Rev ""
Comp ""
Comment1 ""
Comment2 ""
Comment3 ""
Comment4 ""
$EndDescr
$Comp
L chip_pro U1
U 1 1 5844E7A8
P 6125 3650
F 0 "U1" H 5150 4825 60  0000 C CNN
F 1 "chip_pro" H 5300 4725 60  0000 C CNN
F 2 "CHIP_Pro-Footprint:CHIP_PRO" H 6125 3650 60  0001 C CNN
F 3 "" H 6125 3650 60  0001 C CNN
	1    6125 3650
	-1   0    0    -1  
$EndComp
$Comp
L GND #PWR01
U 1 1 584632AC
P 4500 2900
F 0 "#PWR01" H 4500 2900 30  0001 C CNN
F 1 "GND" H 4500 2830 30  0001 C CNN
F 2 "" H 4500 2900 60  0001 C CNN
F 3 "" H 4500 2900 60  0001 C CNN
	1    4500 2900
	0    1    -1   0   
$EndComp
$Comp
L GND #PWR02
U 1 1 58463508
P 7700 2900
F 0 "#PWR02" H 7700 2900 30  0001 C CNN
F 1 "GND" H 7700 2830 30  0001 C CNN
F 2 "" H 7700 2900 60  0001 C CNN
F 3 "" H 7700 2900 60  0001 C CNN
	1    7700 2900
	0    -1   -1   0   
$EndComp
$Comp
L GND #PWR03
U 1 1 58463B2C
P 5775 1800
F 0 "#PWR03" H 5775 1800 30  0001 C CNN
F 1 "GND" H 5775 1730 30  0001 C CNN
F 2 "" H 5775 1800 60  0001 C CNN
F 3 "" H 5775 1800 60  0001 C CNN
	1    5775 1800
	1    0    0    1   
$EndComp
$Comp
L GND #PWR04
U 1 1 58463C48
P 6475 1800
F 0 "#PWR04" H 6475 1800 30  0001 C CNN
F 1 "GND" H 6475 1730 30  0001 C CNN
F 2 "" H 6475 1800 60  0001 C CNN
F 3 "" H 6475 1800 60  0001 C CNN
	1    6475 1800
	1    0    0    1   
$EndComp
$Comp
L GND #PWR05
U 1 1 5846469F
P 6075 1800
F 0 "#PWR05" H 6075 1800 30  0001 C CNN
F 1 "GND" H 6075 1730 30  0001 C CNN
F 2 "" H 6075 1800 60  0001 C CNN
F 3 "" H 6075 1800 60  0001 C CNN
	1    6075 1800
	1    0    0    1   
$EndComp
$Comp
L GND #PWR06
U 1 1 584648A4
P 7900 3400
F 0 "#PWR06" H 7900 3400 30  0001 C CNN
F 1 "GND" H 7900 3330 30  0001 C CNN
F 2 "" H 7900 3400 60  0001 C CNN
F 3 "" H 7900 3400 60  0001 C CNN
	1    7900 3400
	0    -1   -1   0   
$EndComp
$Comp
L GND #PWR07
U 1 1 5846538C
P 6725 5225
F 0 "#PWR07" H 6725 5225 30  0001 C CNN
F 1 "GND" H 6725 5155 30  0001 C CNN
F 2 "" H 6725 5225 60  0001 C CNN
F 3 "" H 6725 5225 60  0001 C CNN
	1    6725 5225
	-1   0    0    -1  
$EndComp
$Comp
L +5V #PWR08
U 1 1 58475B6A
P 8125 2900
F 0 "#PWR08" H 8125 2750 50  0001 C CNN
F 1 "+5V" H 8125 3050 50  0000 C CNN
F 2 "" H 8125 2900 50  0000 C CNN
F 3 "" H 8125 2900 50  0000 C CNN
	1    8125 2900
	-1   0    0    -1  
$EndComp
$Comp
L SW_PUSH PW1
U 1 1 5847760F
P 3575 5375
F 0 "PW1" H 3725 5485 50  0000 C CNN
F 1 "SW_PUSH" H 3575 5295 50  0000 C CNN
F 2 "Buttons_Switches_ThroughHole:SW_Tactile_SPST_Angled" H 3575 5375 60  0001 C CNN
F 3 "" H 3575 5375 60  0000 C CNN
	1    3575 5375
	1    0    0    -1  
$EndComp
$Comp
L GND #PWR09
U 1 1 5847775B
P 4125 5450
F 0 "#PWR09" H 4125 5450 30  0001 C CNN
F 1 "GND" H 4125 5380 30  0001 C CNN
F 2 "" H 4125 5450 60  0001 C CNN
F 3 "" H 4125 5450 60  0001 C CNN
	1    4125 5450
	1    0    0    -1  
$EndComp
Text Label 2925 5375 0    60   ~ 0
PWR_ON
Text Label 7975 3300 2    60   ~ 0
PWR_ON
Text Label 7725 3500 2    60   ~ 0
TS
Text Label 7775 3600 2    60   ~ 0
BAT
$Comp
L STEREO-AUDIO-JACK_SJ1-3524-SMT HP1
U 1 1 58464B08
P 900 7025
F 0 "HP1" H 650 6675 40  0000 C CNN
F 1 "Headphones" H 825 7350 30  0000 C CNN
F 2 "SJ-3524-SMT_Stereo_Jack" H 900 7025 60  0001 C CNN
F 3 "" H 900 7025 60  0000 C CNN
	1    900  7025
	1    0    0    -1  
$EndComp
$Comp
L C CE1
U 1 1 58464B16
P 1950 7475
F 0 "CE1" H 2000 7575 50  0000 L CNN
F 1 "2.2nF" H 2000 7375 50  0000 L CNN
F 2 "Capacitors_SMD:C_0603" H 1950 7475 60  0001 C CNN
F 3 "" H 1950 7475 60  0001 C CNN
	1    1950 7475
	1    0    0    -1  
$EndComp
NoConn ~ 1200 7175
Text Label 1700 6775 0    60   ~ 0
HP_VGND
Text Label 1750 6925 0    60   ~ 0
HP_R
Text Label 1750 7275 0    60   ~ 0
HP_L
$Comp
L C CE2
U 1 1 58464B2E
P 2200 7475
F 0 "CE2" H 2250 7575 50  0000 L CNN
F 1 "2.2nF" H 2250 7375 50  0000 L CNN
F 2 "Capacitors_SMD:C_0603" H 2200 7475 60  0001 C CNN
F 3 "" H 2200 7475 60  0001 C CNN
	1    2200 7475
	1    0    0    -1  
$EndComp
$Comp
L L LA1
U 1 1 58464B81
P 1500 6775
F 0 "LA1" V 1550 6950 50  0000 C CNN
F 1 "LST1" V 1600 6600 50  0000 C CNN
F 2 "Resistors_SMD:R_0805" V 1598 6775 50  0001 C CNN
F 3 "" H 1500 6775 50  0000 C CNN
	1    1500 6775
	0    -1   -1   0   
$EndComp
$Comp
L L LA2
U 1 1 58464B88
P 1500 6925
F 0 "LA2" V 1550 7100 50  0000 C CNN
F 1 "LST1" V 1550 6750 50  0000 C CNN
F 2 "Resistors_SMD:R_0805" V 1598 6925 50  0001 C CNN
F 3 "" H 1500 6925 50  0000 C CNN
	1    1500 6925
	0    -1   -1   0   
$EndComp
$Comp
L L LA3
U 1 1 58464B8F
P 1500 7275
F 0 "LA3" V 1550 7475 50  0000 C CNN
F 1 "LST1" V 1575 7125 50  0000 C CNN
F 2 "Resistors_SMD:R_0805" V 1598 7275 50  0001 C CNN
F 3 "" H 1500 7275 50  0000 C CNN
	1    1500 7275
	0    -1   -1   0   
$EndComp
Text Label 6525 5500 1    60   ~ 0
HP_VGND
Text Label 6425 5425 1    60   ~ 0
HP_R
Text Label 6625 5450 1    60   ~ 0
HP_L
$Comp
L CONN_01X06 ECOM1
U 1 1 5848971C
P 1725 4325
F 0 "ECOM1" V 1850 4300 50  0000 C CNN
F 1 "CONN_01X06" H 1803 4275 50  0001 L CNN
F 2 "Socket_Strips:Socket_Strip_Straight_1x06" H 1725 4325 50  0001 C CNN
F 3 "" H 1725 4325 50  0000 C CNN
	1    1725 4325
	-1   0    0    1   
$EndComp
$Comp
L GND #PWR010
U 1 1 5848BA42
P 2275 4175
F 0 "#PWR010" H 2275 4175 30  0001 C CNN
F 1 "GND" H 2275 4105 30  0001 C CNN
F 2 "" H 2275 4175 60  0001 C CNN
F 3 "" H 2275 4175 60  0001 C CNN
	1    2275 4175
	1    0    0    -1  
$EndComp
$Comp
L +3.3VP #PWR011
U 1 1 5848C3B2
P 2000 3975
F 0 "#PWR011" H 2050 4005 20  0001 C CNN
F 1 "+3.3VP" H 2000 4065 30  0000 C CNN
F 2 "" H 2000 3975 60  0001 C CNN
F 3 "" H 2000 3975 60  0001 C CNN
	1    2000 3975
	1    0    0    -1  
$EndComp
Text Label 1925 4475 0    60   ~ 0
G8_TX
Text Label 1925 4575 0    60   ~ 0
G8_RX
Text Label 2025 4275 0    60   ~ 0
SDA
Text Label 2025 4375 0    60   ~ 0
SCL
Text Label 7625 3900 0    60   ~ 0
SDA
Text Label 7625 4000 0    60   ~ 0
SCL
$Comp
L L LSEL3
U 1 1 58496B21
P 7775 3000
F 0 "LSEL3" V 7725 3000 50  0000 C CNN
F 1 "LST1" V 7725 3000 50  0001 C CNN
F 2 "Resistors_SMD:R_0805" V 7873 3000 50  0001 C CNN
F 3 "" H 7775 3000 50  0000 C CNN
	1    7775 3000
	0    -1   -1   0   
$EndComp
$Comp
L +3.3VP #PWR012
U 1 1 58497735
P 7975 2875
F 0 "#PWR012" H 8025 2905 20  0001 C CNN
F 1 "+3.3VP" H 7925 3000 30  0000 C CNN
F 2 "" H 7975 2875 60  0001 C CNN
F 3 "" H 7975 2875 60  0001 C CNN
	1    7975 2875
	1    0    0    -1  
$EndComp
$Comp
L R RGR8
U 1 1 5849C971
P 8250 4400
F 0 "RGR8" V 8330 4400 50  0000 C CNN
F 1 "1k" V 8250 4400 50  0000 C CNN
F 2 "Resistors_SMD:R_0603" H 8250 4400 60  0001 C CNN
F 3 "" H 8250 4400 60  0001 C CNN
	1    8250 4400
	0    -1   1    0   
$EndComp
$Comp
L LED DRGR8
U 1 1 5849C978
P 7900 4400
F 0 "DRGR8" H 7925 4250 50  0000 C CNN
F 1 "LED" H 7900 4500 50  0000 C CNN
F 2 "LEDs:LED_0603" H 7900 4400 60  0001 C CNN
F 3 "" H 7900 4400 60  0001 C CNN
	1    7900 4400
	-1   0    0    -1  
$EndComp
$Comp
L GND #PWR013
U 1 1 5849C97F
P 8475 4400
F 0 "#PWR013" H 8475 4400 30  0001 C CNN
F 1 "GND" H 8475 4330 30  0001 C CNN
F 2 "" H 8475 4400 60  0001 C CNN
F 3 "" H 8475 4400 60  0001 C CNN
	1    8475 4400
	0    -1   -1   0   
$EndComp
NoConn ~ 7625 3700
NoConn ~ 7625 3800
NoConn ~ 7625 4300
NoConn ~ 6325 5150
NoConn ~ 6225 5150
NoConn ~ 6125 5150
NoConn ~ 6025 5150
NoConn ~ 5925 5150
NoConn ~ 4775 3200
Text Label 2300 7675 0    60   ~ 0
AGND
Text Label 5825 5300 0    60   ~ 0
AGND
$Comp
L C CM2
U 1 1 58701499
P 2775 6850
F 0 "CM2" H 2825 6950 50  0000 L CNN
F 1 ".1uF" H 2825 6750 50  0000 L CNN
F 2 "Capacitors_SMD:C_0603" H 2775 6850 60  0001 C CNN
F 3 "" H 2775 6850 60  0001 C CNN
	1    2775 6850
	0    1    1    0   
$EndComp
$Comp
L C CM1
U 1 1 58701889
P 3075 7225
F 0 "CM1" H 3125 7325 50  0000 L CNN
F 1 ".1uF" H 3125 7125 50  0000 L CNN
F 2 "Capacitors_SMD:C_0603" H 3075 7225 60  0001 C CNN
F 3 "" H 3075 7225 60  0001 C CNN
	1    3075 7225
	1    0    0    -1  
$EndComp
$Comp
L C CM3
U 1 1 58701991
P 4300 6475
F 0 "CM3" H 4350 6575 50  0000 L CNN
F 1 ".1uF" H 4350 6375 50  0000 L CNN
F 2 "Capacitors_SMD:C_0603" H 4300 6475 60  0001 C CNN
F 3 "" H 4300 6475 60  0001 C CNN
	1    4300 6475
	-1   0    0    1   
$EndComp
$Comp
L MEM_MIC MIC1
U 1 1 58702594
P 3650 6850
F 0 "MIC1" H 3877 6825 60  0000 L CNN
F 1 "SPW2430HR5H-B" H 3925 6575 60  0000 L CNN
F 2 "modules:SPW2430HR5H-B" H 3650 6850 60  0001 C CNN
F 3 "" H 3650 6850 60  0001 C CNN
	1    3650 6850
	1    0    0    -1  
$EndComp
Text Label 3800 7675 0    60   ~ 0
AGND
Text Label 5225 5250 0    60   ~ 0
VMIC
Text Label 3425 6250 0    60   ~ 0
VMIC
Text Label 5225 5350 0    60   ~ 0
MICIN1
Text Label 5225 5450 0    60   ~ 0
MICIN2
Text Label 4300 6950 1    60   ~ 0
AGND
Text Label 2300 6850 0    60   ~ 0
MICIN1
Text Notes 8300 3025 0    60   ~ 0
Mount LSEL2 or LSEL3 not both
$Comp
L DC_POWER_JACK PWR1
U 1 1 587139AE
P 1425 3300
F 0 "PWR1" H 1382 3515 40  0000 C CNN
F 1 "DC_POWER_JACK" H 1382 3503 25  0001 C CNN
F 2 "Connect:BARREL_JACK" H 1425 3300 60  0001 C CNN
F 3 "" H 1425 3300 60  0001 C CNN
	1    1425 3300
	1    0    0    -1  
$EndComp
$Comp
L GND #PWR014
U 1 1 5871470F
P 1700 3400
F 0 "#PWR014" H 1700 3400 30  0001 C CNN
F 1 "GND" H 1700 3330 30  0001 C CNN
F 2 "" H 1700 3400 60  0001 C CNN
F 3 "" H 1700 3400 60  0001 C CNN
	1    1700 3400
	1    0    0    -1  
$EndComp
$Comp
L +5V #PWR015
U 1 1 58714E8F
P 1650 3200
F 0 "#PWR015" H 1650 3050 50  0001 C CNN
F 1 "+5V" H 1650 3350 50  0000 C CNN
F 2 "" H 1650 3200 50  0000 C CNN
F 3 "" H 1650 3200 50  0000 C CNN
	1    1650 3200
	-1   0    0    -1  
$EndComp
Text Label 7625 4100 0    60   ~ 0
G8_TX
Text Label 7625 4200 0    60   ~ 0
G8_RX
$Sheet
S 9450 3550 725  600 
U 58715936
F0 "USB" 60
F1 "USB.sch" 60
F2 "USB_DM0" I L 9450 3675 60 
F3 "USB_DP0" I L 9450 3775 60 
F4 "USB_DM1" I L 9450 3925 60 
F5 "USB_DP2" I L 9450 4025 60 
$EndSheet
Text Label 6275 2000 1    60   ~ 0
USB_D0+
Text Label 6375 2000 1    60   ~ 0
USB_D0-
Text Label 5875 2000 1    60   ~ 0
USB_D1+
Text Label 5975 2000 1    60   ~ 0
USB_D1-
Text Label 9000 3775 0    60   ~ 0
USB_D0+
Text Label 9000 3675 0    60   ~ 0
USB_D0-
Text Label 9000 4025 0    60   ~ 0
USB_D1+
Text Label 9000 3925 0    60   ~ 0
USB_D1-
$Comp
L CONN_01X05 PROG1
U 1 1 58726582
P 3275 3250
F 0 "PROG1" V 3400 3225 50  0000 C CNN
F 1 "CONN_01X05" H 3353 3200 50  0001 L CNN
F 2 "Socket_Strips:Socket_Strip_Angled_1x05_Pitch2.54mm" H 3275 3250 50  0001 C CNN
F 3 "" H 3275 3250 50  0000 C CNN
	1    3275 3250
	-1   0    0    1   
$EndComp
Text Label 3475 3250 0    60   ~ 0
CLK_PG
$Comp
L GND #PWR016
U 1 1 587277CF
P 3650 3450
F 0 "#PWR016" H 3650 3450 30  0001 C CNN
F 1 "GND" H 3650 3380 30  0001 C CNN
F 2 "" H 3650 3450 60  0001 C CNN
F 3 "" H 3650 3450 60  0001 C CNN
	1    3650 3450
	1    0    0    -1  
$EndComp
Text Label 3475 3350 0    60   ~ 0
PL_PG
Text Label 3475 3150 0    60   ~ 0
DATA_PG
$Comp
L +3.3VP #PWR017
U 1 1 58994816
P 3775 3050
F 0 "#PWR017" H 3825 3080 20  0001 C CNN
F 1 "+3.3VP" H 3775 3140 30  0000 C CNN
F 2 "" H 3775 3050 60  0001 C CNN
F 3 "" H 3775 3050 60  0001 C CNN
	1    3775 3050
	1    0    0    -1  
$EndComp
$Comp
L +3.3VP #PWR018
U 1 1 58995C7D
P 9550 5375
F 0 "#PWR018" H 9600 5405 20  0001 C CNN
F 1 "+3.3VP" H 9550 5465 30  0000 C CNN
F 2 "" H 9550 5375 60  0001 C CNN
F 3 "" H 9550 5375 60  0001 C CNN
	1    9550 5375
	1    0    0    -1  
$EndComp
$Comp
L +3.3VP #PWR019
U 1 1 58995C83
P 10150 5475
F 0 "#PWR019" H 10200 5505 20  0001 C CNN
F 1 "+3.3VP" H 10150 5565 30  0000 C CNN
F 2 "" H 10150 5475 60  0001 C CNN
F 3 "" H 10150 5475 60  0001 C CNN
	1    10150 5475
	1    0    0    -1  
$EndComp
$Comp
L GND #PWR020
U 1 1 58995C89
P 9550 6125
F 0 "#PWR020" H 9550 6125 30  0001 C CNN
F 1 "GND" H 9550 6055 30  0001 C CNN
F 2 "" H 9550 6125 60  0001 C CNN
F 3 "" H 9550 6125 60  0001 C CNN
	1    9550 6125
	1    0    0    -1  
$EndComp
$Comp
L C CPW3
U 1 1 58995C8F
P 9550 5825
F 0 "CPW3" H 9600 5925 50  0000 L CNN
F 1 "33uF" H 9600 5725 50  0000 L CNN
F 2 "Capacitors_SMD:C_1206" H 9550 5825 60  0001 C CNN
F 3 "" H 9550 5825 60  0001 C CNN
	1    9550 5825
	1    0    0    -1  
$EndComp
$Comp
L C CPW1
U 1 1 58995C96
P 7900 5825
F 0 "CPW1" H 7950 5925 50  0000 L CNN
F 1 "33uF" H 7950 5725 50  0000 L CNN
F 2 "Capacitors_SMD:C_1206" H 7900 5825 60  0001 C CNN
F 3 "" H 7900 5825 60  0001 C CNN
	1    7900 5825
	1    0    0    -1  
$EndComp
$Comp
L GND #PWR021
U 1 1 58995C9D
P 8950 6125
F 0 "#PWR021" H 8950 6125 30  0001 C CNN
F 1 "GND" H 8950 6055 30  0001 C CNN
F 2 "" H 8950 6125 60  0001 C CNN
F 3 "" H 8950 6125 60  0001 C CNN
	1    8950 6125
	1    0    0    -1  
$EndComp
$Comp
L GND #PWR022
U 1 1 58995CA3
P 8100 5725
F 0 "#PWR022" H 8100 5725 30  0001 C CNN
F 1 "GND" H 8100 5655 30  0001 C CNN
F 2 "" H 8100 5725 60  0001 C CNN
F 3 "" H 8100 5725 60  0001 C CNN
	1    8100 5725
	1    0    0    -1  
$EndComp
$Comp
L LT1117CST UP1
U 1 1 58995CA9
P 8550 5725
F 0 "UP1" H 8400 6025 60  0000 C CNN
F 1 "LT1117CST-3.3" H 8550 5725 40  0000 C CNN
F 2 "TO_SOT_Packages_SMD:SOT-223" H 8550 5725 60  0001 C CNN
F 3 "" H 8550 5725 60  0001 C CNN
	1    8550 5725
	1    0    0    -1  
$EndComp
$Comp
L C CPW2
U 1 1 58995CB0
P 8950 5825
F 0 "CPW2" H 9000 5925 50  0000 L CNN
F 1 "100n" H 9000 5725 50  0000 L CNN
F 2 "Capacitors_SMD:C_0603" H 8950 5825 60  0001 C CNN
F 3 "" H 8950 5825 60  0001 C CNN
	1    8950 5825
	1    0    0    -1  
$EndComp
$Comp
L GND #PWR023
U 1 1 58995CB7
P 10650 5975
F 0 "#PWR023" H 10650 5975 30  0001 C CNN
F 1 "GND" H 10650 5905 30  0001 C CNN
F 2 "" H 10650 5975 60  0001 C CNN
F 3 "" H 10650 5975 60  0001 C CNN
	1    10650 5975
	0    -1   1    0   
$EndComp
$Comp
L LED DL1
U 1 1 58995CBD
P 10250 5675
F 0 "DL1" H 10250 5775 50  0000 C CNN
F 1 "LED" H 10250 5575 50  0000 C CNN
F 2 "LEDs:LED_0603" H 10250 5675 60  0001 C CNN
F 3 "" H 10250 5675 60  0001 C CNN
	1    10250 5675
	-1   0    0    1   
$EndComp
$Comp
L R RL1
U 1 1 58995CC4
P 10250 5975
F 0 "RL1" V 10330 5975 50  0000 C CNN
F 1 "1k" V 10250 5975 50  0000 C CNN
F 2 "Resistors_SMD:R_0603" H 10250 5975 60  0001 C CNN
F 3 "" H 10250 5975 60  0001 C CNN
	1    10250 5975
	0    1    1    0   
$EndComp
$Comp
L GND #PWR024
U 1 1 58995CCB
P 7900 6125
F 0 "#PWR024" H 7900 6125 30  0001 C CNN
F 1 "GND" H 7900 6055 30  0001 C CNN
F 2 "" H 7900 6125 60  0001 C CNN
F 3 "" H 7900 6125 60  0001 C CNN
	1    7900 6125
	1    0    0    -1  
$EndComp
$Comp
L +5V #PWR025
U 1 1 58995CD1
P 7900 5475
F 0 "#PWR025" H 7900 5325 50  0001 C CNN
F 1 "+5V" H 7915 5648 50  0000 C CNN
F 2 "" H 7900 5475 50  0000 C CNN
F 3 "" H 7900 5475 50  0000 C CNN
	1    7900 5475
	1    0    0    -1  
$EndComp
$Comp
L L LSEL2
U 1 1 58995CED
P 9175 5525
F 0 "LSEL2" V 9125 5525 50  0000 C CNN
F 1 "LST1" V 9125 5525 50  0001 C CNN
F 2 "Resistors_SMD:R_0805" V 9273 5525 50  0001 C CNN
F 3 "" H 9175 5525 50  0000 C CNN
	1    9175 5525
	0    -1   -1   0   
$EndComp
Text Notes 9100 5175 0    60   ~ 0
Mount LSEL2 or LSEL3 not both
$Comp
L SW_PUSH PB1
U 1 1 589973E3
P 3525 4600
F 0 "PB1" H 3675 4710 50  0000 C CNN
F 1 "SW_PUSH" H 3525 4520 50  0000 C CNN
F 2 "Buttons_Switches_ThroughHole:SW_Tactile_SPST_Angled" H 3525 4600 60  0001 C CNN
F 3 "" H 3525 4600 60  0000 C CNN
	1    3525 4600
	0    1    1    0   
$EndComp
$Comp
L SW_PUSH PB2
U 1 1 589975F1
P 3225 4600
F 0 "PB2" H 3375 4710 50  0000 C CNN
F 1 "SW_PUSH" H 3225 4520 50  0000 C CNN
F 2 "Buttons_Switches_ThroughHole:SW_Tactile_SPST_Angled" H 3225 4600 60  0001 C CNN
F 3 "" H 3225 4600 60  0000 C CNN
	1    3225 4600
	0    1    1    0   
$EndComp
$Comp
L R RPB1
U 1 1 58997B94
P 3525 3975
F 0 "RPB1" V 3605 3975 50  0000 C CNN
F 1 "10k" V 3525 3975 50  0000 C CNN
F 2 "Resistors_SMD:R_0603" H 3525 3975 60  0001 C CNN
F 3 "" H 3525 3975 60  0001 C CNN
	1    3525 3975
	-1   0    0    1   
$EndComp
$Comp
L R RPB2
U 1 1 58998BD2
P 3225 3975
F 0 "RPB2" V 3305 3975 50  0000 C CNN
F 1 "10k" V 3225 3975 50  0000 C CNN
F 2 "Resistors_SMD:R_0603" H 3225 3975 60  0001 C CNN
F 3 "" H 3225 3975 60  0001 C CNN
	1    3225 3975
	-1   0    0    1   
$EndComp
$Comp
L +3.3VP #PWR026
U 1 1 58998D90
P 3600 3675
F 0 "#PWR026" H 3650 3705 20  0001 C CNN
F 1 "+3.3VP" H 3600 3765 30  0000 C CNN
F 2 "" H 3600 3675 60  0001 C CNN
F 3 "" H 3600 3675 60  0001 C CNN
	1    3600 3675
	0    1    1    0   
$EndComp
$Comp
L GND #PWR027
U 1 1 5899A4F1
P 3525 4925
F 0 "#PWR027" H 3525 4925 30  0001 C CNN
F 1 "GND" H 3525 4855 30  0001 C CNN
F 2 "" H 3525 4925 60  0001 C CNN
F 3 "" H 3525 4925 60  0001 C CNN
	1    3525 4925
	1    0    0    -1  
$EndComp
$Comp
L GND #PWR028
U 1 1 5899A638
P 3225 4925
F 0 "#PWR028" H 3225 4925 30  0001 C CNN
F 1 "GND" H 3225 4855 30  0001 C CNN
F 2 "" H 3225 4925 60  0001 C CNN
F 3 "" H 3225 4925 60  0001 C CNN
	1    3225 4925
	1    0    0    -1  
$EndComp
Wire Wire Line
	4500 2900 4775 2900
Wire Wire Line
	7700 2900 7625 2900
Wire Wire Line
	6475 1800 6475 2000
Wire Wire Line
	5775 1800 5775 2000
Wire Wire Line
	6075 1800 6075 2000
Wire Wire Line
	7900 3400 7625 3400
Wire Wire Line
	6725 5150 6725 5225
Wire Wire Line
	5825 5150 5825 5300
Wire Wire Line
	2200 4475 1925 4475
Wire Wire Line
	2200 4575 1925 4575
Wire Wire Line
	7625 3100 8125 3100
Wire Wire Line
	3875 5375 4125 5375
Wire Wire Line
	4125 5375 4125 5450
Wire Wire Line
	3275 5375 2925 5375
Wire Wire Line
	7625 3300 7975 3300
Wire Wire Line
	7625 3500 7900 3500
Wire Wire Line
	7625 3600 7900 3600
Wire Wire Line
	1350 6775 1200 6775
Wire Wire Line
	1350 6925 1200 6925
Wire Wire Line
	1350 7275 1200 7275
Wire Wire Line
	2050 6775 1650 6775
Wire Wire Line
	1650 6925 2200 6925
Wire Wire Line
	1650 7275 1950 7275
Wire Wire Line
	2200 6925 2200 7325
Wire Wire Line
	1950 7675 2575 7675
Wire Wire Line
	1950 7625 1950 7675
Connection ~ 2200 7675
Wire Wire Line
	1950 7275 1950 7325
Wire Wire Line
	2200 7625 2200 7675
Connection ~ 1950 7675
Wire Wire Line
	6525 5150 6525 5550
Wire Wire Line
	6425 5475 6425 5150
Wire Wire Line
	6625 5150 6625 5500
Wire Wire Line
	1925 4175 2275 4175
Wire Wire Line
	2000 3975 2000 4075
Wire Wire Line
	2000 4075 1925 4075
Wire Wire Line
	7625 3900 7975 3900
Wire Wire Line
	7625 4000 7975 4000
Wire Wire Line
	8125 2900 8125 3200
Wire Wire Line
	7975 2875 7975 3000
Wire Wire Line
	7975 3000 7925 3000
Wire Wire Line
	7975 4100 7625 4100
Wire Wire Line
	7975 4200 7625 4200
Wire Wire Line
	8475 4400 8400 4400
Wire Wire Line
	8100 4400 8050 4400
Wire Wire Line
	7625 4400 7750 4400
Wire Wire Line
	8125 3200 7625 3200
Connection ~ 8125 3100
Wire Wire Line
	3550 7675 3550 7500
Wire Wire Line
	3075 7675 4025 7675
Wire Wire Line
	3750 7675 3750 7500
Connection ~ 3550 7675
Connection ~ 3750 7675
Wire Wire Line
	3075 7375 3075 7675
Wire Wire Line
	2925 6850 3250 6850
Wire Wire Line
	3075 7075 3075 6850
Connection ~ 3075 6850
Wire Wire Line
	5525 5150 5525 5250
Wire Wire Line
	5525 5250 5225 5250
Wire Wire Line
	3425 6250 4300 6250
Wire Wire Line
	5625 5150 5625 5350
Wire Wire Line
	5625 5350 5225 5350
Wire Wire Line
	5725 5150 5725 5450
Wire Wire Line
	5725 5450 5225 5450
Wire Wire Line
	4300 6250 4300 6325
Connection ~ 3650 6250
Wire Wire Line
	4300 6625 4300 6975
Wire Wire Line
	2625 6850 2300 6850
Wire Wire Line
	1575 3300 1575 3400
Wire Wire Line
	1575 3400 1700 3400
Wire Wire Line
	1575 3200 1650 3200
Wire Wire Line
	6275 2000 6275 1650
Wire Wire Line
	6375 1650 6375 2000
Wire Wire Line
	5875 2000 5875 1650
Wire Wire Line
	5975 1650 5975 2000
Wire Wire Line
	9000 3775 9450 3775
Wire Wire Line
	9000 3675 9450 3675
Wire Wire Line
	9000 4025 9450 4025
Wire Wire Line
	9000 3925 9450 3925
Wire Wire Line
	3475 3250 3775 3250
Wire Wire Line
	3475 3350 3775 3350
Wire Wire Line
	3475 3450 3650 3450
Wire Wire Line
	3475 3150 3975 3150
Wire Wire Line
	3475 3050 3775 3050
Wire Wire Line
	1925 4275 2200 4275
Wire Wire Line
	1925 4375 2200 4375
Wire Wire Line
	8200 5525 7900 5525
Connection ~ 9550 5525
Wire Wire Line
	8850 5525 9025 5525
Wire Wire Line
	8950 5975 8950 6125
Connection ~ 8950 5525
Connection ~ 8950 5625
Wire Wire Line
	9550 5375 9550 5675
Wire Wire Line
	8950 5625 8850 5625
Wire Wire Line
	10600 5475 10150 5475
Wire Wire Line
	9900 5675 10100 5675
Wire Wire Line
	9900 5975 9900 5675
Wire Wire Line
	9900 5975 10100 5975
Wire Wire Line
	10400 5975 10650 5975
Wire Wire Line
	10600 5675 10600 5475
Wire Wire Line
	10400 5675 10600 5675
Wire Wire Line
	8100 5625 8100 5725
Wire Wire Line
	8200 5625 8100 5625
Wire Wire Line
	8950 5525 8950 5675
Wire Wire Line
	9550 5975 9550 6125
Wire Wire Line
	7900 5975 7900 6125
Wire Wire Line
	7900 5475 7900 5675
Connection ~ 7900 5525
Wire Wire Line
	9325 5525 9550 5525
Wire Wire Line
	3525 4125 3525 4300
Wire Wire Line
	3225 4125 3225 4300
Wire Wire Line
	3525 3825 3525 3675
Wire Wire Line
	3225 3675 3600 3675
Wire Wire Line
	3225 3675 3225 3825
Connection ~ 3525 3675
Wire Wire Line
	3525 4925 3525 4900
Wire Wire Line
	3225 4925 3225 4900
Wire Wire Line
	3225 4150 3700 4150
Connection ~ 3225 4150
Wire Wire Line
	3700 4150 3700 4100
Wire Wire Line
	3700 4100 4775 4100
Wire Wire Line
	3525 4200 4775 4200
Connection ~ 3525 4200
Text Label 3850 4100 0    60   ~ 0
RUN
Text Label 3850 4200 0    60   ~ 0
RECORD
$Comp
L R RRD1
U 1 1 5899FE29
P 3975 3300
F 0 "RRD1" V 4055 3300 50  0000 C CNN
F 1 "100k" V 3975 3300 50  0000 C CNN
F 2 "Resistors_SMD:R_0603" H 3975 3300 60  0001 C CNN
F 3 "" H 3975 3300 60  0001 C CNN
	1    3975 3300
	-1   0    0    1   
$EndComp
$Comp
L GND #PWR029
U 1 1 589A0091
P 3975 3450
F 0 "#PWR029" H 3975 3450 30  0001 C CNN
F 1 "GND" H 3975 3380 30  0001 C CNN
F 2 "" H 3975 3450 60  0001 C CNN
F 3 "" H 3975 3450 60  0001 C CNN
	1    3975 3450
	1    0    0    -1  
$EndComp
Text Label 4375 3900 0    60   ~ 0
CLK_PG
Text Label 4375 4000 0    60   ~ 0
PL_PG
Text Label 4375 3800 0    60   ~ 0
DATA_PG
Wire Wire Line
	4375 3900 4775 3900
Wire Wire Line
	4375 4000 4775 4000
Wire Wire Line
	4375 3800 4775 3800
$Comp
L C CRD2
U 1 1 589A18E1
P 2425 3225
F 0 "CRD2" H 2475 3325 50  0000 L CNN
F 1 "33uF" H 2475 3125 50  0000 L CNN
F 2 "Capacitors_SMD:C_1206" H 2425 3225 60  0001 C CNN
F 3 "" H 2425 3225 60  0001 C CNN
	1    2425 3225
	1    0    0    -1  
$EndComp
$Comp
L C CRD1
U 1 1 589A1F42
P 2100 3225
F 0 "CRD1" H 2150 3325 50  0000 L CNN
F 1 "100n" H 2150 3125 50  0000 L CNN
F 2 "Capacitors_SMD:C_0603" H 2100 3225 60  0001 C CNN
F 3 "" H 2100 3225 60  0001 C CNN
	1    2100 3225
	1    0    0    -1  
$EndComp
$Comp
L +3.3VP #PWR030
U 1 1 589A23A4
P 2250 2950
F 0 "#PWR030" H 2300 2980 20  0001 C CNN
F 1 "+3.3VP" H 2250 3040 30  0000 C CNN
F 2 "" H 2250 2950 60  0001 C CNN
F 3 "" H 2250 2950 60  0001 C CNN
	1    2250 2950
	1    0    0    -1  
$EndComp
Wire Wire Line
	2100 3075 2100 2950
Wire Wire Line
	2100 2950 2425 2950
Wire Wire Line
	2425 2950 2425 3075
Connection ~ 2250 2950
$Comp
L GND #PWR031
U 1 1 589A25AF
P 2275 3500
F 0 "#PWR031" H 2275 3500 30  0001 C CNN
F 1 "GND" H 2275 3430 30  0001 C CNN
F 2 "" H 2275 3500 60  0001 C CNN
F 3 "" H 2275 3500 60  0001 C CNN
	1    2275 3500
	1    0    0    -1  
$EndComp
Wire Wire Line
	2100 3375 2100 3450
Wire Wire Line
	2100 3450 2425 3450
Wire Wire Line
	2275 3450 2275 3500
Wire Wire Line
	2425 3450 2425 3375
Connection ~ 2275 3450
Connection ~ 1575 3400
$EndSCHEMATC
