EESchema Schematic File Version 2
LIBS:chip_media-rescue
LIBS:power
LIBS:device
LIBS:transistors
LIBS:conn
LIBS:linear
LIBS:regul
LIBS:74xx
LIBS:cmos4000
LIBS:adc-dac
LIBS:memory
LIBS:xilinx
LIBS:microcontrollers
LIBS:dsp
LIBS:microchip
LIBS:analog_switches
LIBS:motorola
LIBS:texas
LIBS:intel
LIBS:audio
LIBS:interface
LIBS:digital-audio
LIBS:philips
LIBS:display
LIBS:cypress
LIBS:siliconi
LIBS:opto
LIBS:atmel
LIBS:contrib
LIBS:valves
LIBS:chip_pro
LIBS:stm32f100vxx
LIBS:ABM8G
LIBS:drv8835
LIBS:lt1117cst
LIBS:stm32f0
LIBS:Carlolib-dev
LIBS:opendous
LIBS:mem_mic
LIBS:usba-plug
LIBS:imx233stamp-cache
LIBS:srf2012
LIBS:rclamp0502b
LIBS:usbconn
LIBS:usb_a
LIBS:onion2_new
LIBS:onion2
LIBS:chip_media-cache
EELAYER 26 0
EELAYER END
$Descr A4 11693 8268
encoding utf-8
Sheet 1 3
Title ""
Date ""
Rev ""
Comp ""
Comment1 ""
Comment2 ""
Comment3 ""
Comment4 ""
$EndDescr
$Sheet
S 1900 2875 1825 2025
U 5844D827
F0 "stm32" 60
F1 "stm32.sch" 60
F2 "SAM_RX" O R 3725 4025 60 
F3 "SAM_TX" O R 3725 4125 60 
F4 "JNRST" B R 3725 3300 60 
F5 "JTMS" B R 3725 3400 60 
F6 "JTCK" B R 3725 3500 60 
F7 "JTDO" B R 3725 3700 60 
F8 "JTDI" B R 3725 3600 60 
F9 "JTRST" B R 3725 3800 60 
F10 "VM" I L 1900 3550 60 
F11 "BOOT0" B R 3725 3900 60 
F12 "SDA" I L 1900 4175 60 
F13 "SCL" I L 1900 4275 60 
$EndSheet
$Comp
L GND #PWR01
U 1 1 584632AC
P 4600 3100
F 0 "#PWR01" H 4600 3100 30  0001 C CNN
F 1 "GND" H 4600 3030 30  0001 C CNN
F 2 "" H 4600 3100 60  0001 C CNN
F 3 "" H 4600 3100 60  0001 C CNN
	1    4600 3100
	0    1    -1   0   
$EndComp
$Comp
L GND #PWR02
U 1 1 58463508
P 6800 3100
F 0 "#PWR02" H 6800 3100 30  0001 C CNN
F 1 "GND" H 6800 3030 30  0001 C CNN
F 2 "" H 6800 3100 60  0001 C CNN
F 3 "" H 6800 3100 60  0001 C CNN
	1    6800 3100
	0    -1   -1   0   
$EndComp
Text Label 3750 4125 0    60   ~ 0
SAM_TX
Text Label 3750 4025 0    60   ~ 0
SAM_RX
$Comp
L SW_PUSH PW1
U 1 1 5847760F
P 2550 6900
F 0 "PW1" H 2700 7010 50  0000 C CNN
F 1 "SW_PUSH" H 2550 6820 50  0000 C CNN
F 2 "Buttons_Switches_ThroughHole:SW_Tactile_SPST_Angled" H 2550 6900 60  0001 C CNN
F 3 "" H 2550 6900 60  0000 C CNN
	1    2550 6900
	1    0    0    -1  
$EndComp
$Comp
L GND #PWR03
U 1 1 5847775B
P 2125 7475
F 0 "#PWR03" H 2125 7475 30  0001 C CNN
F 1 "GND" H 2125 7405 30  0001 C CNN
F 2 "" H 2125 7475 60  0001 C CNN
F 3 "" H 2125 7475 60  0001 C CNN
	1    2125 7475
	1    0    0    -1  
$EndComp
Text Label 1750 6900 0    60   ~ 0
RESET
$Comp
L CONN_01X06 ECOM1
U 1 1 5848971C
P 1175 4325
F 0 "ECOM1" V 1300 4300 50  0000 C CNN
F 1 "CONN_01X06" H 1253 4275 50  0001 L CNN
F 2 "Socket_Strips:Socket_Strip_Straight_1x06" H 1175 4325 50  0001 C CNN
F 3 "" H 1175 4325 50  0000 C CNN
	1    1175 4325
	-1   0    0    1   
$EndComp
$Comp
L GND #PWR04
U 1 1 5848BA42
P 1725 4375
F 0 "#PWR04" H 1725 4375 30  0001 C CNN
F 1 "GND" H 1725 4305 30  0001 C CNN
F 2 "" H 1725 4375 60  0001 C CNN
F 3 "" H 1725 4375 60  0001 C CNN
	1    1725 4375
	1    0    0    -1  
$EndComp
$Comp
L +3.3VP #PWR05
U 1 1 5848C3B2
P 1450 3975
F 0 "#PWR05" H 1500 4005 20  0001 C CNN
F 1 "+3.3VP" H 1450 4065 30  0000 C CNN
F 2 "" H 1450 3975 60  0001 C CNN
F 3 "" H 1450 3975 60  0001 C CNN
	1    1450 3975
	1    0    0    -1  
$EndComp
Text Label 1375 4475 0    60   ~ 0
G8_TX
Text Label 1375 4575 0    60   ~ 0
G8_RX
Text Label 1475 4175 0    60   ~ 0
SDA
Text Label 1475 4275 0    60   ~ 0
SCL
Text Label 6800 4600 0    60   ~ 0
SDA
Text Label 6800 4500 0    60   ~ 0
SCL
$Comp
L +3.3VP #PWR06
U 1 1 58497735
P 7000 2750
F 0 "#PWR06" H 7050 2780 20  0001 C CNN
F 1 "+3.3VP" H 6950 2875 30  0000 C CNN
F 2 "" H 7000 2750 60  0001 C CNN
F 3 "" H 7000 2750 60  0001 C CNN
	1    7000 2750
	1    0    0    -1  
$EndComp
$Comp
L R RGR8
U 1 1 5849C971
P 4325 3200
F 0 "RGR8" V 4405 3200 50  0000 C CNN
F 1 "1k" V 4325 3200 50  0000 C CNN
F 2 "Resistors_SMD:R_0603" H 4325 3200 60  0001 C CNN
F 3 "" H 4325 3200 60  0001 C CNN
	1    4325 3200
	0    1    1    0   
$EndComp
$Comp
L LED DRGR8
U 1 1 5849C978
P 4675 3200
F 0 "DRGR8" H 4700 3100 50  0000 C CNN
F 1 "LED" H 4675 3050 50  0001 C CNN
F 2 "LEDs:LED_0603" H 4675 3200 60  0001 C CNN
F 3 "" H 4675 3200 60  0001 C CNN
	1    4675 3200
	1    0    0    -1  
$EndComp
$Comp
L GND #PWR07
U 1 1 5849C97F
P 4150 3200
F 0 "#PWR07" H 4150 3200 30  0001 C CNN
F 1 "GND" H 4150 3130 30  0001 C CNN
F 2 "" H 4150 3200 60  0001 C CNN
F 3 "" H 4150 3200 60  0001 C CNN
	1    4150 3200
	0    1    -1   0   
$EndComp
$Comp
L DC_POWER_JACK PWR1
U 1 1 587139AE
P 875 3300
F 0 "PWR1" H 832 3515 40  0000 C CNN
F 1 "DC_POWER_JACK" H 832 3503 25  0001 C CNN
F 2 "Connect:BARREL_JACK" H 875 3300 60  0001 C CNN
F 3 "" H 875 3300 60  0001 C CNN
	1    875  3300
	1    0    0    -1  
$EndComp
$Comp
L GND #PWR08
U 1 1 5871470F
P 1150 3400
F 0 "#PWR08" H 1150 3400 30  0001 C CNN
F 1 "GND" H 1150 3330 30  0001 C CNN
F 2 "" H 1150 3400 60  0001 C CNN
F 3 "" H 1150 3400 60  0001 C CNN
	1    1150 3400
	1    0    0    -1  
$EndComp
$Comp
L +5V #PWR09
U 1 1 58714E8F
P 1100 3200
F 0 "#PWR09" H 1100 3050 50  0001 C CNN
F 1 "+5V" H 1100 3350 50  0000 C CNN
F 2 "" H 1100 3200 50  0000 C CNN
F 3 "" H 1100 3200 50  0000 C CNN
	1    1100 3200
	-1   0    0    -1  
$EndComp
Text Label 6725 3600 0    60   ~ 0
G8_TX
Text Label 6725 3500 0    60   ~ 0
G8_RX
$Sheet
S 7350 3175 650  350 
U 58715936
F0 "USB" 60
F1 "USB.sch" 60
F2 "USB_DM0" I L 7350 3400 60 
F3 "USB_DP0" I L 7350 3300 60 
$EndSheet
Text Label 6725 3300 0    60   ~ 0
USB_D0+
Text Label 6725 3400 0    60   ~ 0
USB_D0-
$Comp
L CONN_01X05 VM_SEL1
U 1 1 58726582
P 1075 5525
F 0 "VM_SEL1" V 1200 5500 50  0000 C CNN
F 1 "CONN_01X05" H 1153 5475 50  0001 L CNN
F 2 "Socket_Strips:Socket_Strip_Straight_1x05" H 1075 5525 50  0001 C CNN
F 3 "" H 1075 5525 50  0000 C CNN
	1    1075 5525
	-1   0    0    1   
$EndComp
Text Label 1725 3550 0    60   ~ 0
VM
Text Label 1325 5525 0    60   ~ 0
VM
$Comp
L GND #PWR010
U 1 1 587277CF
P 1450 5725
F 0 "#PWR010" H 1450 5725 30  0001 C CNN
F 1 "GND" H 1450 5655 30  0001 C CNN
F 2 "" H 1450 5725 60  0001 C CNN
F 3 "" H 1450 5725 60  0001 C CNN
	1    1450 5725
	1    0    0    -1  
$EndComp
$Comp
L +5V #PWR011
U 1 1 58728697
P 1575 5425
F 0 "#PWR011" H 1575 5275 50  0001 C CNN
F 1 "+5V" H 1575 5575 50  0000 C CNN
F 2 "" H 1575 5425 50  0000 C CNN
F 3 "" H 1575 5425 50  0000 C CNN
	1    1575 5425
	-1   0    0    -1  
$EndComp
Text Label 1275 5325 0    60   ~ 0
VEXT
$Comp
L CONN_01X05 TANG1
U 1 1 58A125E5
P 4100 5275
F 0 "TANG1" V 4225 5250 50  0000 C CNN
F 1 "CONN_01X05" H 4178 5225 50  0001 L CNN
F 2 "Socket_Strips:Socket_Strip_Angled_1x05_Pitch2.54mm" H 4100 5275 50  0001 C CNN
F 3 "" H 4100 5275 50  0000 C CNN
	1    4100 5275
	-1   0    0    1   
$EndComp
$Comp
L +3.3VP #PWR012
U 1 1 58A13994
P 4450 5000
F 0 "#PWR012" H 4500 5030 20  0001 C CNN
F 1 "+3.3VP" H 4400 5125 30  0000 C CNN
F 2 "" H 4450 5000 60  0001 C CNN
F 3 "" H 4450 5000 60  0001 C CNN
	1    4450 5000
	1    0    0    -1  
$EndComp
$Comp
L GND #PWR013
U 1 1 58A13FE2
P 4450 5525
F 0 "#PWR013" H 4450 5525 30  0001 C CNN
F 1 "GND" H 4450 5455 30  0001 C CNN
F 2 "" H 4450 5525 60  0001 C CNN
F 3 "" H 4450 5525 60  0001 C CNN
	1    4450 5525
	1    0    0    -1  
$EndComp
Text Label 4325 5175 0    60   ~ 0
DATA_T
Text Label 4325 5275 0    60   ~ 0
CLK_T
Text Label 4325 5375 0    60   ~ 0
PL_T
Text Label 4500 4000 0    60   ~ 0
DATA_T
Text Label 4500 4100 0    60   ~ 0
CLK_T
$Comp
L SW_PUSH PR1
U 1 1 58D87990
P 4525 1975
F 0 "PR1" H 4675 2085 50  0000 C CNN
F 1 "SW_PUSH" H 4525 1895 50  0000 C CNN
F 2 "Buttons_Switches_ThroughHole:SW_Tactile_SPST_Angled" H 4525 1975 60  0001 C CNN
F 3 "" H 4525 1975 60  0000 C CNN
	1    4525 1975
	1    0    0    -1  
$EndComp
$Comp
L GND #PWR014
U 1 1 58D87996
P 5075 2050
F 0 "#PWR014" H 5075 2050 30  0001 C CNN
F 1 "GND" H 5075 1980 30  0001 C CNN
F 2 "" H 5075 2050 60  0001 C CNN
F 3 "" H 5075 2050 60  0001 C CNN
	1    5075 2050
	1    0    0    -1  
$EndComp
Text Label 3675 1975 0    60   ~ 0
RUN
$Comp
L R RR1
U 1 1 58D88F67
P 4150 1550
F 0 "RR1" V 4230 1550 50  0000 C CNN
F 1 "10k" V 4150 1550 50  0000 C CNN
F 2 "Resistors_SMD:R_0603" H 4150 1550 60  0001 C CNN
F 3 "" H 4150 1550 60  0001 C CNN
	1    4150 1550
	-1   0    0    1   
$EndComp
$Comp
L +3.3VP #PWR015
U 1 1 58D89861
P 4150 1350
F 0 "#PWR015" H 4200 1380 20  0001 C CNN
F 1 "+3.3VP" H 4100 1475 30  0000 C CNN
F 2 "" H 4150 1350 60  0001 C CNN
F 3 "" H 4150 1350 60  0001 C CNN
	1    4150 1350
	1    0    0    -1  
$EndComp
Text Label 6825 4300 0    60   ~ 0
RUN
$Comp
L ONION2 ON2_1
U 1 1 598E8081
P 6025 3700
F 0 "ON2_1" H 5800 4547 60  0000 C CNN
F 1 "ONION2" H 5800 4441 60  0000 C CNN
F 2 "modules:ONION2" H 7025 4525 60  0001 C CNN
F 3 "" H 7025 4525 60  0001 C CNN
	1    6025 3700
	1    0    0    -1  
$EndComp
Text Label 4500 3800 0    60   ~ 0
SAM_TX
Text Label 4500 3900 0    60   ~ 0
SAM_RX
Text Label 4500 4200 0    60   ~ 0
PL_T
Text Label 6725 3700 0    60   ~ 0
RESET
$Comp
L R RR2
U 1 1 598FA39B
P 3100 6375
F 0 "RR2" V 3180 6375 50  0000 C CNN
F 1 "1k" V 3100 6375 50  0000 C CNN
F 2 "Resistors_SMD:R_0603" H 3100 6375 60  0001 C CNN
F 3 "" H 3100 6375 60  0001 C CNN
	1    3100 6375
	-1   0    0    1   
$EndComp
$Comp
L +3.3VP #PWR016
U 1 1 598FA3A1
P 3100 6175
F 0 "#PWR016" H 3150 6205 20  0001 C CNN
F 1 "+3.3VP" H 3050 6300 30  0000 C CNN
F 2 "" H 3100 6175 60  0001 C CNN
F 3 "" H 3100 6175 60  0001 C CNN
	1    3100 6175
	1    0    0    -1  
$EndComp
Wire Wire Line
	4600 3100 4875 3100
Wire Wire Line
	6800 3100 6725 3100
Wire Wire Line
	1650 4475 1375 4475
Wire Wire Line
	1650 4575 1375 4575
Wire Wire Line
	3725 4025 4125 4025
Wire Wire Line
	4125 4125 3725 4125
Wire Wire Line
	2850 6900 3100 6900
Wire Wire Line
	2125 7325 2125 7475
Wire Wire Line
	1750 6900 2250 6900
Wire Wire Line
	1375 4175 1900 4175
Wire Wire Line
	1900 4275 1375 4275
Wire Wire Line
	1375 4375 1725 4375
Wire Wire Line
	1450 3975 1450 4075
Wire Wire Line
	1450 4075 1375 4075
Wire Wire Line
	3725 3400 4875 3400
Wire Wire Line
	3725 3500 4875 3500
Wire Wire Line
	3725 3600 4875 3600
Wire Wire Line
	3725 3700 4875 3700
Wire Wire Line
	6725 4600 7075 4600
Wire Wire Line
	6725 4500 7075 4500
Wire Wire Line
	7075 3600 6725 3600
Wire Wire Line
	7075 3500 6725 3500
Wire Wire Line
	4150 3200 4175 3200
Wire Wire Line
	4475 3200 4525 3200
Wire Wire Line
	1025 3300 1025 3400
Wire Wire Line
	1025 3400 1150 3400
Wire Wire Line
	1025 3200 1100 3200
Wire Wire Line
	6725 3300 7350 3300
Wire Wire Line
	6725 3400 7350 3400
Wire Wire Line
	1700 3550 1900 3550
Wire Wire Line
	1275 5525 1475 5525
Wire Wire Line
	1275 5625 1575 5625
Wire Wire Line
	1275 5725 1450 5725
Wire Wire Line
	1575 5625 1575 5425
Wire Wire Line
	1275 5425 1475 5425
Wire Wire Line
	1275 5325 1475 5325
Wire Wire Line
	1475 5325 1475 5425
Wire Wire Line
	4300 5075 4450 5075
Wire Wire Line
	4450 5075 4450 5000
Wire Wire Line
	4300 5475 4450 5475
Wire Wire Line
	4450 5475 4450 5525
Wire Wire Line
	4300 5175 4650 5175
Wire Wire Line
	4300 5275 4650 5275
Wire Wire Line
	4300 5375 4650 5375
Wire Wire Line
	4475 4000 4875 4000
Wire Wire Line
	4475 4100 4875 4100
Wire Wire Line
	4475 4200 4875 4200
Wire Wire Line
	4825 1975 5075 1975
Wire Wire Line
	5075 1975 5075 2050
Wire Wire Line
	3675 1975 4225 1975
Wire Wire Line
	7975 3600 7975 3525
Wire Wire Line
	4150 1350 4150 1400
Wire Wire Line
	4150 1700 4150 1975
Connection ~ 4150 1975
Wire Wire Line
	7025 4300 6725 4300
Wire Wire Line
	4475 3900 4875 3900
Wire Wire Line
	4875 3800 4475 3800
Wire Wire Line
	3725 3800 4300 3800
Wire Wire Line
	4300 3800 4300 4400
Wire Wire Line
	4300 4400 4875 4400
Wire Wire Line
	3725 3900 4225 3900
Wire Wire Line
	4225 3900 4225 4500
Wire Wire Line
	4225 4500 4875 4500
Wire Wire Line
	7000 3200 6725 3200
Wire Wire Line
	6725 4400 7125 4400
Wire Wire Line
	7000 2750 7000 3200
Wire Wire Line
	7075 3700 6725 3700
Wire Wire Line
	3100 6175 3100 6225
Wire Wire Line
	3100 6900 3100 6525
Connection ~ 2125 6900
Wire Wire Line
	3725 3300 4125 3300
Text Label 3750 3300 0    60   ~ 0
JNRST
Text Label 6825 4400 0    60   ~ 0
JNRST
Wire Wire Line
	4825 3200 4875 3200
$Comp
L R RR3
U 1 1 59E6163A
P 2125 7175
F 0 "RR3" V 2205 7175 50  0000 C CNN
F 1 "3k" V 2125 7175 50  0000 C CNN
F 2 "Resistors_SMD:R_0603" H 2125 7175 60  0001 C CNN
F 3 "" H 2125 7175 60  0001 C CNN
	1    2125 7175
	-1   0    0    1   
$EndComp
Wire Wire Line
	2125 7025 2125 6900
$EndSCHEMATC
