EESchema Schematic File Version 2
LIBS:chip_media-rescue
LIBS:power
LIBS:device
LIBS:transistors
LIBS:conn
LIBS:linear
LIBS:regul
LIBS:74xx
LIBS:cmos4000
LIBS:adc-dac
LIBS:memory
LIBS:xilinx
LIBS:microcontrollers
LIBS:dsp
LIBS:microchip
LIBS:analog_switches
LIBS:motorola
LIBS:texas
LIBS:intel
LIBS:audio
LIBS:interface
LIBS:digital-audio
LIBS:philips
LIBS:display
LIBS:cypress
LIBS:siliconi
LIBS:opto
LIBS:atmel
LIBS:contrib
LIBS:valves
LIBS:chip_pro
LIBS:stm32f100vxx
LIBS:ABM8G
LIBS:drv8835
LIBS:lt1117cst
LIBS:stm32f0
LIBS:Carlolib-dev
LIBS:opendous
LIBS:mem_mic
LIBS:usba-plug
LIBS:imx233stamp-cache
LIBS:srf2012
LIBS:rclamp0502b
LIBS:usbconn
LIBS:usb_a
LIBS:onion2_new
LIBS:onion2
LIBS:chip_media-cache
EELAYER 26 0
EELAYER END
$Descr User 12992 11811
encoding utf-8
Sheet 2 3
Title ""
Date "9 may 2013"
Rev ""
Comp ""
Comment1 ""
Comment2 ""
Comment3 ""
Comment4 ""
$EndDescr
Text HLabel 2525 5025 0    60   Output ~ 0
SAM_RX
Text HLabel 2525 4925 0    60   Output ~ 0
SAM_TX
$Comp
L C C410
U 1 1 516D62F9
P 5075 8775
F 0 "C410" H 5125 8875 50  0000 L CNN
F 1 "0.1uF" H 5125 8675 50  0000 L CNN
F 2 "Capacitors_SMD:C_0603" H 5075 8775 60  0001 C CNN
F 3 "" H 5075 8775 60  0001 C CNN
	1    5075 8775
	1    0    0    -1  
$EndComp
$Comp
L C C411
U 1 1 516D62F8
P 5425 8775
F 0 "C411" H 5475 8875 50  0000 L CNN
F 1 "1uF" H 5475 8675 50  0000 L CNN
F 2 "Capacitors_SMD:C_0603" H 5425 8775 60  0001 C CNN
F 3 "" H 5425 8775 60  0001 C CNN
	1    5425 8775
	1    0    0    -1  
$EndComp
$Comp
L GND #PWR017
U 1 1 516D62F6
P 5275 9075
F 0 "#PWR017" H 5275 9075 30  0001 C CNN
F 1 "GND" H 5275 9005 30  0001 C CNN
F 2 "" H 5275 9075 60  0001 C CNN
F 3 "" H 5275 9075 60  0001 C CNN
	1    5275 9075
	1    0    0    -1  
$EndComp
$Comp
L +3.3VP #PWR018
U 1 1 516D62A0
P 10525 1600
F 0 "#PWR018" H 10575 1630 20  0001 C CNN
F 1 "+3.3VP" H 10525 1690 30  0000 C CNN
F 2 "" H 10525 1600 60  0001 C CNN
F 3 "" H 10525 1600 60  0001 C CNN
	1    10525 1600
	1    0    0    -1  
$EndComp
$Comp
L +3.3VP #PWR019
U 1 1 516D629C
P 11125 1700
F 0 "#PWR019" H 11175 1730 20  0001 C CNN
F 1 "+3.3VP" H 11125 1790 30  0000 C CNN
F 2 "" H 11125 1700 60  0001 C CNN
F 3 "" H 11125 1700 60  0001 C CNN
	1    11125 1700
	1    0    0    -1  
$EndComp
$Comp
L +3.3VP #PWR020
U 1 1 516D625C
P 3175 8425
F 0 "#PWR020" H 3225 8455 20  0001 C CNN
F 1 "+3.3VP" H 3175 8515 30  0000 C CNN
F 2 "" H 3175 8425 60  0001 C CNN
F 3 "" H 3175 8425 60  0001 C CNN
	1    3175 8425
	1    0    0    -1  
$EndComp
$Comp
L C C401
U 1 1 516D60B5
P 2275 8775
F 0 "C401" H 2325 8875 50  0000 L CNN
F 1 "0.1uF" H 2325 8675 50  0000 L CNN
F 2 "Capacitors_SMD:C_0603" H 2275 8775 60  0001 C CNN
F 3 "" H 2275 8775 60  0001 C CNN
	1    2275 8775
	1    0    0    -1  
$EndComp
$Comp
L GND #PWR021
U 1 1 516D6095
P 3175 9075
F 0 "#PWR021" H 3175 9075 30  0001 C CNN
F 1 "GND" H 3175 9005 30  0001 C CNN
F 2 "" H 3175 9075 60  0001 C CNN
F 3 "" H 3175 9075 60  0001 C CNN
	1    3175 9075
	1    0    0    -1  
$EndComp
$Comp
L C C407
U 1 1 516D6094
P 3675 8775
F 0 "C407" H 3725 8875 50  0000 L CNN
F 1 "4.7uF" H 3725 8675 50  0000 L CNN
F 2 "Capacitors_SMD:C_0805" H 3675 8775 60  0001 C CNN
F 3 "" H 3675 8775 60  0001 C CNN
	1    3675 8775
	1    0    0    -1  
$EndComp
$Comp
L C C406
U 1 1 516D6093
P 3325 8775
F 0 "C406" H 3375 8875 50  0000 L CNN
F 1 "1uF" H 3375 8675 50  0000 L CNN
F 2 "Capacitors_SMD:C_0603" H 3325 8775 60  0001 C CNN
F 3 "" H 3325 8775 60  0001 C CNN
	1    3325 8775
	1    0    0    -1  
$EndComp
$Comp
L C C405
U 1 1 516D6092
P 2975 8775
F 0 "C405" H 3025 8875 50  0000 L CNN
F 1 "0.1uF" H 3025 8675 50  0000 L CNN
F 2 "Capacitors_SMD:C_0603" H 2975 8775 60  0001 C CNN
F 3 "" H 2975 8775 60  0001 C CNN
	1    2975 8775
	1    0    0    -1  
$EndComp
$Comp
L C C404
U 1 1 516D6091
P 2625 8775
F 0 "C404" H 2675 8875 50  0000 L CNN
F 1 "0.1uF" H 2675 8675 50  0000 L CNN
F 2 "Capacitors_SMD:C_0603" H 2625 8775 60  0001 C CNN
F 3 "" H 2625 8775 60  0001 C CNN
	1    2625 8775
	1    0    0    -1  
$EndComp
$Comp
L GND #PWR022
U 1 1 516D5EBB
P 875 3275
F 0 "#PWR022" H 875 3275 30  0001 C CNN
F 1 "GND" H 875 3205 30  0001 C CNN
F 2 "" H 875 3275 60  0001 C CNN
F 3 "" H 875 3275 60  0001 C CNN
	1    875  3275
	-1   0    0    1   
$EndComp
$Comp
L GND #PWR023
U 1 1 4E7B4E84
P 10525 2350
F 0 "#PWR023" H 10525 2350 30  0001 C CNN
F 1 "GND" H 10525 2280 30  0001 C CNN
F 2 "" H 10525 2350 60  0001 C CNN
F 3 "" H 10525 2350 60  0001 C CNN
	1    10525 2350
	1    0    0    -1  
$EndComp
$Comp
L C C76
U 1 1 4E7B4A85
P 10525 2050
F 0 "C76" H 10575 2150 50  0000 L CNN
F 1 "33uF" H 10575 1950 50  0000 L CNN
F 2 "Capacitors_SMD:C_1206" H 10525 2050 60  0001 C CNN
F 3 "" H 10525 2050 60  0001 C CNN
	1    10525 2050
	1    0    0    -1  
$EndComp
$Comp
L C C74
U 1 1 4E7B4A81
P 8875 2050
F 0 "C74" H 8925 2150 50  0000 L CNN
F 1 "33uF" H 8925 1950 50  0000 L CNN
F 2 "Capacitors_SMD:C_1206" H 8875 2050 60  0001 C CNN
F 3 "" H 8875 2050 60  0001 C CNN
	1    8875 2050
	1    0    0    -1  
$EndComp
$Comp
L GND #PWR024
U 1 1 4E7B44BE
P 9925 2350
F 0 "#PWR024" H 9925 2350 30  0001 C CNN
F 1 "GND" H 9925 2280 30  0001 C CNN
F 2 "" H 9925 2350 60  0001 C CNN
F 3 "" H 9925 2350 60  0001 C CNN
	1    9925 2350
	1    0    0    -1  
$EndComp
$Comp
L GND #PWR025
U 1 1 4E7B44A2
P 9075 1950
F 0 "#PWR025" H 9075 1950 30  0001 C CNN
F 1 "GND" H 9075 1880 30  0001 C CNN
F 2 "" H 9075 1950 60  0001 C CNN
F 3 "" H 9075 1950 60  0001 C CNN
	1    9075 1950
	1    0    0    -1  
$EndComp
$Comp
L LT1117CST U11
U 1 1 4E7B41E9
P 9525 1950
F 0 "U11" H 9375 2250 60  0000 C CNN
F 1 "LT1117CST-3.3" H 9525 1950 40  0000 C CNN
F 2 "TO_SOT_Packages_SMD:SOT-223" H 9525 1950 60  0001 C CNN
F 3 "" H 9525 1950 60  0001 C CNN
	1    9525 1950
	1    0    0    -1  
$EndComp
$Comp
L C C75
U 1 1 4E7B41E8
P 9925 2050
F 0 "C75" H 9975 2150 50  0000 L CNN
F 1 "100n" H 9975 1950 50  0000 L CNN
F 2 "Capacitors_SMD:C_0603" H 9925 2050 60  0001 C CNN
F 3 "" H 9925 2050 60  0001 C CNN
	1    9925 2050
	1    0    0    -1  
$EndComp
$Comp
L R R33
U 1 1 4E188E50
P 2050 3725
F 0 "R33" V 2130 3725 50  0000 C CNN
F 1 "1k" V 2050 3725 50  0000 C CNN
F 2 "Resistors_SMD:R_0603" H 2050 3725 60  0001 C CNN
F 3 "" H 2050 3725 60  0001 C CNN
	1    2050 3725
	0    1    1    0   
$EndComp
$Comp
L LED D9
U 1 1 4E188E4F
P 2400 3725
F 0 "D9" H 2250 3775 50  0000 C CNN
F 1 "LED" H 2550 3775 50  0000 C CNN
F 2 "LEDs:LED_0603" H 2400 3725 60  0001 C CNN
F 3 "" H 2400 3725 60  0001 C CNN
	1    2400 3725
	1    0    0    -1  
$EndComp
$Comp
L GND #PWR026
U 1 1 4E188E4E
P 1825 3725
F 0 "#PWR026" H 1825 3725 30  0001 C CNN
F 1 "GND" H 1825 3655 30  0001 C CNN
F 2 "" H 1825 3725 60  0001 C CNN
F 3 "" H 1825 3725 60  0001 C CNN
	1    1825 3725
	0    1    -1   0   
$EndComp
$Comp
L GND #PWR027
U 1 1 4E186DEB
P 11625 2200
F 0 "#PWR027" H 11625 2200 30  0001 C CNN
F 1 "GND" H 11625 2130 30  0001 C CNN
F 2 "" H 11625 2200 60  0001 C CNN
F 3 "" H 11625 2200 60  0001 C CNN
	1    11625 2200
	0    -1   1    0   
$EndComp
$Comp
L LED D8
U 1 1 4DCDB178
P 11225 1900
F 0 "D8" H 11225 2000 50  0000 C CNN
F 1 "LED" H 11225 1800 50  0000 C CNN
F 2 "LEDs:LED_0603" H 11225 1900 60  0001 C CNN
F 3 "" H 11225 1900 60  0001 C CNN
	1    11225 1900
	1    0    0    -1  
$EndComp
$Comp
L R R5
U 1 1 4DCDB177
P 11225 2200
F 0 "R5" V 11305 2200 50  0000 C CNN
F 1 "1k" V 11225 2200 50  0000 C CNN
F 2 "Resistors_SMD:R_0603" H 11225 2200 60  0001 C CNN
F 3 "" H 11225 2200 60  0001 C CNN
	1    11225 2200
	0    1    1    0   
$EndComp
$Comp
L C CHB1
U 1 1 5344E995
P 1625 8725
F 0 "CHB1" H 1675 8825 50  0000 L CNN
F 1 "0.1uF" H 1675 8625 50  0000 L CNN
F 2 "Capacitors_SMD:C_0603" H 1625 8725 60  0001 C CNN
F 3 "" H 1625 8725 60  0001 C CNN
	1    1625 8725
	1    0    0    -1  
$EndComp
$Comp
L GND #PWR028
U 1 1 5344E9A6
P 1625 9025
F 0 "#PWR028" H 1625 9025 30  0001 C CNN
F 1 "GND" H 1625 8955 30  0001 C CNN
F 2 "" H 1625 9025 60  0001 C CNN
F 3 "" H 1625 9025 60  0001 C CNN
	1    1625 9025
	1    0    0    -1  
$EndComp
$Comp
L +3.3VP #PWR029
U 1 1 5344E9B7
P 1625 8375
F 0 "#PWR029" H 1675 8405 20  0001 C CNN
F 1 "+3.3VP" H 1625 8465 30  0000 C CNN
F 2 "" H 1625 8375 60  0001 C CNN
F 3 "" H 1625 8375 60  0001 C CNN
	1    1625 8375
	1    0    0    -1  
$EndComp
$Comp
L C CHB2
U 1 1 53459780
P 1325 8725
F 0 "CHB2" H 1375 8825 50  0000 L CNN
F 1 "0.1uF" H 1375 8625 50  0000 L CNN
F 2 "Capacitors_SMD:C_0603" H 1325 8725 60  0001 C CNN
F 3 "" H 1325 8725 60  0001 C CNN
	1    1325 8725
	1    0    0    -1  
$EndComp
$Comp
L GND #PWR030
U 1 1 53459787
P 1325 9025
F 0 "#PWR030" H 1325 9025 30  0001 C CNN
F 1 "GND" H 1325 8955 30  0001 C CNN
F 2 "" H 1325 9025 60  0001 C CNN
F 3 "" H 1325 9025 60  0001 C CNN
	1    1325 9025
	1    0    0    -1  
$EndComp
Text Label 1325 8525 1    60   ~ 0
VM
$Comp
L C C403
U 1 1 541B3A98
P 1325 3025
F 0 "C403" H 1375 3125 50  0000 L CNN
F 1 "22pF" H 1375 2925 50  0000 L CIN
F 2 "Capacitors_SMD:C_0603" H 1325 3025 60  0001 C CNN
F 3 "" H 1325 3025 60  0001 C CNN
	1    1325 3025
	0    1    -1   0   
$EndComp
$Comp
L C C402
U 1 1 541B3BCF
P 1325 3625
F 0 "C402" V 1275 3725 50  0000 L CNN
F 1 "22pF" V 1275 3375 50  0000 L CNN
F 2 "Capacitors_SMD:C_0603" H 1325 3625 60  0001 C CNN
F 3 "" H 1325 3625 60  0001 C CNN
	1    1325 3625
	0    1    -1   0   
$EndComp
$Comp
L ABM8G X401
U 1 1 516D5EBA
P 1575 3325
F 0 "X401" H 1575 3475 60  0000 C CNN
F 1 "12MHz" H 1575 3175 60  0000 C CNN
F 2 "ABM8G" H 1575 3325 60  0001 C CNN
F 3 "" H 1575 3325 60  0001 C CNN
	1    1575 3325
	0    1    -1   0   
$EndComp
Text Label 1075 9675 0    60   ~ 0
SEN1
$Comp
L CONN_01X03 SEN1
U 1 1 541B8DE7
P 1575 9675
F 0 "SEN1" H 1575 9875 50  0000 C CNN
F 1 "CONN_01X03" V 1675 9675 50  0001 C CNN
F 2 "Socket_Strips:Socket_Strip_Straight_1x03" H 1575 9675 60  0001 C CNN
F 3 "" H 1575 9675 60  0000 C CNN
	1    1575 9675
	1    0    0    -1  
$EndComp
Text Notes 6125 9775 0    60   ~ 0
WM2012-ND\nWM4201-ND
Text Label 1725 9675 0    60   ~ 0
SEN2
$Comp
L CONN_01X03 SEN2
U 1 1 541B9B15
P 2225 9675
F 0 "SEN2" H 2225 9875 50  0000 C CNN
F 1 "CONN_01X03" V 2325 9675 50  0001 C CNN
F 2 "Socket_Strips:Socket_Strip_Straight_1x03" H 2225 9675 60  0001 C CNN
F 3 "" H 2225 9675 60  0000 C CNN
	1    2225 9675
	1    0    0    -1  
$EndComp
Text Label 2325 9675 0    60   ~ 0
SEN3
$Comp
L CONN_01X03 SEN3
U 1 1 541B9F04
P 2825 9675
F 0 "SEN3" H 2825 9875 50  0000 C CNN
F 1 "CONN_01X03" V 2925 9675 50  0001 C CNN
F 2 "Socket_Strips:Socket_Strip_Straight_1x03" H 2825 9675 60  0001 C CNN
F 3 "" H 2825 9675 60  0000 C CNN
	1    2825 9675
	1    0    0    -1  
$EndComp
Text Label 2975 9675 0    60   ~ 0
SEN4
$Comp
L CONN_01X03 SEN4
U 1 1 541B9F0C
P 3475 9675
F 0 "SEN4" H 3475 9875 50  0000 C CNN
F 1 "CONN_01X03" V 3575 9675 50  0001 C CNN
F 2 "Socket_Strips:Socket_Strip_Straight_1x03" H 3475 9675 60  0001 C CNN
F 3 "" H 3475 9675 60  0000 C CNN
	1    3475 9675
	1    0    0    -1  
$EndComp
Text Label 3575 9675 0    60   ~ 0
SEN5
$Comp
L CONN_01X03 SEN5
U 1 1 541BA1BE
P 4075 9675
F 0 "SEN5" H 4075 9875 50  0000 C CNN
F 1 "CONN_01X03" V 4175 9675 50  0001 C CNN
F 2 "Socket_Strips:Socket_Strip_Straight_1x03" H 4075 9675 60  0001 C CNN
F 3 "" H 4075 9675 60  0000 C CNN
	1    4075 9675
	1    0    0    -1  
$EndComp
Text Label 4225 9675 0    60   ~ 0
SEN6
$Comp
L CONN_01X03 SEN6
U 1 1 541BA1C6
P 4725 9675
F 0 "SEN6" H 4725 9875 50  0000 C CNN
F 1 "CONN_01X03" V 4825 9675 50  0001 C CNN
F 2 "Socket_Strips:Socket_Strip_Straight_1x03" H 4725 9675 60  0001 C CNN
F 3 "" H 4725 9675 60  0000 C CNN
	1    4725 9675
	1    0    0    -1  
$EndComp
Text Label 4825 9675 0    60   ~ 0
SEN7
$Comp
L CONN_01X03 SEN7
U 1 1 541BA1CE
P 5325 9675
F 0 "SEN7" H 5325 9875 50  0000 C CNN
F 1 "CONN_01X03" V 5425 9675 50  0001 C CNN
F 2 "Socket_Strips:Socket_Strip_Straight_1x03" H 5325 9675 60  0001 C CNN
F 3 "" H 5325 9675 60  0000 C CNN
	1    5325 9675
	1    0    0    -1  
$EndComp
Text Label 5475 9675 0    60   ~ 0
SEN8
$Comp
L CONN_01X03 SEN8
U 1 1 541BA1D6
P 5975 9675
F 0 "SEN8" H 5975 9875 50  0000 C CNN
F 1 "CONN_01X03" V 6075 9675 50  0001 C CNN
F 2 "Socket_Strips:Socket_Strip_Straight_1x03" H 5975 9675 60  0001 C CNN
F 3 "" H 5975 9675 60  0000 C CNN
	1    5975 9675
	1    0    0    -1  
$EndComp
$Comp
L GND #PWR031
U 1 1 541E5896
P 3775 10075
F 0 "#PWR031" H 3775 10075 30  0001 C CNN
F 1 "GND" H 3775 10005 30  0001 C CNN
F 2 "" H 3775 10075 60  0001 C CNN
F 3 "" H 3775 10075 60  0001 C CNN
	1    3775 10075
	1    0    0    -1  
$EndComp
$Comp
L C CS2
U 1 1 541FDB17
P 1975 8775
F 0 "CS2" H 2025 8875 50  0000 L CNN
F 1 "0.1uF" H 2025 8675 50  0000 L CNN
F 2 "Capacitors_SMD:C_0603" H 1975 8775 60  0001 C CNN
F 3 "" H 1975 8775 60  0001 C CNN
	1    1975 8775
	1    0    0    -1  
$EndComp
$Comp
L R RST2
U 1 1 55340B77
P 2425 7525
F 0 "RST2" V 2505 7525 50  0000 C CNN
F 1 "4.7k" V 2425 7525 50  0000 C CNN
F 2 "Resistors_SMD:R_0603" H 2425 7525 60  0001 C CNN
F 3 "" H 2425 7525 60  0001 C CNN
	1    2425 7525
	-1   0    0    1   
$EndComp
$Comp
L R RST5
U 1 1 55340B7E
P 2275 7525
F 0 "RST5" V 2355 7525 50  0000 C CNN
F 1 "4.7k" V 2275 7525 50  0000 C CNN
F 2 "Resistors_SMD:R_0603" H 2275 7525 60  0001 C CNN
F 3 "" H 2275 7525 60  0001 C CNN
	1    2275 7525
	-1   0    0    1   
$EndComp
Text Label 1775 7775 0    60   ~ 0
I2C1_SDA
Text Label 1775 7925 0    60   ~ 0
I2C1_SCL
$Comp
L GND #PWR032
U 1 1 55340BA0
P 5600 6100
F 0 "#PWR032" H 5600 6100 30  0001 C CNN
F 1 "GND" H 5600 6030 30  0001 C CNN
F 2 "" H 5600 6100 60  0001 C CNN
F 3 "" H 5600 6100 60  0001 C CNN
	1    5600 6100
	0    -1   -1   0   
$EndComp
Text HLabel 2375 2225 0    60   BiDi ~ 0
JNRST
Text HLabel 7225 3525 2    60   BiDi ~ 0
JTMS
Text HLabel 7225 3625 2    60   BiDi ~ 0
JTCK
Text HLabel 7225 4225 2    60   BiDi ~ 0
JTDO
Text HLabel 7225 3725 2    60   BiDi ~ 0
JTDI
$Comp
L GND #PWR033
U 1 1 55340BF8
P 4675 6200
F 0 "#PWR033" H 4675 6200 30  0001 C CNN
F 1 "GND" H 4675 6130 30  0001 C CNN
F 2 "" H 4675 6200 60  0001 C CNN
F 3 "" H 4675 6200 60  0001 C CNN
	1    4675 6200
	1    0    0    -1  
$EndComp
Text Label 5075 1425 3    60   ~ 0
VDDAST
Text Label 2375 2225 0    60   ~ 0
JNRST
Text Label 2375 2425 0    60   ~ 0
BOOT0
Text Label 7600 4625 2    60   ~ 0
I2C1_SDA
Text Label 7600 4525 2    60   ~ 0
I2C1_SCL
$Comp
L +3.3VP #PWR034
U 1 1 55348E6E
P 4775 1525
F 0 "#PWR034" H 4825 1555 20  0001 C CNN
F 1 "+3.3VP" H 4775 1615 30  0000 C CNN
F 2 "" H 4775 1525 60  0001 C CNN
F 3 "" H 4775 1525 60  0001 C CNN
	1    4775 1525
	1    0    0    -1  
$EndComp
Text Label 4725 8575 0    60   ~ 0
VDDAST
$Comp
L +3.3VP #PWR035
U 1 1 5534F04B
P 4125 8425
F 0 "#PWR035" H 4175 8455 20  0001 C CNN
F 1 "+3.3VP" H 4125 8515 30  0000 C CNN
F 2 "" H 4125 8425 60  0001 C CNN
F 3 "" H 4125 8425 60  0001 C CNN
	1    4125 8425
	1    0    0    -1  
$EndComp
$Comp
L +3.3VP #PWR036
U 1 1 55350905
P 2425 7175
F 0 "#PWR036" H 2475 7205 20  0001 C CNN
F 1 "+3.3VP" H 2425 7265 30  0000 C CNN
F 2 "" H 2425 7175 60  0001 C CNN
F 3 "" H 2425 7175 60  0001 C CNN
	1    2425 7175
	1    0    0    -1  
$EndComp
$Comp
L R RST3
U 1 1 55363A5E
P 6325 8725
F 0 "RST3" V 6405 8725 50  0000 C CNN
F 1 "10k" V 6325 8725 50  0000 C CNN
F 2 "Resistors_SMD:R_0603" H 6325 8725 60  0001 C CNN
F 3 "" H 6325 8725 60  0001 C CNN
	1    6325 8725
	-1   0    0    1   
$EndComp
Text Label 6325 8500 2    60   ~ 0
BOOT0
$Comp
L GND #PWR037
U 1 1 55363A74
P 6325 8925
F 0 "#PWR037" H 6325 8925 30  0001 C CNN
F 1 "GND" H 6325 8855 30  0001 C CNN
F 2 "" H 6325 8925 60  0001 C CNN
F 3 "" H 6325 8925 60  0001 C CNN
	1    6325 8925
	1    0    0    -1  
$EndComp
Text HLabel 7225 4325 2    60   BiDi ~ 0
JTRST
$Comp
L GND #PWR038
U 1 1 55370C19
P 8875 2350
F 0 "#PWR038" H 8875 2350 30  0001 C CNN
F 1 "GND" H 8875 2280 30  0001 C CNN
F 2 "" H 8875 2350 60  0001 C CNN
F 3 "" H 8875 2350 60  0001 C CNN
	1    8875 2350
	1    0    0    -1  
$EndComp
$Comp
L DRV8835 UHB1
U 1 1 5845C41D
P 10325 3425
F 0 "UHB1" H 10125 4075 60  0000 C CNN
F 1 "DRV8835" H 10275 3975 60  0000 C CNN
F 2 "drv8835:drv8835" H 10325 3425 60  0001 C CNN
F 3 "" H 10325 3425 60  0000 C CNN
	1    10325 3425
	-1   0    0    -1  
$EndComp
$Comp
L +3.3VP #PWR039
U 1 1 5845C424
P 9525 2975
F 0 "#PWR039" H 9575 3005 20  0001 C CNN
F 1 "+3.3VP" H 9525 3065 30  0000 C CNN
F 2 "" H 9525 2975 60  0001 C CNN
F 3 "" H 9525 2975 60  0001 C CNN
	1    9525 2975
	1    0    0    -1  
$EndComp
Text Label 11575 3125 0    60   ~ 0
M0B
Text Label 11575 3225 0    60   ~ 0
M0A
Text Label 11575 3425 0    60   ~ 0
M1A
Text Label 11575 3325 0    60   ~ 0
M1B
Text Label 11175 3025 0    60   ~ 0
VM
Text Label 9425 3225 0    60   ~ 0
DIR_M0
Text Label 9425 3425 0    60   ~ 0
DIR_M1
Text Label 9425 3325 0    60   ~ 0
SP_M0
Text Label 9425 3525 0    60   ~ 0
SP_M1
Text Label 10075 8225 0    60   ~ 0
VM
Text HLabel 11425 3025 2    60   Input ~ 0
VM
$Comp
L ULN2003 ULN1
U 1 1 5845C4F4
P 10125 4675
F 0 "ULN1" H 10125 4775 70  0000 C CNN
F 1 "ULN2003" H 10125 5275 70  0000 C CNN
F 2 "Housings_SSOP:TSSOP-16_4.4x5mm_Pitch0.65mm" H 10125 4675 60  0001 C CNN
F 3 "" H 10125 4675 60  0000 C CNN
	1    10125 4675
	1    0    0    -1  
$EndComp
$Comp
L CONN_01X04 MOT1
U 1 1 5845C4FB
P 12075 3275
F 0 "MOT1" H 12075 3525 50  0000 C CNN
F 1 "CONN_01X04" V 12175 3275 50  0001 C CNN
F 2 "library:282834-4" H 12075 3275 60  0001 C CNN
F 3 "" H 12075 3275 60  0000 C CNN
	1    12075 3275
	1    0    0    -1  
$EndComp
$Comp
L CONN_01X05 STEP1
U 1 1 5845C502
P 12025 4675
F 0 "STEP1" H 12025 4975 50  0000 C CNN
F 1 "CONN_01X05" V 12125 4675 50  0001 C CNN
F 2 "modules:B5B-XH-A" H 12025 4675 60  0001 C CNN
F 3 "" H 12025 4675 60  0000 C CNN
	1    12025 4675
	1    0    0    -1  
$EndComp
Text Label 8525 4475 0    60   ~ 0
CM1A
Text Label 8525 4575 0    60   ~ 0
CM1B
Text Label 11725 4875 0    60   ~ 0
VM
$Comp
L ULN2003 ULN2
U 1 1 5845C50C
P 10125 6525
F 0 "ULN2" H 10125 6625 70  0000 C CNN
F 1 "ULN2003" H 10125 7125 70  0000 C CNN
F 2 "Housings_SSOP:TSSOP-16_4.4x5mm_Pitch0.65mm" H 10125 6525 60  0001 C CNN
F 3 "" H 10125 6525 60  0000 C CNN
	1    10125 6525
	1    0    0    -1  
$EndComp
$Comp
L CONN_01X05 STEP2
U 1 1 5845C513
P 12025 6525
F 0 "STEP2" H 12025 6825 50  0000 C CNN
F 1 "CONN_01X05" V 12125 6525 50  0001 C CNN
F 2 "modules:B5B-XH-A" H 12025 6525 60  0001 C CNN
F 3 "" H 12025 6525 60  0000 C CNN
	1    12025 6525
	1    0    0    -1  
$EndComp
Text Label 8525 6325 0    60   ~ 0
CM2A
Text Label 8525 6425 0    60   ~ 0
CM2B
Text Label 11725 6725 0    60   ~ 0
VM
Text Notes 11675 2725 0    60   ~ 0
DC MOTOR
Text Notes 11525 3925 0    60   ~ 0
STEP MOTORS
Text Notes 9125 7450 0    60   ~ 0
SERVO MOTORS
Text Notes 9925 5600 0    60   ~ 0
1N4733AW-TPMSTR-ND	   zener\n
Text Label 8525 6225 0    60   ~ 0
CM2C
Text Label 8525 6525 0    60   ~ 0
CM2D
Text Label 8525 4375 0    60   ~ 0
CM1C
Text Label 8525 4675 0    60   ~ 0
CM1D
$Comp
L CONN_01X04 US1
U 1 1 5845C53F
P 12025 7950
F 0 "US1" H 12025 8200 50  0000 C CNN
F 1 "CONN_01X04" V 12125 7950 50  0000 C CNN
F 2 "modules:B5B-XH-A" H 12025 7950 60  0001 C CNN
F 3 "" H 12025 7950 60  0000 C CNN
	1    12025 7950
	1    0    0    -1  
$EndComp
Text Label 11675 7800 0    60   ~ 0
VM
Text Label 10775 6125 0    60   ~ 0
TRIGG
Text Label 11575 7900 0    60   ~ 0
TRIGG
Text Label 10825 8000 0    60   ~ 0
ECHO
Text Notes 10775 5975 0    60   ~ 0
PB12
Text Label 8525 6125 0    60   ~ 0
TRIGG_3V3
$Comp
L D_Zener_Small D1
U 1 1 58460109
P 11000 5075
F 0 "D1" H 11000 5280 50  0000 C CNN
F 1 "D_Zener_Small" H 11000 5189 50  0001 C CNN
F 2 "Diodes_SMD:SOD-123" H 11000 5189 50  0001 C CNN
F 3 "" V 11000 5075 50  0000 C CNN
	1    11000 5075
	1    0    0    -1  
$EndComp
$Comp
L D_Zener_Small D2
U 1 1 58462E27
P 11050 6925
F 0 "D2" H 11050 7130 50  0000 C CNN
F 1 "D_Zener_Small" H 11050 7039 50  0001 C CNN
F 2 "Diodes_SMD:SOD-123" H 11050 7039 50  0001 C CNN
F 3 "" V 11050 6925 50  0000 C CNN
	1    11050 6925
	1    0    0    -1  
$EndComp
$Comp
L GND #PWR040
U 1 1 58464736
P 11125 3625
F 0 "#PWR040" H 11125 3625 30  0001 C CNN
F 1 "GND" H 11125 3555 30  0001 C CNN
F 2 "" H 11125 3625 60  0001 C CNN
F 3 "" H 11125 3625 60  0001 C CNN
	1    11125 3625
	1    0    0    -1  
$EndComp
$Comp
L R R1
U 1 1 58464E92
P 11250 6125
F 0 "R1" V 11043 6125 50  0000 C CNN
F 1 "1k" V 11134 6125 50  0000 C CNN
F 2 "Resistors_SMD:R_0603" V 11135 6125 50  0001 C CNN
F 3 "" H 11250 6125 50  0000 C CNN
	1    11250 6125
	0    1    1    0   
$EndComp
$Comp
L GND #PWR041
U 1 1 58466BB2
P 11675 8200
F 0 "#PWR041" H 11675 8200 30  0001 C CNN
F 1 "GND" H 11675 8130 30  0001 C CNN
F 2 "" H 11675 8200 60  0001 C CNN
F 3 "" H 11675 8200 60  0001 C CNN
	1    11675 8200
	1    0    0    -1  
$EndComp
$Comp
L R R2
U 1 1 584675FE
P 11400 8000
F 0 "R2" V 11193 8000 50  0000 C CNN
F 1 "1k" V 11284 8000 50  0000 C CNN
F 2 "Resistors_SMD:R_0603" V 11285 8000 50  0001 C CNN
F 3 "" H 11400 8000 50  0000 C CNN
	1    11400 8000
	0    1    1    0   
$EndComp
$Comp
L L L2
U 1 1 5846A387
P 5375 6100
F 0 "L2" V 5565 6100 50  0000 C CNN
F 1 "LST1" V 5474 6100 50  0000 C CNN
F 2 "Resistors_SMD:R_0805" V 5473 6100 50  0001 C CNN
F 3 "" H 5375 6100 50  0000 C CNN
	1    5375 6100
	0    -1   -1   0   
$EndComp
$Comp
L L L1
U 1 1 5846AC8F
P 4500 8575
F 0 "L1" V 4690 8575 50  0000 C CNN
F 1 "LST2" V 4599 8575 50  0000 C CNN
F 2 "Resistors_SMD:R_0805" V 4598 8575 50  0001 C CNN
F 3 "" H 4500 8575 50  0000 C CNN
	1    4500 8575
	0    -1   -1   0   
$EndComp
Text Notes 11350 7500 0    60   ~ 0
ULTRASONIC\n
$Comp
L +5V #PWR042
U 1 1 5846FFCE
P 8875 1700
F 0 "#PWR042" H 8875 1550 50  0001 C CNN
F 1 "+5V" H 8890 1873 50  0000 C CNN
F 2 "" H 8875 1700 50  0000 C CNN
F 3 "" H 8875 1700 50  0000 C CNN
	1    8875 1700
	1    0    0    -1  
$EndComp
$Comp
L +5V #PWR043
U 1 1 5847607F
P 1275 9375
F 0 "#PWR043" H 1275 9225 50  0001 C CNN
F 1 "+5V" H 1290 9548 50  0000 C CNN
F 2 "" H 1275 9375 50  0000 C CNN
F 3 "" H 1275 9375 50  0000 C CNN
	1    1275 9375
	1    0    0    -1  
$EndComp
Text HLabel 6050 8500 0    60   BiDi ~ 0
BOOT0
$Comp
L STM32F100RBTx U401
U 1 1 584946CF
P 4875 3825
F 0 "U401" H 3600 5425 50  0000 C CNN
F 1 "STM32F100RBT6B" H 3625 5300 50  0000 C CNN
F 2 "Housings_QFP:LQFP-64_10x10mm_Pitch0.5mm" H 4875 5911 50  0001 C CNN
F 3 "" H 4875 3825 50  0000 C CNN
	1    4875 3825
	1    0    0    -1  
$EndComp
Wire Wire Line
	5525 6100 5600 6100
Wire Wire Line
	11400 6125 11525 6125
Wire Wire Line
	9475 6125 8525 6125
Wire Wire Line
	11550 8000 11825 8000
Wire Wire Line
	10725 8000 11250 8000
Wire Wire Line
	11575 7900 11825 7900
Connection ~ 11525 6725
Wire Wire Line
	10775 6125 11100 6125
Wire Wire Line
	11675 8100 11675 8200
Wire Wire Line
	11675 8100 11825 8100
Wire Wire Line
	11675 7800 11825 7800
Wire Wire Line
	11525 6125 11525 6925
Wire Wire Line
	11525 6925 11150 6925
Wire Wire Line
	10775 6925 10950 6925
Wire Wire Line
	11425 4875 11825 4875
Wire Wire Line
	11425 5075 11425 4875
Wire Wire Line
	11100 5075 11425 5075
Wire Wire Line
	10775 5075 10900 5075
Wire Wire Line
	8525 4675 9475 4675
Wire Wire Line
	8525 4375 9475 4375
Wire Wire Line
	8525 4475 9475 4475
Wire Wire Line
	9475 6525 8525 6525
Wire Wire Line
	8525 6225 9475 6225
Wire Notes Line
	8475 3775 12225 3775
Wire Notes Line
	8475 7325 12225 7325
Wire Notes Line
	8475 8525 8475 2625
Wire Notes Line
	12225 8525 8475 8525
Wire Notes Line
	12225 2625 12225 8525
Wire Notes Line
	8475 2625 12225 2625
Wire Wire Line
	11225 6625 11825 6625
Wire Wire Line
	11225 6525 11225 6625
Wire Wire Line
	10775 6525 11225 6525
Wire Wire Line
	11325 6525 11825 6525
Wire Wire Line
	11325 6225 11325 6525
Wire Wire Line
	10775 6225 11325 6225
Wire Wire Line
	10775 6425 11825 6425
Wire Wire Line
	10775 6325 11825 6325
Wire Wire Line
	11525 6725 11825 6725
Wire Wire Line
	8525 6425 9475 6425
Wire Wire Line
	8525 6325 9475 6325
Wire Wire Line
	10775 4775 10875 4775
Wire Wire Line
	11225 4775 11825 4775
Wire Wire Line
	11225 4675 11225 4775
Wire Wire Line
	10775 4675 11225 4675
Wire Wire Line
	11325 4675 11825 4675
Wire Wire Line
	11325 4375 11325 4675
Wire Wire Line
	10775 4375 11325 4375
Wire Wire Line
	10775 4575 11825 4575
Wire Wire Line
	10775 4475 11825 4475
Wire Wire Line
	8525 4575 9475 4575
Wire Wire Line
	9375 3225 9775 3225
Wire Wire Line
	9375 3325 9775 3325
Wire Wire Line
	9375 3425 9775 3425
Wire Wire Line
	9375 3525 9775 3525
Wire Wire Line
	11425 3025 11075 3025
Wire Wire Line
	11075 3325 11875 3325
Wire Wire Line
	11075 3125 11875 3125
Wire Wire Line
	11075 3425 11875 3425
Wire Wire Line
	11075 3225 11875 3225
Connection ~ 11125 3575
Wire Wire Line
	11075 3575 11125 3575
Wire Wire Line
	11075 3525 11125 3525
Wire Wire Line
	11125 3525 11125 3625
Connection ~ 9525 3025
Wire Wire Line
	9525 3125 9775 3125
Wire Wire Line
	9525 2975 9525 3125
Wire Wire Line
	9775 3025 9525 3025
Wire Wire Line
	5425 8975 5425 8925
Wire Wire Line
	5425 8575 5425 8625
Wire Wire Line
	5075 8925 5075 8975
Wire Wire Line
	5075 8625 5075 8575
Wire Wire Line
	1975 8925 1975 8975
Wire Wire Line
	2275 8925 2275 8975
Wire Wire Line
	2625 8975 2625 8925
Wire Wire Line
	2975 8975 2975 8925
Wire Wire Line
	3325 8975 3325 8925
Wire Wire Line
	3675 8975 3675 8925
Wire Wire Line
	3675 8575 3675 8625
Wire Wire Line
	3325 8575 3325 8625
Wire Wire Line
	2975 8575 2975 8625
Wire Wire Line
	2625 8575 2625 8625
Wire Wire Line
	2275 8625 2275 8575
Wire Wire Line
	1975 8625 1975 8575
Wire Wire Line
	2275 7675 2275 7775
Wire Wire Line
	2275 7375 2275 7275
Connection ~ 2425 7275
Wire Wire Line
	6325 8875 6325 8925
Wire Wire Line
	6325 8500 6050 8500
Wire Wire Line
	6325 8500 6325 8575
Wire Wire Line
	4125 8575 4125 8425
Wire Wire Line
	4650 8575 5425 8575
Wire Wire Line
	4675 5825 4675 6200
Wire Wire Line
	2425 7175 2425 7375
Wire Wire Line
	4775 1525 4775 1825
Wire Wire Line
	7600 4625 7075 4625
Wire Wire Line
	7075 4525 7600 4525
Wire Wire Line
	5075 6100 5225 6100
Wire Wire Line
	5075 1425 5075 1825
Wire Wire Line
	2375 2225 2675 2225
Wire Wire Line
	2375 2425 2675 2425
Wire Wire Line
	2275 7775 1725 7775
Wire Wire Line
	2425 7925 1725 7925
Wire Wire Line
	2425 7675 2425 7925
Wire Wire Line
	2275 7275 2425 7275
Wire Wire Line
	4775 5825 4775 6100
Wire Wire Line
	4675 6100 4975 6100
Connection ~ 4675 6100
Connection ~ 2275 8975
Connection ~ 2275 8575
Connection ~ 5025 9975
Wire Wire Line
	5725 9775 5775 9775
Wire Wire Line
	5725 9975 5725 9775
Connection ~ 4425 9975
Wire Wire Line
	5025 9775 5125 9775
Wire Wire Line
	5025 9975 5025 9775
Connection ~ 3775 9975
Wire Wire Line
	4425 9775 4525 9775
Wire Wire Line
	4425 9975 4425 9775
Connection ~ 3175 9975
Wire Wire Line
	3775 9775 3875 9775
Wire Wire Line
	3775 9775 3775 10075
Connection ~ 2525 9975
Wire Wire Line
	3175 9775 3275 9775
Wire Wire Line
	3175 9975 3175 9775
Connection ~ 1925 9975
Wire Wire Line
	2525 9775 2625 9775
Wire Wire Line
	2525 9975 2525 9775
Wire Wire Line
	1925 9775 2025 9775
Wire Wire Line
	1925 9975 1925 9775
Wire Wire Line
	1275 9975 5725 9975
Wire Wire Line
	1275 9775 1275 9975
Wire Wire Line
	1375 9775 1275 9775
Connection ~ 1275 9375
Connection ~ 1925 9375
Wire Wire Line
	1275 9575 1375 9575
Wire Wire Line
	1275 9375 1275 9575
Connection ~ 2525 9375
Wire Wire Line
	1925 9575 2025 9575
Wire Wire Line
	1925 9375 1925 9575
Connection ~ 3175 9375
Wire Wire Line
	2525 9575 2625 9575
Wire Wire Line
	2525 9375 2525 9575
Connection ~ 3775 9375
Wire Wire Line
	3175 9575 3275 9575
Wire Wire Line
	3175 9375 3175 9575
Connection ~ 4425 9375
Wire Wire Line
	3775 9575 3875 9575
Wire Wire Line
	3775 9375 3775 9575
Connection ~ 5025 9375
Wire Wire Line
	4425 9575 4525 9575
Wire Wire Line
	4425 9375 4425 9575
Wire Wire Line
	5025 9575 5125 9575
Wire Wire Line
	5025 9375 5025 9575
Wire Wire Line
	1275 9375 5725 9375
Wire Wire Line
	5725 9375 5725 9575
Wire Wire Line
	5725 9575 5775 9575
Wire Wire Line
	5775 9675 5475 9675
Wire Wire Line
	5125 9675 4825 9675
Wire Wire Line
	4525 9675 4225 9675
Wire Wire Line
	3875 9675 3575 9675
Wire Wire Line
	3275 9675 2975 9675
Wire Wire Line
	2625 9675 2325 9675
Wire Wire Line
	2025 9675 1725 9675
Wire Wire Line
	1375 9675 1075 9675
Wire Wire Line
	1075 3625 1175 3625
Wire Wire Line
	1475 3625 2675 3625
Wire Wire Line
	1475 3025 1825 3025
Wire Wire Line
	1075 3025 1175 3025
Wire Wire Line
	1325 8375 1325 8575
Wire Wire Line
	1325 8875 1325 9025
Wire Wire Line
	1625 8375 1625 8575
Wire Wire Line
	1625 8875 1625 9025
Connection ~ 2625 8575
Wire Wire Line
	1975 8575 3675 8575
Wire Wire Line
	9175 1750 8875 1750
Connection ~ 10525 1750
Wire Wire Line
	9825 1750 10525 1750
Wire Wire Line
	9925 2200 9925 2350
Connection ~ 9925 1750
Connection ~ 9925 1850
Wire Wire Line
	10525 1600 10525 1900
Wire Wire Line
	9925 1850 9825 1850
Wire Wire Line
	11575 1700 11125 1700
Wire Wire Line
	10875 1900 11075 1900
Wire Wire Line
	10875 2200 10875 1900
Wire Wire Line
	10875 2200 11075 2200
Wire Wire Line
	11375 2200 11625 2200
Wire Wire Line
	11575 1900 11575 1700
Wire Wire Line
	11375 1900 11575 1900
Wire Wire Line
	2550 3725 2675 3725
Wire Wire Line
	9075 1850 9075 1950
Wire Wire Line
	9175 1850 9075 1850
Wire Wire Line
	9925 1750 9925 1900
Wire Wire Line
	10525 2200 10525 2350
Wire Wire Line
	8875 2200 8875 2350
Wire Wire Line
	8875 1700 8875 1900
Connection ~ 8875 1750
Wire Wire Line
	875  3325 875  3275
Wire Wire Line
	875  3325 1125 3325
Wire Wire Line
	1125 3375 1175 3375
Wire Wire Line
	1125 3275 1125 3375
Wire Wire Line
	1125 3275 1175 3275
Connection ~ 1575 3625
Connection ~ 1575 3025
Wire Wire Line
	1075 3025 1075 3625
Connection ~ 1125 3325
Connection ~ 1075 3325
Wire Wire Line
	1825 3525 2675 3525
Wire Wire Line
	1825 3025 1825 3525
Connection ~ 1825 3025
Connection ~ 3175 8575
Wire Wire Line
	3175 8575 3175 8425
Connection ~ 2975 8575
Connection ~ 2975 8975
Connection ~ 3325 8975
Connection ~ 3325 8575
Wire Wire Line
	3175 8975 3175 9075
Connection ~ 3175 8975
Wire Wire Line
	1975 8975 3675 8975
Connection ~ 2625 8975
Wire Wire Line
	5075 8975 5425 8975
Connection ~ 5275 8975
Wire Wire Line
	5275 8975 5275 9075
Connection ~ 5425 8575
Connection ~ 5425 8975
Connection ~ 5075 8975
Connection ~ 5075 8575
Wire Wire Line
	4350 8575 4125 8575
Wire Wire Line
	7075 4225 7225 4225
Wire Wire Line
	7075 4325 7225 4325
Wire Wire Line
	7075 3525 7225 3525
Wire Wire Line
	7075 3625 7225 3625
Wire Wire Line
	7075 3725 7225 3725
Wire Wire Line
	4975 6100 4975 5825
Wire Wire Line
	5075 6100 5075 5825
Wire Wire Line
	2675 5025 2525 5025
Wire Wire Line
	2675 4925 2525 4925
Wire Wire Line
	4675 1825 4675 1675
Wire Wire Line
	4675 1675 4975 1675
Connection ~ 4775 1675
Wire Wire Line
	4875 1675 4875 1825
Wire Wire Line
	4975 1675 4975 1825
Connection ~ 4875 1675
Wire Wire Line
	1825 3725 1900 3725
Wire Wire Line
	2200 3725 2250 3725
Wire Wire Line
	4875 6100 4875 5825
Connection ~ 4775 6100
Connection ~ 4875 6100
$Comp
L R RST4
U 1 1 584AACB4
P 6825 8725
F 0 "RST4" V 6905 8725 50  0000 C CNN
F 1 "10k" V 6825 8725 50  0000 C CNN
F 2 "Resistors_SMD:R_0603" H 6825 8725 60  0001 C CNN
F 3 "" H 6825 8725 60  0001 C CNN
	1    6825 8725
	-1   0    0    1   
$EndComp
Text Label 6825 8500 2    60   ~ 0
BOOT1
Wire Wire Line
	6825 8875 6825 8925
Wire Wire Line
	6825 8500 6525 8500
Wire Wire Line
	6825 8350 6825 8575
$Comp
L +3.3VP #PWR044
U 1 1 584AB784
P 6825 8925
F 0 "#PWR044" H 6875 8955 20  0001 C CNN
F 1 "+3.3VP" H 6825 9015 30  0000 C CNN
F 2 "" H 6825 8925 60  0001 C CNN
F 3 "" H 6825 8925 60  0001 C CNN
	1    6825 8925
	-1   0    0    1   
$EndComp
Text Label 7575 4125 2    60   ~ 0
BOOT1
Wire Wire Line
	7075 4125 7575 4125
$Comp
L R RST6
U 1 1 58452831
P 6825 8200
F 0 "RST6" V 6905 8200 50  0000 C CNN
F 1 "10k" V 6825 8200 50  0000 C CNN
F 2 "Resistors_SMD:R_0603" H 6825 8200 60  0001 C CNN
F 3 "" H 6825 8200 60  0001 C CNN
	1    6825 8200
	-1   0    0    1   
$EndComp
$Comp
L GND #PWR045
U 1 1 5845327D
P 6825 7975
F 0 "#PWR045" H 6825 7975 30  0001 C CNN
F 1 "GND" H 6825 7905 30  0001 C CNN
F 2 "" H 6825 7975 60  0001 C CNN
F 3 "" H 6825 7975 60  0001 C CNN
	1    6825 7975
	-1   0    0    1   
$EndComp
Connection ~ 6825 8500
Wire Wire Line
	6825 8050 6825 7975
Text Label 7375 2225 2    60   ~ 0
SEN1
Wire Wire Line
	7075 2225 7375 2225
Text Label 7375 2325 2    60   ~ 0
SEN2
Wire Wire Line
	7075 2325 7375 2325
Text Label 7375 2425 2    60   ~ 0
SEN3
Wire Wire Line
	7075 2425 7375 2425
Text Label 7375 2525 2    60   ~ 0
SEN4
Wire Wire Line
	7075 2525 7375 2525
Text Label 7375 2625 2    60   ~ 0
SEN5
Wire Wire Line
	7075 2625 7375 2625
Text Label 7375 2725 2    60   ~ 0
SEN6
Wire Wire Line
	7075 2725 7375 2725
Text Label 7375 2825 2    60   ~ 0
SEN7
Wire Wire Line
	7075 2825 7375 2825
Text Label 7375 2925 2    60   ~ 0
SEN8
Wire Wire Line
	7075 2925 7375 2925
Text Label 7125 4925 0    60   ~ 0
DIR_M0
Text Label 7125 5325 0    60   ~ 0
DIR_M1
Text Label 7125 5025 0    60   ~ 0
SP_M0
Text Label 7125 5425 0    60   ~ 0
SP_M1
Wire Wire Line
	7075 4925 7475 4925
Wire Wire Line
	7075 5025 7475 5025
Wire Wire Line
	7075 5325 7475 5325
Wire Wire Line
	7075 5425 7475 5425
Text Notes 8525 3550 0    60   ~ 0
PB8 / TIM16_CH1\nPB9 / TIM17_CH1\nPB10/TIM2_CH3\nPB11/TIM2_CH4
Text HLabel 1725 7775 0    60   Input ~ 0
SDA
Text HLabel 1725 7925 0    60   Input ~ 0
SCL
Text Label 2275 4025 0    60   ~ 0
CM1A
Text Label 2275 4125 0    60   ~ 0
CM1B
Text Label 2200 4425 0    60   ~ 0
CM2A
Text Label 2200 4525 0    60   ~ 0
CM2B
Text Label 2200 4325 0    60   ~ 0
CM2C
Text Label 2200 4625 0    60   ~ 0
CM2D
Text Label 2275 3925 0    60   ~ 0
CM1C
Text Label 2275 4225 0    60   ~ 0
CM1D
Text Label 2200 4725 0    60   ~ 0
TRIGG_3V3
Wire Wire Line
	2675 4725 2200 4725
Wire Wire Line
	2275 4225 2675 4225
Wire Wire Line
	2275 3925 2675 3925
Wire Wire Line
	2275 4025 2675 4025
Wire Wire Line
	2675 4625 2200 4625
Wire Wire Line
	2200 4325 2675 4325
Wire Wire Line
	2200 4525 2675 4525
Wire Wire Line
	2200 4425 2675 4425
Wire Wire Line
	2275 4125 2675 4125
Text Label 7150 3125 0    60   ~ 0
SRV2
Text Label 7150 3225 0    60   ~ 0
SRV3
Text Label 7150 3325 0    60   ~ 0
SRV4
Text Label 7150 3025 0    60   ~ 0
SRV1
Wire Wire Line
	7375 3025 7075 3025
Wire Wire Line
	7375 3325 7075 3325
Wire Wire Line
	7375 3225 7075 3225
Wire Wire Line
	7375 3125 7075 3125
$Comp
L CONN_01X04 SRV_SIG1
U 1 1 58481F90
P 9200 7975
F 0 "SRV_SIG1" H 9050 8250 50  0000 L CNN
F 1 "CONN_01X04" H 9278 7925 50  0001 L CNN
F 2 "Socket_Strips:Socket_Strip_Straight_1x04" H 9278 7879 50  0001 L CNN
F 3 "" H 9200 7975 50  0000 C CNN
	1    9200 7975
	1    0    0    -1  
$EndComp
$Comp
L CONN_02X04 SRV_PWR1
U 1 1 584820CB
P 9725 7975
F 0 "SRV_PWR1" H 9725 8248 50  0000 C CNN
F 1 "CONN_02X04" H 9725 8249 50  0001 C CNN
F 2 "Socket_Strips:Socket_Strip_Straight_2x04" H 9725 8248 50  0001 C CNN
F 3 "" H 9725 6775 50  0000 C CNN
	1    9725 7975
	1    0    0    -1  
$EndComp
Text Label 8800 7925 0    60   ~ 0
SRV2
Text Label 8800 8025 0    60   ~ 0
SRV3
Text Label 8800 8125 0    60   ~ 0
SRV4
Text Label 8800 7825 0    60   ~ 0
SRV1
Wire Wire Line
	9000 7825 8800 7825
Wire Wire Line
	9000 8125 8800 8125
Wire Wire Line
	9000 8025 8800 8025
Wire Wire Line
	9000 7925 8800 7925
$Comp
L GND #PWR046
U 1 1 5848351D
P 9425 8200
F 0 "#PWR046" H 9425 8200 30  0001 C CNN
F 1 "GND" H 9425 8130 30  0001 C CNN
F 2 "" H 9425 8200 60  0001 C CNN
F 3 "" H 9425 8200 60  0001 C CNN
	1    9425 8200
	1    0    0    -1  
$EndComp
Wire Wire Line
	9425 8125 9475 8125
Wire Wire Line
	9425 7825 9425 8200
Wire Wire Line
	9475 8025 9425 8025
Connection ~ 9425 8125
Wire Wire Line
	9475 7925 9425 7925
Connection ~ 9425 8025
Wire Wire Line
	9475 7825 9425 7825
Connection ~ 9425 7925
Wire Wire Line
	10050 8125 9975 8125
Wire Wire Line
	10050 7825 10050 8225
Wire Wire Line
	10050 8025 9975 8025
Wire Wire Line
	10050 7925 9975 7925
Connection ~ 10050 8025
Wire Wire Line
	10050 7825 9975 7825
Connection ~ 10050 7925
Wire Wire Line
	10050 8225 10200 8225
Connection ~ 10050 8125
Text Label 2200 4825 0    60   ~ 0
ECHO
Wire Wire Line
	2200 4825 2675 4825
Text Notes 10075 1400 0    60   ~ 0
Mount LSEL2 or LSEL3 not both
$EndSCHEMATC
