EESchema Schematic File Version 2
LIBS:chip_media-rescue
LIBS:power
LIBS:device
LIBS:transistors
LIBS:conn
LIBS:linear
LIBS:regul
LIBS:74xx
LIBS:cmos4000
LIBS:adc-dac
LIBS:memory
LIBS:xilinx
LIBS:microcontrollers
LIBS:dsp
LIBS:microchip
LIBS:analog_switches
LIBS:motorola
LIBS:texas
LIBS:intel
LIBS:audio
LIBS:interface
LIBS:digital-audio
LIBS:philips
LIBS:display
LIBS:cypress
LIBS:siliconi
LIBS:opto
LIBS:atmel
LIBS:contrib
LIBS:valves
LIBS:chip_pro
LIBS:stm32f100vxx
LIBS:ABM8G
LIBS:drv8835
LIBS:lt1117cst
LIBS:stm32f0
LIBS:Carlolib-dev
LIBS:opendous
LIBS:mem_mic
LIBS:usba-plug
LIBS:imx233stamp-cache
LIBS:srf2012
LIBS:rclamp0502b
LIBS:usbconn
LIBS:usb_a
LIBS:onion2_new
LIBS:onion2
LIBS:chip_media-cache
EELAYER 26 0
EELAYER END
$Descr A4 11693 8268
encoding utf-8
Sheet 3 3
Title ""
Date "1 jun 2013"
Rev ""
Comp ""
Comment1 ""
Comment2 ""
Comment3 ""
Comment4 ""
$EndDescr
Wire Wire Line
	4900 1600 4900 2000
Connection ~ 4900 1600
Connection ~ 4900 1900
Connection ~ 4900 1800
Connection ~ 4900 1700
Wire Wire Line
	5700 1700 5800 1700
Wire Wire Line
	5800 1700 5800 1650
Wire Wire Line
	5800 1650 6350 1650
Connection ~ 5900 1800
Wire Wire Line
	5900 1800 5900 1150
Wire Wire Line
	5900 1150 6050 1150
Connection ~ 4250 1950
Wire Wire Line
	3850 1950 4600 1950
Wire Wire Line
	3850 1950 3850 1850
Wire Wire Line
	5900 1900 5900 2000
Connection ~ 4600 1350
Wire Wire Line
	7750 1650 7250 1650
Wire Wire Line
	7750 1800 7250 1800
Wire Wire Line
	4250 1350 4250 1500
Wire Wire Line
	4250 1800 4250 2050
Wire Wire Line
	4600 1950 4600 1800
Wire Wire Line
	3850 1450 3850 1350
Connection ~ 4250 1350
Wire Wire Line
	6050 1350 6050 1650
Connection ~ 6050 1650
Wire Wire Line
	7200 1250 7300 1250
Wire Wire Line
	7300 1250 7300 1350
Wire Wire Line
	4600 1200 4600 1500
Wire Wire Line
	3750 1200 4000 1200
Wire Wire Line
	3950 1200 3950 1150
Wire Wire Line
	5700 1800 6350 1800
Wire Wire Line
	5700 1350 5700 1600
Wire Wire Line
	3850 1350 5700 1350
$Comp
L USB_2A USB0
U 1 1 518A5D14
P 5500 1750
F 0 "USB0" H 5425 2000 60  0000 C CNN
F 1 "USB_2A" H 5550 1450 60  0001 C CNN
F 2 "opendous:CONN_USB_A_Vertical_Opendous" H 5500 1750 60  0001 C CNN
F 3 "" H 5500 1750 60  0001 C CNN
F 4 "VCC" H 5825 1900 50  0001 C CNN "VCC"
F 5 "D+" H 5800 1800 50  0001 C CNN "Data+"
F 6 "D-" H 5800 1700 50  0001 C CNN "Data-"
F 7 "GND" H 5825 1600 50  0001 C CNN "Ground"
	1    5500 1750
	1    0    0    -1  
$EndComp
$Comp
L INDUCTOR LUS1
U 1 1 518A5D20
P 4300 1200
F 0 "LUS1" V 4250 1200 40  0000 C CNN
F 1 "2A 120 ohm" V 4400 1200 40  0000 C CNN
F 2 "Resistors_SMD:R_0805" H 4300 1200 60  0001 C CNN
F 3 "" H 4300 1200 60  0001 C CNN
	1    4300 1200
	0    -1   -1   0   
$EndComp
$Comp
L GND #PWR047
U 1 1 518A5D2C
P 7300 1350
F 0 "#PWR047" H 7300 1350 30  0001 C CNN
F 1 "GND" H 7300 1280 30  0001 C CNN
F 2 "" H 7300 1350 60  0001 C CNN
F 3 "" H 7300 1350 60  0001 C CNN
	1    7300 1350
	1    0    0    -1  
$EndComp
$Comp
L RCLAMP0502B UU1
U 1 1 518A5D38
P 7050 950
F 0 "UU1" V 7125 1325 60  0000 C CNN
F 1 "RCLAMP0502B" V 7000 1350 60  0000 C CNN
F 2 "SMD:SOT-523" H 7050 950 60  0001 C CNN
F 3 "" H 7050 950 60  0001 C CNN
	1    7050 950 
	0    -1   -1   0   
$EndComp
$Comp
L GND #PWR048
U 1 1 518A5D44
P 5900 2000
F 0 "#PWR048" H 5900 2000 30  0001 C CNN
F 1 "GND" H 5900 1930 30  0001 C CNN
F 2 "" H 5900 2000 60  0001 C CNN
F 3 "" H 5900 2000 60  0001 C CNN
	1    5900 2000
	1    0    0    -1  
$EndComp
$Comp
L C CUS1
U 1 1 518A5D4A
P 4250 1650
F 0 "CUS1" H 4300 1750 50  0000 L CNN
F 1 "33uF" H 4300 1550 50  0000 L CNN
F 2 "Capacitors_SMD:C_1206" H 4250 1650 60  0001 C CNN
F 3 "" H 4250 1650 60  0001 C CNN
	1    4250 1650
	1    0    0    -1  
$EndComp
$Comp
L C CUS2
U 1 1 518A5D50
P 4600 1650
F 0 "CUS2" H 4650 1750 50  0000 L CNN
F 1 "100nF" H 4650 1550 50  0000 L CNN
F 2 "Capacitors_SMD:C_0603" H 4600 1650 60  0001 C CNN
F 3 "" H 4600 1650 60  0001 C CNN
	1    4600 1650
	1    0    0    -1  
$EndComp
$Comp
L VDD5V #PWR049
U 1 1 518A5D5C
P 3950 1150
F 0 "#PWR049" H 3950 1250 30  0001 C CNN
F 1 "VDD5V" H 3950 1250 30  0000 C CNN
F 2 "" H 3950 1150 60  0001 C CNN
F 3 "" H 3950 1150 60  0001 C CNN
	1    3950 1150
	1    0    0    -1  
$EndComp
$Comp
L SRF2012 LUS2
U 1 1 518A5D64
P 6800 1700
F 0 "LUS2" H 6800 1550 60  0000 C CNN
F 1 "SRF2012" H 6800 1800 60  0000 C CNN
F 2 "SRF2012:SRF2012" H 6800 1700 60  0001 C CNN
F 3 "" H 6800 1700 60  0001 C CNN
	1    6800 1700
	1    0    0    -1  
$EndComp
Wire Wire Line
	5700 1900 5900 1900
$Comp
L GND #PWR050
U 1 1 51A76D67
P 4250 2050
F 0 "#PWR050" H 4250 2050 30  0001 C CNN
F 1 "GND" H 4250 1980 30  0001 C CNN
F 2 "" H 4250 2050 60  0001 C CNN
F 3 "" H 4250 2050 60  0001 C CNN
	1    4250 2050
	1    0    0    -1  
$EndComp
$Comp
L DIODESCH DU1
U 1 1 5871649A
P 3850 1650
F 0 "DU1" V 3950 1800 40  0000 R CNN
F 1 "DIODESCH" V 3800 1950 40  0001 R CNN
F 2 "Diodes_SMD:SOD-123" H 3850 1650 60  0001 C CNN
F 3 "" H 3850 1650 60  0001 C CNN
	1    3850 1650
	0    -1   -1   0   
$EndComp
Text HLabel 7750 1650 2    60   Input ~ 0
USB_DM0
Text HLabel 7750 1800 2    60   Input ~ 0
USB_DP0
$Comp
L +5V #PWR051
U 1 1 58723650
P 3750 1150
F 0 "#PWR051" H 3750 1000 50  0001 C CNN
F 1 "+5V" H 3750 1300 50  0000 C CNN
F 2 "" H 3750 1150 50  0000 C CNN
F 3 "" H 3750 1150 50  0000 C CNN
	1    3750 1150
	-1   0    0    -1  
$EndComp
Wire Wire Line
	3750 1200 3750 1150
Connection ~ 3950 1200
Connection ~ 4775 1350
Text Label 6125 1650 0    60   ~ 0
USB0-
Text Label 6125 1800 0    60   ~ 0
USB0+
$Comp
L GND #PWR052
U 1 1 58A20C43
P 4900 2000
F 0 "#PWR052" H 4900 2000 30  0001 C CNN
F 1 "GND" H 4900 1930 30  0001 C CNN
F 2 "" H 4900 2000 60  0001 C CNN
F 3 "" H 4900 2000 60  0001 C CNN
	1    4900 2000
	1    0    0    -1  
$EndComp
$EndSCHEMATC
