EESchema Schematic File Version 2
LIBS:stamp_mini_4_layers-rescue
LIBS:con-jack
LIBS:adm3101e
LIBS:microsd
LIBS:transistor-npn
LIBS:ipc-7351-transistor
LIBS:switch-misc
LIBS:power
LIBS:device
LIBS:transistors
LIBS:conn
LIBS:linear
LIBS:regul
LIBS:74xx
LIBS:cmos4000
LIBS:adc-dac
LIBS:memory
LIBS:xilinx
LIBS:microcontrollers
LIBS:dsp
LIBS:microchip
LIBS:analog_switches
LIBS:motorola
LIBS:texas
LIBS:intel
LIBS:audio
LIBS:interface
LIBS:digital-audio
LIBS:philips
LIBS:display
LIBS:cypress
LIBS:siliconi
LIBS:opto
LIBS:atmel
LIBS:contrib
LIBS:valves
LIBS:micron_ddr_512Mb
LIBS:iMX23
LIBS:sdmmc
LIBS:usbconn
LIBS:fsusb20
LIBS:r_pack2
LIBS:pasives-connectors
LIBS:EEPROM
LIBS:PWR
LIBS:m25p32
LIBS:PROpendous-cache
LIBS:w_analog
LIBS:gl850g
LIBS:srf2012
LIBS:rclamp0502b
LIBS:mcp130
LIBS:ABM8G
LIBS:usb_a
LIBS:Reset
LIBS:stm32f100vxx
LIBS:lt1117cst
LIBS:zxmhc3f381n8
LIBS:fsusb43
LIBS:usb-mini
LIBS:atsam3n0aa-au
LIBS:drv8835
LIBS:ftdichip
LIBS:stm32f4_lqfp100
LIBS:cstcr6m00g53z
LIBS:ESP8266
LIBS:LM2623
LIBS:lm3478
LIBS:stamp_mini_4_layers-cache
EELAYER 25 0
EELAYER END
$Descr A4 11693 8268
encoding utf-8
Sheet 4 5
Title ""
Date ""
Rev ""
Comp ""
Comment1 ""
Comment2 ""
Comment3 ""
Comment4 ""
$EndDescr
$Comp
L LM2623 UDC1
U 1 1 55E9CF69
P 5350 2550
F 0 "UDC1" H 5750 2150 50  0000 C CNN
F 1 "LM2623" H 5350 2650 50  0000 C CNN
F 2 "modules:VSSOP8_P0.65mm_W3mm" H 5350 2550 50  0001 C CNN
F 3 "DOCUMENTATION" H 5350 2550 50  0001 C CNN
	1    5350 2550
	1    0    0    -1  
$EndComp
$Comp
L R-RESCUE-stamp_mini_4_layers RDC1
U 1 1 55E9CF96
P 4300 1500
F 0 "RDC1" V 4380 1500 50  0000 C CNN
F 1 "100k" V 4300 1500 50  0000 C CNN
F 2 "Resistors_SMD:R_0603" V 4230 1500 30  0001 C CNN
F 3 "" H 4300 1500 30  0000 C CNN
	1    4300 1500
	1    0    0    -1  
$EndComp
$Comp
L R-RESCUE-stamp_mini_4_layers RDC2
U 1 1 55E9CFBD
P 6650 2550
F 0 "RDC2" V 6730 2550 50  0000 C CNN
F 1 "250k" V 6650 2550 50  0000 C CNN
F 2 "Resistors_SMD:R_0603" V 6580 2550 30  0001 C CNN
F 3 "" H 6650 2550 30  0000 C CNN
	1    6650 2550
	1    0    0    -1  
$EndComp
$Comp
L R-RESCUE-stamp_mini_4_layers RDC3
U 1 1 55E9CFDC
P 6650 3100
F 0 "RDC3" V 6730 3100 50  0000 C CNN
F 1 "82k" V 6650 3100 50  0000 C CNN
F 2 "Resistors_SMD:R_0603" V 6580 3100 30  0001 C CNN
F 3 "" H 6650 3100 30  0000 C CNN
	1    6650 3100
	1    0    0    -1  
$EndComp
$Comp
L C-RESCUE-stamp_mini_4_layers CDC3
U 1 1 55E9CFFE
P 7100 2600
AR Path="/55E9CFFE" Ref="CDC3"  Part="1" 
AR Path="/55EBD049/55E9CFFE" Ref="CDC3"  Part="1" 
F 0 "CDC3" H 7125 2700 50  0000 L CNN
F 1 "100uF" H 7125 2500 50  0000 L CNN
F 2 "esp826:TL8A0107M010C" H 7138 2450 30  0001 C CNN
F 3 "" H 7100 2600 60  0000 C CNN
	1    7100 2600
	1    0    0    -1  
$EndComp
$Comp
L C-RESCUE-stamp_mini_4_layers CDC2
U 1 1 55E9D03E
P 5100 1750
AR Path="/55E9D03E" Ref="CDC2"  Part="1" 
AR Path="/55EBD049/55E9D03E" Ref="CDC2"  Part="1" 
F 0 "CDC2" H 5125 1850 50  0000 L CNN
F 1 "4.7pF" H 5125 1650 50  0000 L CNN
F 2 "Capacitors_SMD:C_0603" H 5138 1600 30  0001 C CNN
F 3 "" H 5100 1750 60  0000 C CNN
	1    5100 1750
	0    1    1    0   
$EndComp
$Comp
L C-RESCUE-stamp_mini_4_layers CDC1
U 1 1 55E9D064
P 3900 1750
AR Path="/55E9D064" Ref="CDC1"  Part="1" 
AR Path="/55EBD049/55E9D064" Ref="CDC1"  Part="1" 
F 0 "CDC1" H 3925 1850 50  0000 L CNN
F 1 "22uF" H 3925 1650 50  0000 L CNN
F 2 "Capacitors_SMD:C_0805" H 3938 1600 30  0001 C CNN
F 3 "" H 3900 1750 60  0000 C CNN
	1    3900 1750
	1    0    0    -1  
$EndComp
$Comp
L INDUCTOR LDC1
U 1 1 55E9D092
P 5100 1250
F 0 "LDC1" V 5050 1250 50  0000 C CNN
F 1 "4.7uH" V 5200 1250 50  0000 C CNN
F 2 "esp826:NR6028T4R7M" H 5100 1250 60  0001 C CNN
F 3 "" H 5100 1250 60  0000 C CNN
	1    5100 1250
	0    -1   -1   0   
$EndComp
$Comp
L D_Schottky DDC1
U 1 1 55E9D0E1
P 6450 1250
F 0 "DDC1" H 6450 1350 50  0000 C CNN
F 1 "3A" H 6450 1150 50  0000 C CNN
F 2 "esp826:Diode_Schottky_DCDC" H 6450 1250 60  0001 C CNN
F 3 "" H 6450 1250 60  0000 C CNN
	1    6450 1250
	-1   0    0    1   
$EndComp
$Comp
L GND-RESCUE-stamp_mini_4_layers #PWR050
U 1 1 55E9D60F
P 3900 2050
F 0 "#PWR050" H 3900 1800 50  0001 C CNN
F 1 "GND" H 3900 1900 50  0000 C CNN
F 2 "" H 3900 2050 60  0000 C CNN
F 3 "" H 3900 2050 60  0000 C CNN
	1    3900 2050
	1    0    0    -1  
$EndComp
$Comp
L GND-RESCUE-stamp_mini_4_layers #PWR051
U 1 1 55E9D638
P 4450 3050
F 0 "#PWR051" H 4450 2800 50  0001 C CNN
F 1 "GND" H 4450 2900 50  0000 C CNN
F 2 "" H 4450 3050 60  0000 C CNN
F 3 "" H 4450 3050 60  0000 C CNN
	1    4450 3050
	1    0    0    -1  
$EndComp
$Comp
L GND-RESCUE-stamp_mini_4_layers #PWR052
U 1 1 55E9D67F
P 5350 3350
F 0 "#PWR052" H 5350 3100 50  0001 C CNN
F 1 "GND" H 5350 3200 50  0000 C CNN
F 2 "" H 5350 3350 60  0000 C CNN
F 3 "" H 5350 3350 60  0000 C CNN
	1    5350 3350
	1    0    0    -1  
$EndComp
$Comp
L GND-RESCUE-stamp_mini_4_layers #PWR053
U 1 1 55E9D6A8
P 6650 3500
F 0 "#PWR053" H 6650 3250 50  0001 C CNN
F 1 "GND" H 6650 3350 50  0000 C CNN
F 2 "" H 6650 3500 60  0000 C CNN
F 3 "" H 6650 3500 60  0000 C CNN
	1    6650 3500
	1    0    0    -1  
$EndComp
$Comp
L GND-RESCUE-stamp_mini_4_layers #PWR054
U 1 1 55E9D6E5
P 7100 3000
F 0 "#PWR054" H 7100 2750 50  0001 C CNN
F 1 "GND" H 7100 2850 50  0000 C CNN
F 2 "" H 7100 3000 60  0000 C CNN
F 3 "" H 7100 3000 60  0000 C CNN
	1    7100 3000
	1    0    0    -1  
$EndComp
$Comp
L 3V3 #PWR055
U 1 1 55ED7C95
P 7550 2300
F 0 "#PWR055" H 7550 2400 30  0001 C CNN
F 1 "3V3" H 7550 2410 30  0000 C CNN
F 2 "" H 7550 2300 60  0001 C CNN
F 3 "" H 7550 2300 60  0001 C CNN
	1    7550 2300
	1    0    0    -1  
$EndComp
$Comp
L LM2623 UDC2
U 1 1 55ED89E2
P 5600 5300
F 0 "UDC2" H 6000 4900 50  0000 C CNN
F 1 "LM2623" H 5600 5400 50  0000 C CNN
F 2 "modules:VSSOP8_P0.65mm_W3mm" H 5600 5300 50  0001 C CNN
F 3 "DOCUMENTATION" H 5600 5300 50  0001 C CNN
	1    5600 5300
	1    0    0    -1  
$EndComp
$Comp
L R-RESCUE-stamp_mini_4_layers RDC4
U 1 1 55ED89E8
P 4550 4250
F 0 "RDC4" V 4700 4250 50  0000 C CNN
F 1 "R3" V 4400 4250 50  0000 C CNN
F 2 "Resistors_SMD:R_0603" V 4480 4250 30  0001 C CNN
F 3 "" H 4550 4250 30  0000 C CNN
	1    4550 4250
	1    0    0    -1  
$EndComp
$Comp
L R-RESCUE-stamp_mini_4_layers RDC5
U 1 1 55ED89EE
P 6900 5300
F 0 "RDC5" V 6980 5300 50  0000 C CNN
F 1 "300k" V 6800 5300 50  0000 C CNN
F 2 "Resistors_SMD:R_0603" V 6830 5300 30  0001 C CNN
F 3 "" H 6900 5300 30  0000 C CNN
	1    6900 5300
	1    0    0    -1  
$EndComp
$Comp
L R-RESCUE-stamp_mini_4_layers RDC6
U 1 1 55ED89F4
P 6900 5850
F 0 "RDC6" V 6980 5850 50  0000 C CNN
F 1 "100k" V 6800 5850 50  0000 C CNN
F 2 "Resistors_SMD:R_0603" V 6830 5850 30  0001 C CNN
F 3 "" H 6900 5850 30  0000 C CNN
	1    6900 5850
	1    0    0    -1  
$EndComp
$Comp
L C-RESCUE-stamp_mini_4_layers CDC6
U 1 1 55ED89FA
P 7550 5350
AR Path="/55ED89FA" Ref="CDC6"  Part="1" 
AR Path="/55EBD049/55ED89FA" Ref="CDC6"  Part="1" 
F 0 "CDC6" H 7575 5450 50  0000 L CNN
F 1 "68uF" H 7575 5250 50  0000 L CNN
F 2 "esp826:NR6028T4R7M" H 7588 5200 30  0001 C CNN
F 3 "" H 7550 5350 60  0000 C CNN
	1    7550 5350
	1    0    0    -1  
$EndComp
$Comp
L C-RESCUE-stamp_mini_4_layers CDC5
U 1 1 55ED8A00
P 5400 4550
AR Path="/55ED8A00" Ref="CDC5"  Part="1" 
AR Path="/55EBD049/55ED8A00" Ref="CDC5"  Part="1" 
F 0 "CDC5" H 5425 4650 50  0000 L CNN
F 1 "4.7pF" H 5425 4450 50  0000 L CNN
F 2 "Capacitors_SMD:C_0603" H 5438 4400 30  0001 C CNN
F 3 "" H 5400 4550 60  0000 C CNN
	1    5400 4550
	0    1    1    0   
$EndComp
$Comp
L C-RESCUE-stamp_mini_4_layers CDC4
U 1 1 55ED8A06
P 4150 4500
AR Path="/55ED8A06" Ref="CDC4"  Part="1" 
AR Path="/55EBD049/55ED8A06" Ref="CDC4"  Part="1" 
F 0 "CDC4" H 4175 4600 50  0000 L CNN
F 1 "22uF" H 4175 4400 50  0000 L CNN
F 2 "Capacitors_SMD:C_0805" H 4188 4350 30  0001 C CNN
F 3 "" H 4150 4500 60  0000 C CNN
	1    4150 4500
	1    0    0    -1  
$EndComp
$Comp
L INDUCTOR LDC2
U 1 1 55ED8A0C
P 5350 4000
F 0 "LDC2" V 5300 4000 50  0000 C CNN
F 1 "4.7uH" V 5450 4000 50  0000 C CNN
F 2 "esp826:NR6028T4R7M" H 5350 4000 60  0001 C CNN
F 3 "" H 5350 4000 60  0000 C CNN
	1    5350 4000
	0    -1   -1   0   
$EndComp
$Comp
L D_Schottky DDC2
U 1 1 55ED8A12
P 6700 4000
F 0 "DDC2" H 6700 4100 50  0000 C CNN
F 1 "3A" H 6700 3900 50  0000 C CNN
F 2 "esp826:Diode_Schottky_DCDC" H 6700 4000 60  0001 C CNN
F 3 "" H 6700 4000 60  0000 C CNN
	1    6700 4000
	-1   0    0    1   
$EndComp
$Comp
L GND-RESCUE-stamp_mini_4_layers #PWR056
U 1 1 55ED8A24
P 4150 4800
F 0 "#PWR056" H 4150 4550 50  0001 C CNN
F 1 "GND" H 4150 4650 50  0000 C CNN
F 2 "" H 4150 4800 60  0000 C CNN
F 3 "" H 4150 4800 60  0000 C CNN
	1    4150 4800
	1    0    0    -1  
$EndComp
$Comp
L GND-RESCUE-stamp_mini_4_layers #PWR057
U 1 1 55ED8A2A
P 4700 5800
F 0 "#PWR057" H 4700 5550 50  0001 C CNN
F 1 "GND" H 4700 5650 50  0000 C CNN
F 2 "" H 4700 5800 60  0000 C CNN
F 3 "" H 4700 5800 60  0000 C CNN
	1    4700 5800
	1    0    0    -1  
$EndComp
$Comp
L GND-RESCUE-stamp_mini_4_layers #PWR058
U 1 1 55ED8A30
P 5600 6100
F 0 "#PWR058" H 5600 5850 50  0001 C CNN
F 1 "GND" H 5600 5950 50  0000 C CNN
F 2 "" H 5600 6100 60  0000 C CNN
F 3 "" H 5600 6100 60  0000 C CNN
	1    5600 6100
	1    0    0    -1  
$EndComp
$Comp
L GND-RESCUE-stamp_mini_4_layers #PWR059
U 1 1 55ED8A36
P 6900 6250
F 0 "#PWR059" H 6900 6000 50  0001 C CNN
F 1 "GND" H 6900 6100 50  0000 C CNN
F 2 "" H 6900 6250 60  0000 C CNN
F 3 "" H 6900 6250 60  0000 C CNN
	1    6900 6250
	1    0    0    -1  
$EndComp
$Comp
L GND-RESCUE-stamp_mini_4_layers #PWR060
U 1 1 55ED8A3C
P 7550 5750
F 0 "#PWR060" H 7550 5500 50  0001 C CNN
F 1 "GND" H 7550 5600 50  0000 C CNN
F 2 "" H 7550 5750 60  0000 C CNN
F 3 "" H 7550 5750 60  0000 C CNN
	1    7550 5750
	1    0    0    -1  
$EndComp
Wire Wire Line
	5350 3350 5350 3200
Wire Wire Line
	4600 2800 4450 2800
Wire Wire Line
	4450 2800 4450 3050
Connection ~ 6650 2800
Wire Wire Line
	6300 2500 6100 2500
Wire Wire Line
	6300 2300 6300 2600
Wire Wire Line
	6300 2400 6100 2400
Wire Wire Line
	6300 2600 6100 2600
Connection ~ 6300 2500
Wire Wire Line
	6300 2300 7550 2300
Connection ~ 6300 2400
Wire Wire Line
	7100 1250 7100 2400
Connection ~ 6650 2300
Connection ~ 3900 1250
Connection ~ 4300 1250
Wire Wire Line
	4300 2350 4600 2350
Connection ~ 4300 1750
Wire Wire Line
	5550 1250 5550 1900
Wire Wire Line
	5400 1250 6300 1250
Connection ~ 5550 1750
Connection ~ 5550 1250
Wire Wire Line
	6600 1250 7100 1250
Connection ~ 7100 2300
Wire Wire Line
	5600 6100 5600 5950
Wire Wire Line
	4850 5550 4700 5550
Wire Wire Line
	4700 5550 4700 5800
Wire Wire Line
	6550 5250 6350 5250
Wire Wire Line
	6550 5050 6550 5350
Wire Wire Line
	6550 5150 6350 5150
Wire Wire Line
	6550 5350 6350 5350
Connection ~ 6550 5250
Wire Wire Line
	6550 5050 7800 5050
Connection ~ 6550 5150
Wire Wire Line
	7550 4000 7550 5150
Connection ~ 6900 5050
Wire Wire Line
	3550 4000 5050 4000
Connection ~ 4150 4000
Connection ~ 4550 4000
Wire Wire Line
	4550 5100 4850 5100
Wire Wire Line
	5800 4000 5800 4650
Wire Wire Line
	5650 4000 6550 4000
Connection ~ 5800 4000
Wire Wire Line
	6850 4000 7550 4000
Connection ~ 7550 5050
$Comp
L C-RESCUE-stamp_mini_4_layers CDC7
U 1 1 55EDACA8
P 7250 5300
AR Path="/55EDACA8" Ref="CDC7"  Part="1" 
AR Path="/55EBD049/55EDACA8" Ref="CDC7"  Part="1" 
F 0 "CDC7" H 7275 5400 50  0000 L CNN
F 1 "33pF" H 7275 5200 50  0000 L CNN
F 2 "Capacitors_SMD:C_0603" H 7288 5150 30  0001 C CNN
F 3 "" H 7250 5300 60  0000 C CNN
	1    7250 5300
	-1   0    0    1   
$EndComp
Wire Wire Line
	7250 5100 7250 5050
Connection ~ 7250 5050
Wire Wire Line
	3550 1250 3550 4000
Connection ~ 3550 1250
Wire Wire Line
	3550 1250 4800 1250
Wire Wire Line
	2750 2550 3550 2550
Connection ~ 3550 2550
$Comp
L R-RESCUE-stamp_mini_4_layers RDC7
U 1 1 55EDBFEA
P 4900 4550
F 0 "RDC7" V 4980 4550 50  0000 C CNN
F 1 "R5" V 5050 4550 50  0000 C CNN
F 2 "Resistors_SMD:R_0603" V 4830 4550 30  0001 C CNN
F 3 "" H 4900 4550 30  0000 C CNN
	1    4900 4550
	0    1    1    0   
$EndComp
Wire Wire Line
	5200 4550 5150 4550
Text Label 7650 5050 0    60   ~ 0
VM
Wire Wire Line
	3900 1550 3900 1250
Wire Wire Line
	3900 1950 3900 2050
Wire Wire Line
	4300 1750 4900 1750
Wire Wire Line
	4300 1750 4300 2350
Wire Wire Line
	5300 1750 5550 1750
Wire Wire Line
	6100 2750 6100 2750
Wire Wire Line
	6100 2750 6100 2800
Wire Wire Line
	6100 2800 6650 2800
Wire Wire Line
	6650 2800 6650 2850
Wire Wire Line
	6650 3350 6650 3500
Wire Wire Line
	7100 2800 7100 3000
Wire Wire Line
	4550 4500 4550 5100
Wire Wire Line
	4550 4550 4650 4550
Wire Wire Line
	4150 4000 4150 4300
Wire Wire Line
	5600 4550 5800 4550
Connection ~ 5800 4550
Connection ~ 4550 4550
Wire Wire Line
	4150 4700 4150 4800
Wire Wire Line
	6900 5550 6900 5600
Wire Wire Line
	6900 6100 6900 6250
Wire Wire Line
	7250 5600 7250 5500
Wire Wire Line
	6600 5600 7250 5600
Wire Wire Line
	7550 5550 7550 5750
Wire Wire Line
	6350 5500 6600 5500
Wire Wire Line
	6600 5500 6600 5600
Connection ~ 6900 5600
Text Notes 4800 3650 0    60   ~ 0
LM2623AMM/NOPBCT-ND
Text Notes 3750 2150 1    60   ~ 0
511-1506-1-ND
Text Notes 3950 4950 1    60   ~ 0
511-1506-1-ND
Text Notes 7450 3050 1    60   ~ 0
718-1921-1-ND
Text Notes 7850 5900 1    60   ~ 0
478-8187-1-ND
Text Notes 4950 4200 0    60   ~ 0
587-2100-1-ND
Text Notes 4700 1450 0    60   ~ 0
587-2100-1-ND
Text Notes 6100 1500 0    60   ~ 0
B340-FDICT-ND\n
Text Notes 6400 4300 0    60   ~ 0
B340-FDICT-ND\n
Text Label 3100 2550 0    60   ~ 0
VIN
$Comp
L GND-RESCUE-stamp_mini_4_layers #PWR061
U 1 1 55F273EC
P 2950 2800
F 0 "#PWR061" H 2950 2800 30  0001 C CNN
F 1 "GND" H 2950 2730 30  0001 C CNN
F 2 "" H 2950 2800 60  0001 C CNN
F 3 "" H 2950 2800 60  0001 C CNN
	1    2950 2800
	1    0    0    -1  
$EndComp
Wire Wire Line
	2750 2750 2950 2750
Wire Wire Line
	2950 2750 2950 2800
$Comp
L BARREL_JACK PWR1
U 1 1 55F273F5
P 2450 2650
F 0 "PWR1" H 2450 2900 60  0000 C CNN
F 1 "BARREL_JACK" H 2450 2450 60  0000 C CNN
F 2 "Connect:JACK_ALIM" H 2450 2650 60  0001 C CNN
F 3 "" H 2450 2650 60  0000 C CNN
	1    2450 2650
	1    0    0    -1  
$EndComp
Text Label 2800 2550 0    60   ~ 0
VIN
Text HLabel 7800 5050 2    60   Input ~ 0
VM
$EndSCHEMATC
