EESchema Schematic File Version 2
LIBS:stamp_mini_4_layers-cache
LIBS:con-jack
LIBS:adm3101e
LIBS:microsd
LIBS:transistor-npn
LIBS:ipc-7351-transistor
LIBS:switch-misc
LIBS:power
LIBS:device
LIBS:transistors
LIBS:conn
LIBS:linear
LIBS:regul
LIBS:74xx
LIBS:cmos4000
LIBS:adc-dac
LIBS:memory
LIBS:xilinx
LIBS:microcontrollers
LIBS:dsp
LIBS:microchip
LIBS:analog_switches
LIBS:motorola
LIBS:texas
LIBS:intel
LIBS:audio
LIBS:interface
LIBS:digital-audio
LIBS:philips
LIBS:display
LIBS:cypress
LIBS:siliconi
LIBS:opto
LIBS:atmel
LIBS:contrib
LIBS:valves
LIBS:micron_ddr_512Mb
LIBS:iMX23
LIBS:sdmmc
LIBS:usbconn
LIBS:fsusb20
LIBS:r_pack2
LIBS:pasives-connectors
LIBS:EEPROM
LIBS:PWR
LIBS:m25p32
LIBS:PROpendous-cache
LIBS:w_analog
LIBS:gl850g
LIBS:srf2012
LIBS:rclamp0502b
LIBS:mcp130
LIBS:ABM8G
LIBS:usb_a
LIBS:Reset
LIBS:stm32f100vxx
LIBS:lt1117cst
LIBS:zxmhc3f381n8
LIBS:fsusb43
LIBS:usb-mini
LIBS:atsam3n0aa-au
LIBS:drv8835
LIBS:ftdichip
LIBS:stm32f4_lqfp100
LIBS:cstcr6m00g53z
LIBS:ESP8266
LIBS:LM2623
LIBS:lm3478
LIBS:media_board-cache
EELAYER 25 0
EELAYER END
$Descr A4 11693 8268
encoding utf-8
Sheet 4 4
Title "noname.sch"
Date "22 aug 2012"
Rev ""
Comp ""
Comment1 ""
Comment2 ""
Comment3 ""
Comment4 ""
$EndDescr
$Comp
L CP1 Cin1
U 1 1 4F95A856
P 8500 4150
F 0 "Cin1" V 8250 4100 50  0000 L CNN
F 1 "10uF/12.5V" V 8350 3950 50  0000 L CNN
F 2 "Capacitors_Tantalum_SMD:TantalC_SizeB_EIA-3528_Reflow" H 8500 4150 60  0001 C CNN
F 3 "" H 8500 4150 60  0001 C CNN
	1    8500 4150
	1    0    0    -1  
$EndComp
Text HLabel 8800 3700 2    60   Input ~ 0
VM
$Comp
L LT1117CST U11
U 1 1 561967DB
P 9450 4200
F 0 "U11" H 9300 4500 60  0000 C CNN
F 1 "LT1117CST" H 9450 4200 40  0000 C CNN
F 2 "TO_SOT_Packages_SMD:SOT-223" H 9450 4200 60  0001 C CNN
F 3 "" H 9450 4200 60  0000 C CNN
	1    9450 4200
	1    0    0    -1  
$EndComp
$Comp
L GND-RESCUE-stamp_mini_4_layers #PWR052
U 1 1 561969F7
P 9000 4250
F 0 "#PWR052" H 9000 4000 50  0001 C CNN
F 1 "GND" H 9000 4100 50  0000 C CNN
F 2 "" H 9000 4250 60  0000 C CNN
F 3 "" H 9000 4250 60  0000 C CNN
	1    9000 4250
	1    0    0    -1  
$EndComp
Wire Wire Line
	9000 4250 9000 4100
Wire Wire Line
	9000 4100 9100 4100
$Comp
L C C76
U 1 1 56196B90
P 10450 4250
F 0 "C76" H 10500 4350 50  0000 L CNN
F 1 "2.7nF" H 10500 4150 50  0000 L CNN
F 2 "SM0603" H 10450 4250 60  0001 C CNN
F 3 "" H 10450 4250 60  0001 C CNN
	1    10450 4250
	1    0    0    -1  
$EndComp
$Comp
L C-RESCUE-stamp_mini_4_layers C75
U 1 1 56197527
P 10050 4250
F 0 "C75" H 10100 4350 50  0000 L CNN
F 1 "4.7uF" H 10100 4150 50  0000 L CNN
F 2 "SM1206" H 10050 4250 60  0001 C CNN
F 3 "" H 10050 4250 60  0001 C CNN
	1    10050 4250
	1    0    0    -1  
$EndComp
Wire Wire Line
	9750 4000 10450 4000
Wire Wire Line
	10450 3850 10450 4100
Wire Wire Line
	10050 4050 10050 4000
Connection ~ 10050 4000
Wire Wire Line
	9750 4100 9850 4100
Wire Wire Line
	9850 4100 9850 4000
Connection ~ 9850 4000
Wire Wire Line
	10050 4450 10050 4550
Wire Wire Line
	10050 4550 10450 4550
Wire Wire Line
	10450 4550 10450 4400
$Comp
L GND-RESCUE-stamp_mini_4_layers #PWR053
U 1 1 56198026
P 10250 4650
F 0 "#PWR053" H 10250 4400 50  0001 C CNN
F 1 "GND" H 10250 4500 50  0000 C CNN
F 2 "" H 10250 4650 60  0000 C CNN
F 3 "" H 10250 4650 60  0000 C CNN
	1    10250 4650
	1    0    0    -1  
$EndComp
Wire Wire Line
	10250 4650 10250 4550
Connection ~ 10250 4550
$Comp
L +3.3VP #PWR054
U 1 1 56199F1B
P 10450 3850
F 0 "#PWR054" H 10500 3880 20  0001 C CNN
F 1 "+3.3VP" H 10450 3940 30  0000 C CNN
F 2 "" H 10450 3850 60  0001 C CNN
F 3 "" H 10450 3850 60  0001 C CNN
	1    10450 3850
	1    0    0    -1  
$EndComp
$Comp
L 3V3 #PWR055
U 1 1 56199F21
P 10300 3850
F 0 "#PWR055" H 10300 3950 30  0001 C CNN
F 1 "3V3" H 10300 3960 30  0000 C CNN
F 2 "" H 10300 3850 60  0001 C CNN
F 3 "" H 10300 3850 60  0001 C CNN
	1    10300 3850
	1    0    0    -1  
$EndComp
Connection ~ 10450 4000
Wire Wire Line
	10300 3850 10300 4000
Connection ~ 10300 4000
$Comp
L GND-RESCUE-stamp_mini_4_layers #PWR056
U 1 1 5678B9C4
P 8500 4400
F 0 "#PWR056" H 8500 4150 50  0001 C CNN
F 1 "GND" H 8500 4250 50  0000 C CNN
F 2 "" H 8500 4400 60  0000 C CNN
F 3 "" H 8500 4400 60  0000 C CNN
	1    8500 4400
	1    0    0    -1  
$EndComp
Wire Wire Line
	8500 4300 8500 4400
Wire Wire Line
	8800 3700 8500 3700
Wire Wire Line
	8500 3700 8500 4000
Connection ~ 8500 4000
Text Notes 6750 3800 0    60   ~ 0
EG1906-ND (10x3,8)
Wire Wire Line
	7850 4000 9100 4000
$Comp
L SWITCH_INV SW_1
U 1 1 567A113F
P 7350 4000
F 0 "SW_1" H 7150 4150 50  0000 C CNN
F 1 "SWITCH_INV" H 7200 3850 50  0001 C CNN
F 2 "esp826:eg1213" H 7350 4000 60  0001 C CNN
F 3 "" H 7350 4000 60  0000 C CNN
	1    7350 4000
	-1   0    0    -1  
$EndComp
$Comp
L GND-RESCUE-stamp_mini_4_layers #PWR057
U 1 1 567A1AE3
P 6750 4250
F 0 "#PWR057" H 6750 4000 50  0001 C CNN
F 1 "GND" H 6750 4100 50  0000 C CNN
F 2 "" H 6750 4250 60  0000 C CNN
F 3 "" H 6750 4250 60  0000 C CNN
	1    6750 4250
	1    0    0    -1  
$EndComp
Wire Wire Line
	6750 4100 6750 4250
Wire Wire Line
	6750 4100 6850 4100
$Comp
L CONN_01X02 PS1
U 1 1 567A19B8
P 6050 3950
F 0 "PS1" H 6050 4100 50  0000 C CNN
F 1 "CONN_01X02" V 6150 3950 50  0001 C CNN
F 2 "esp826:282834-2" V 6050 3950 60  0001 C CNN
F 3 "" H 6050 3950 60  0000 C CNN
	1    6050 3950
	-1   0    0    1   
$EndComp
Wire Wire Line
	6250 3900 6850 3900
$Comp
L GND-RESCUE-stamp_mini_4_layers #PWR058
U 1 1 567A230A
P 6350 4150
F 0 "#PWR058" H 6350 3900 50  0001 C CNN
F 1 "GND" H 6350 4000 50  0000 C CNN
F 2 "" H 6350 4150 60  0000 C CNN
F 3 "" H 6350 4150 60  0000 C CNN
	1    6350 4150
	1    0    0    -1  
$EndComp
Wire Wire Line
	6350 4000 6350 4150
Wire Wire Line
	6250 4000 6350 4000
$EndSCHEMATC
