EESchema Schematic File Version 2
LIBS:stamp_mini_4_layers-cache
LIBS:con-jack
LIBS:adm3101e
LIBS:microsd
LIBS:transistor-npn
LIBS:ipc-7351-transistor
LIBS:switch-misc
LIBS:power
LIBS:device
LIBS:transistors
LIBS:conn
LIBS:linear
LIBS:regul
LIBS:74xx
LIBS:cmos4000
LIBS:adc-dac
LIBS:memory
LIBS:xilinx
LIBS:microcontrollers
LIBS:dsp
LIBS:microchip
LIBS:analog_switches
LIBS:motorola
LIBS:texas
LIBS:intel
LIBS:audio
LIBS:interface
LIBS:digital-audio
LIBS:philips
LIBS:display
LIBS:cypress
LIBS:siliconi
LIBS:opto
LIBS:atmel
LIBS:contrib
LIBS:valves
LIBS:micron_ddr_512Mb
LIBS:iMX23
LIBS:sdmmc
LIBS:usbconn
LIBS:fsusb20
LIBS:r_pack2
LIBS:pasives-connectors
LIBS:EEPROM
LIBS:PWR
LIBS:m25p32
LIBS:PROpendous-cache
LIBS:w_analog
LIBS:gl850g
LIBS:srf2012
LIBS:rclamp0502b
LIBS:mcp130
LIBS:ABM8G
LIBS:usb_a
LIBS:Reset
LIBS:stm32f100vxx
LIBS:lt1117cst
LIBS:zxmhc3f381n8
LIBS:fsusb43
LIBS:usb-mini
LIBS:atsam3n0aa-au
LIBS:drv8835
LIBS:ftdichip
LIBS:stm32f4_lqfp100
LIBS:cstcr6m00g53z
LIBS:ESP8266
LIBS:LM2623
LIBS:lm3478
LIBS:media_board-cache
EELAYER 25 0
EELAYER END
$Descr User 12000 10000
encoding utf-8
Sheet 3 4
Title ""
Date "9 may 2013"
Rev ""
Comp ""
Comment1 ""
Comment2 ""
Comment3 ""
Comment4 ""
$EndDescr
$Comp
L +3.3VP #PWR014
U 1 1 516D62A0
P 7550 7750
F 0 "#PWR014" H 7600 7780 20  0001 C CNN
F 1 "+3.3VP" H 7550 7840 30  0000 C CNN
F 2 "" H 7550 7750 60  0001 C CNN
F 3 "" H 7550 7750 60  0001 C CNN
	1    7550 7750
	1    0    0    -1  
$EndComp
$Comp
L +3.3VP #PWR015
U 1 1 516D629C
P 8400 7500
F 0 "#PWR015" H 8450 7530 20  0001 C CNN
F 1 "+3.3VP" H 8400 7590 30  0000 C CNN
F 2 "" H 8400 7500 60  0001 C CNN
F 3 "" H 8400 7500 60  0001 C CNN
	1    8400 7500
	1    0    0    -1  
$EndComp
$Comp
L +3.3VP #PWR016
U 1 1 516D625C
P 2650 8700
F 0 "#PWR016" H 2700 8730 20  0001 C CNN
F 1 "+3.3VP" H 2650 8790 30  0000 C CNN
F 2 "" H 2650 8700 60  0001 C CNN
F 3 "" H 2650 8700 60  0001 C CNN
	1    2650 8700
	1    0    0    -1  
$EndComp
$Comp
L C-RESCUE-stamp_mini_4_layers C401
U 1 1 516D60B5
P 1750 9050
F 0 "C401" H 1800 9150 50  0000 L CNN
F 1 "0.1uF" H 1800 8950 50  0000 L CNN
F 2 "SM0603" H 1750 9050 60  0001 C CNN
F 3 "" H 1750 9050 60  0001 C CNN
	1    1750 9050
	1    0    0    -1  
$EndComp
$Comp
L GND-RESCUE-stamp_mini_4_layers #PWR017
U 1 1 516D6095
P 2650 9350
F 0 "#PWR017" H 2650 9350 30  0001 C CNN
F 1 "GND" H 2650 9280 30  0001 C CNN
F 2 "" H 2650 9350 60  0001 C CNN
F 3 "" H 2650 9350 60  0001 C CNN
	1    2650 9350
	1    0    0    -1  
$EndComp
$Comp
L C-RESCUE-stamp_mini_4_layers C407
U 1 1 516D6094
P 3150 9050
F 0 "C407" H 3200 9150 50  0000 L CNN
F 1 "4.7uF" H 3200 8950 50  0000 L CNN
F 2 "SM1206" H 3150 9050 60  0001 C CNN
F 3 "" H 3150 9050 60  0001 C CNN
	1    3150 9050
	1    0    0    -1  
$EndComp
$Comp
L C-RESCUE-stamp_mini_4_layers C406
U 1 1 516D6093
P 2800 9050
F 0 "C406" H 2850 9150 50  0000 L CNN
F 1 "1uF" H 2850 8950 50  0000 L CNN
F 2 "SM0603" H 2800 9050 60  0001 C CNN
F 3 "" H 2800 9050 60  0001 C CNN
	1    2800 9050
	1    0    0    -1  
$EndComp
$Comp
L C-RESCUE-stamp_mini_4_layers C405
U 1 1 516D6092
P 2450 9050
F 0 "C405" H 2500 9150 50  0000 L CNN
F 1 "0.1uF" H 2500 8950 50  0000 L CNN
F 2 "SM0603" H 2450 9050 60  0001 C CNN
F 3 "" H 2450 9050 60  0001 C CNN
	1    2450 9050
	1    0    0    -1  
$EndComp
$Comp
L C-RESCUE-stamp_mini_4_layers C404
U 1 1 516D6091
P 2100 9050
F 0 "C404" H 2150 9150 50  0000 L CNN
F 1 "0.1uF" H 2150 8950 50  0000 L CNN
F 2 "SM0603" H 2100 9050 60  0001 C CNN
F 3 "" H 2100 9050 60  0001 C CNN
	1    2100 9050
	1    0    0    -1  
$EndComp
$Comp
L R-RESCUE-stamp_mini_4_layers R33
U 1 1 4E188E50
P 9400 8000
F 0 "R33" V 9480 8000 50  0000 C CNN
F 1 "1k" V 9400 8000 50  0000 C CNN
F 2 "SM0603" H 9400 8000 60  0001 C CNN
F 3 "" H 9400 8000 60  0001 C CNN
	1    9400 8000
	0    1    1    0   
$EndComp
$Comp
L LED-RESCUE-stamp_mini_4_layers D9
U 1 1 4E188E4F
P 9400 7700
F 0 "D9" H 9400 7800 50  0000 C CNN
F 1 "LED" H 9400 7600 50  0000 C CNN
F 2 "SM0603" H 9400 7700 60  0001 C CNN
F 3 "" H 9400 7700 60  0001 C CNN
	1    9400 7700
	-1   0    0    1   
$EndComp
$Comp
L GND-RESCUE-stamp_mini_4_layers #PWR018
U 1 1 4E188E4E
P 9800 8000
F 0 "#PWR018" H 9800 8000 30  0001 C CNN
F 1 "GND" H 9800 7930 30  0001 C CNN
F 2 "" H 9800 8000 60  0001 C CNN
F 3 "" H 9800 8000 60  0001 C CNN
	1    9800 8000
	0    -1   1    0   
$EndComp
Text Label 9150 7500 0    60   ~ 0
LED
$Comp
L GND-RESCUE-stamp_mini_4_layers #PWR019
U 1 1 4E186DEB
P 8900 8000
F 0 "#PWR019" H 8900 8000 30  0001 C CNN
F 1 "GND" H 8900 7930 30  0001 C CNN
F 2 "" H 8900 8000 60  0001 C CNN
F 3 "" H 8900 8000 60  0001 C CNN
	1    8900 8000
	0    -1   1    0   
$EndComp
$Comp
L LED-RESCUE-stamp_mini_4_layers D8
U 1 1 4DCDB178
P 8500 7700
F 0 "D8" H 8500 7800 50  0000 C CNN
F 1 "LED" H 8500 7600 50  0000 C CNN
F 2 "SM0603" H 8500 7700 60  0001 C CNN
F 3 "" H 8500 7700 60  0001 C CNN
	1    8500 7700
	-1   0    0    1   
$EndComp
$Comp
L R-RESCUE-stamp_mini_4_layers R5
U 1 1 4DCDB177
P 8500 8000
F 0 "R5" V 8580 8000 50  0000 C CNN
F 1 "1k" V 8500 8000 50  0000 C CNN
F 2 "SM0603" H 8500 8000 60  0001 C CNN
F 3 "" H 8500 8000 60  0001 C CNN
	1    8500 8000
	0    1    1    0   
$EndComp
Text Notes 8850 7250 0    60   ~ 0
LEDS
$Comp
L DRV8835 UHB1
U 1 1 5344D7DB
P 9550 2050
F 0 "UHB1" H 9350 2700 60  0000 C CNN
F 1 "DRV8835" H 9500 2600 60  0000 C CNN
F 2 "drv8835" H 9550 2050 60  0001 C CNN
F 3 "" H 9550 2050 60  0000 C CNN
	1    9550 2050
	-1   0    0    -1  
$EndComp
$Comp
L +3.3VP #PWR020
U 1 1 5344E1D7
P 8750 1600
F 0 "#PWR020" H 8800 1630 20  0001 C CNN
F 1 "+3.3VP" H 8750 1690 30  0000 C CNN
F 2 "" H 8750 1600 60  0001 C CNN
F 3 "" H 8750 1600 60  0001 C CNN
	1    8750 1600
	1    0    0    -1  
$EndComp
$Comp
L C-RESCUE-stamp_mini_4_layers CHB1
U 1 1 5344E995
P 1100 9000
F 0 "CHB1" H 1150 9100 50  0000 L CNN
F 1 "0.1uF" H 1150 8900 50  0000 L CNN
F 2 "SM0603" H 1100 9000 60  0001 C CNN
F 3 "" H 1100 9000 60  0001 C CNN
	1    1100 9000
	1    0    0    -1  
$EndComp
$Comp
L GND-RESCUE-stamp_mini_4_layers #PWR021
U 1 1 5344E9A6
P 1100 9300
F 0 "#PWR021" H 1100 9300 30  0001 C CNN
F 1 "GND" H 1100 9230 30  0001 C CNN
F 2 "" H 1100 9300 60  0001 C CNN
F 3 "" H 1100 9300 60  0001 C CNN
	1    1100 9300
	1    0    0    -1  
$EndComp
$Comp
L +3.3VP #PWR022
U 1 1 5344E9B7
P 1100 8650
F 0 "#PWR022" H 1150 8680 20  0001 C CNN
F 1 "+3.3VP" H 1100 8740 30  0000 C CNN
F 2 "" H 1100 8650 60  0001 C CNN
F 3 "" H 1100 8650 60  0001 C CNN
	1    1100 8650
	1    0    0    -1  
$EndComp
$Comp
L GND-RESCUE-stamp_mini_4_layers #PWR023
U 1 1 5344F399
P 10350 2250
F 0 "#PWR023" H 10350 2250 30  0001 C CNN
F 1 "GND" H 10350 2180 30  0001 C CNN
F 2 "" H 10350 2250 60  0001 C CNN
F 3 "" H 10350 2250 60  0001 C CNN
	1    10350 2250
	1    0    0    -1  
$EndComp
Text Label 5650 2650 0    60   ~ 0
DIR_M0
Text Label 5650 2450 0    60   ~ 0
DIR_M1
Text Label 5650 2550 0    60   ~ 0
SP_M0
Text Label 5650 2250 0    60   ~ 0
SP_M1
Text Label 10875 1750 0    60   ~ 0
M0B
Text Label 10875 1850 0    60   ~ 0
M0A
Text Label 10875 2050 0    60   ~ 0
M1A
Text Label 10875 1950 0    60   ~ 0
M1B
Text Label 10350 2050 0    60   ~ 0
M0B
Text Label 10350 1850 0    60   ~ 0
M1B
Text Label 10350 1950 0    60   ~ 0
M0A
Text Label 10350 1750 0    60   ~ 0
M1A
Text Label 10400 1650 0    60   ~ 0
VM
$Comp
L C-RESCUE-stamp_mini_4_layers CHB2
U 1 1 53459780
P 800 9000
F 0 "CHB2" H 850 9100 50  0000 L CNN
F 1 "0.1uF" H 850 8900 50  0000 L CNN
F 2 "SM0603" H 800 9000 60  0001 C CNN
F 3 "" H 800 9000 60  0001 C CNN
	1    800  9000
	1    0    0    -1  
$EndComp
$Comp
L GND-RESCUE-stamp_mini_4_layers #PWR024
U 1 1 53459787
P 800 9300
F 0 "#PWR024" H 800 9300 30  0001 C CNN
F 1 "GND" H 800 9230 30  0001 C CNN
F 2 "" H 800 9300 60  0001 C CNN
F 3 "" H 800 9300 60  0001 C CNN
	1    800  9300
	1    0    0    -1  
$EndComp
Text Label 800  8800 1    60   ~ 0
VM
Text Label 1150 8050 0    60   ~ 0
SEN5
Text Label 1150 8150 0    60   ~ 0
SEN6
Text Label 1150 8250 0    60   ~ 0
SEN7
Text Label 1150 8350 0    60   ~ 0
SEN8
Text Label 1150 7650 0    60   ~ 0
SEN1
Text Label 1150 7750 0    60   ~ 0
SEN2
Text Label 1150 7850 0    60   ~ 0
SEN3
Text Label 1150 7950 0    60   ~ 0
SEN4
$Comp
L GND-RESCUE-stamp_mini_4_layers #PWR025
U 1 1 541E5896
P 2600 7400
F 0 "#PWR025" H 2600 7400 30  0001 C CNN
F 1 "GND" H 2600 7330 30  0001 C CNN
F 2 "" H 2600 7400 60  0001 C CNN
F 3 "" H 2600 7400 60  0001 C CNN
	1    2600 7400
	-1   0    0    1   
$EndComp
$Comp
L C-RESCUE-stamp_mini_4_layers CS2
U 1 1 541FDB17
P 1450 9050
F 0 "CS2" H 1500 9150 50  0000 L CNN
F 1 "0.1uF" H 1500 8950 50  0000 L CNN
F 2 "opendous:SM0603_Opendous" H 1450 9050 60  0001 C CNN
F 3 "" H 1450 9050 60  0001 C CNN
	1    1450 9050
	1    0    0    -1  
$EndComp
$Comp
L +3.3VP #PWR026
U 1 1 543CA989
P 1850 7500
F 0 "#PWR026" H 1900 7530 20  0001 C CNN
F 1 "+3.3VP" H 1850 7590 30  0000 C CNN
F 2 "" H 1850 7500 60  0001 C CNN
F 3 "" H 1850 7500 60  0001 C CNN
	1    1850 7500
	1    0    0    -1  
$EndComp
Text Label 5650 1400 0    60   ~ 0
VREF
Text Label 4500 800  0    60   ~ 0
VDDAST
$Comp
L 3V3 #PWR027
U 1 1 5455498E
P 6300 1700
F 0 "#PWR027" H 6300 1800 30  0001 C CNN
F 1 "3V3" H 6300 1810 30  0000 C CNN
F 2 "" H 6300 1700 60  0001 C CNN
F 3 "" H 6300 1700 60  0001 C CNN
	1    6300 1700
	1    0    0    -1  
$EndComp
$Comp
L GND-RESCUE-stamp_mini_4_layers #PWR028
U 1 1 54554994
P 4050 6800
F 0 "#PWR028" H 4050 6800 30  0001 C CNN
F 1 "GND" H 4050 6730 30  0001 C CNN
F 2 "" H 4050 6800 60  0001 C CNN
F 3 "" H 4050 6800 60  0001 C CNN
	1    4050 6800
	1    0    0    -1  
$EndComp
Text HLabel 2250 4100 0    60   BiDi ~ 0
STM_UART_TX
Text HLabel 2250 4200 0    60   BiDi ~ 0
STM_UART_RX
$Comp
L ABM8G XST1
U 1 1 545549A3
P 6750 1650
F 0 "XST1" H 6750 1800 60  0000 C CNN
F 1 "12MHz" H 6750 1500 60  0000 C CNN
F 2 "abm8g:ABM8G" H 6750 1650 60  0001 C CNN
F 3 "" H 6750 1650 60  0001 C CNN
	1    6750 1650
	0    -1   -1   0   
$EndComp
$Comp
L GND-RESCUE-stamp_mini_4_layers #PWR029
U 1 1 545549AB
P 5050 6750
F 0 "#PWR029" H 5050 6750 30  0001 C CNN
F 1 "GND" H 5050 6680 30  0001 C CNN
F 2 "" H 5050 6750 60  0001 C CNN
F 3 "" H 5050 6750 60  0001 C CNN
	1    5050 6750
	1    0    0    -1  
$EndComp
$Comp
L INDUCTOR LST1
U 1 1 545549B1
P 4750 6650
F 0 "LST1" V 4700 6650 40  0000 C CNN
F 1 "2A 120 ohm" V 4850 6650 40  0000 C CNN
F 2 "SM0805" H 4750 6650 60  0001 C CNN
F 3 "" H 4750 6650 60  0001 C CNN
	1    4750 6650
	0    1    1    0   
$EndComp
Text HLabel 2250 3900 0    60   BiDi ~ 0
JNRST
Text HLabel 2250 3100 0    60   BiDi ~ 0
JTMS
Text HLabel 2250 3200 0    60   BiDi ~ 0
JTCK
Text HLabel 2250 3800 0    60   BiDi ~ 0
JTDO
Text HLabel 2250 3300 0    60   BiDi ~ 0
JTDI
$Comp
L 3V3 #PWR030
U 1 1 545549BD
P 4050 800
F 0 "#PWR030" H 4050 900 30  0001 C CNN
F 1 "3V3" H 4050 910 30  0000 C CNN
F 2 "" H 4050 800 60  0001 C CNN
F 3 "" H 4050 800 60  0001 C CNN
	1    4050 800 
	1    0    0    -1  
$EndComp
Text HLabel 2300 1600 0    60   BiDi ~ 0
NRESET
Text Label 800  2500 0    60   ~ 0
SEN8
Text Label 800  2400 0    60   ~ 0
SEN7
Text Label 800  2300 0    60   ~ 0
SEN6
Text Label 800  2200 0    60   ~ 0
SEN5
Text Label 800  2100 0    60   ~ 0
SEN4
Text Label 800  2000 0    60   ~ 0
SEN3
Text Label 800  1900 0    60   ~ 0
SEN2
Text Label 2504 3900 2    60   ~ 0
JTRST
Text Label 2418 3800 2    60   ~ 0
TDO
Text Label 2468 3100 2    60   ~ 0
JTMS
Text Label 2462 3200 2    60   ~ 0
JTCK
Text Label 2450 3300 2    60   ~ 0
JTDI
Text Label 2300 1600 0    60   ~ 0
NRST
$Comp
L GND-RESCUE-stamp_mini_4_layers #PWR031
U 1 1 545549EE
P 7600 1900
F 0 "#PWR031" H 7600 1900 30  0001 C CNN
F 1 "GND" H 7600 1830 30  0001 C CNN
F 2 "" H 7600 1900 60  0001 C CNN
F 3 "" H 7600 1900 60  0001 C CNN
	1    7600 1900
	-1   0    0    -1  
$EndComp
Text Label 2300 1400 0    60   ~ 0
BOOT0
Text Label 2200 3700 0    60   ~ 0
BOOT1
Text Label 800  1800 0    60   ~ 0
SEN1
$Comp
L C-RESCUE-stamp_mini_4_layers CXST2
U 1 1 545549FE
P 7100 1950
F 0 "CXST2" H 7150 2050 50  0000 L CNN
F 1 "22pF" H 7150 1850 50  0000 L CNN
F 2 "opendous:SM0603_Opendous" H 7100 1950 60  0001 C CNN
F 3 "" H 7100 1950 60  0001 C CNN
	1    7100 1950
	0    -1   -1   0   
$EndComp
$Comp
L C-RESCUE-stamp_mini_4_layers CXST1
U 1 1 54554A05
P 7100 1350
F 0 "CXST1" H 7150 1450 50  0000 L CNN
F 1 "22pF" H 7150 1250 50  0000 L CNN
F 2 "opendous:SM0603_Opendous" H 7100 1350 60  0001 C CNN
F 3 "" H 7100 1350 60  0001 C CNN
	1    7100 1350
	0    -1   -1   0   
$EndComp
$Comp
L STM32F4_LQFP100 UST1
U 1 1 54554A0C
P 4200 3600
F 0 "UST1" H 2950 6000 70  0000 C CNB
F 1 "STM32F4_LQFP100" H 5000 800 70  0000 C CNN
F 2 "Housings_QFP:TQFP-100_14x14mm_Pitch0.5mm" H 4200 3600 60  0001 C CNN
F 3 "" H 4200 3600 60  0001 C CNN
	1    4200 3600
	1    0    0    -1  
$EndComp
$Comp
L 3V3 #PWR032
U 1 1 54556556
P 600 650
F 0 "#PWR032" H 600 750 30  0001 C CNN
F 1 "3V3" H 600 760 30  0000 C CNN
F 2 "" H 600 650 60  0001 C CNN
F 3 "" H 600 650 60  0001 C CNN
	1    600  650 
	1    0    0    -1  
$EndComp
$Comp
L INDUCTOR LST2
U 1 1 5455655C
P 900 850
F 0 "LST2" V 850 850 40  0000 C CNN
F 1 "2A 120 ohm" V 1000 850 40  0000 C CNN
F 2 "SM0805" H 900 850 60  0001 C CNN
F 3 "" H 900 850 60  0001 C CNN
	1    900  850 
	0    -1   -1   0   
$EndComp
$Comp
L C-RESCUE-stamp_mini_4_layers CST3
U 1 1 54556563
P 1350 1050
F 0 "CST3" H 1400 1150 50  0000 L CNN
F 1 "0.1uF" H 1400 950 50  0000 L CNN
F 2 "opendous:SM0603_Opendous" H 1350 1050 60  0001 C CNN
F 3 "" H 1350 1050 60  0001 C CNN
	1    1350 1050
	1    0    0    -1  
$EndComp
$Comp
L C-RESCUE-stamp_mini_4_layers CST4
U 1 1 5455656A
P 1750 1050
F 0 "CST4" H 1800 1150 50  0000 L CNN
F 1 "1uF" H 1800 950 50  0000 L CNN
F 2 "SM0805" H 1750 1050 60  0001 C CNN
F 3 "" H 1750 1050 60  0001 C CNN
	1    1750 1050
	1    0    0    -1  
$EndComp
$Comp
L GND-RESCUE-stamp_mini_4_layers #PWR033
U 1 1 54556571
P 1550 1350
F 0 "#PWR033" H 1550 1350 30  0001 C CNN
F 1 "GND" H 1550 1280 30  0001 C CNN
F 2 "" H 1550 1350 60  0001 C CNN
F 3 "" H 1550 1350 60  0001 C CNN
	1    1550 1350
	1    0    0    -1  
$EndComp
Text Label 1700 850  2    60   ~ 0
VDDAST
$Comp
L C-RESCUE-stamp_mini_4_layers CST5
U 1 1 5455687A
P 6200 1100
F 0 "CST5" H 6250 1200 50  0000 L CNN
F 1 "2.2uF" H 6250 1000 50  0000 L CNN
F 2 "SMD_Packages:SMD-0603" H 6200 1100 60  0001 C CNN
F 3 "" H 6200 1100 60  0001 C CNN
	1    6200 1100
	1    0    0    -1  
$EndComp
$Comp
L R-RESCUE-stamp_mini_4_layers RST5
U 1 1 54557AA2
P 4650 8950
F 0 "RST5" V 4730 8950 50  0000 C CNN
F 1 "4.7k" V 4650 8950 50  0000 C CNN
F 2 "opendous:SM0603_Opendous" H 4650 8950 60  0001 C CNN
F 3 "" H 4650 8950 60  0001 C CNN
	1    4650 8950
	-1   0    0    1   
$EndComp
$Comp
L R-RESCUE-stamp_mini_4_layers RST4
U 1 1 54557AA9
P 4500 8950
F 0 "RST4" V 4580 8950 50  0000 C CNN
F 1 "4.7k" V 4500 8950 50  0000 C CNN
F 2 "opendous:SM0603_Opendous" H 4500 8950 60  0001 C CNN
F 3 "" H 4500 8950 60  0001 C CNN
	1    4500 8950
	-1   0    0    1   
$EndComp
$Comp
L 3V3 #PWR034
U 1 1 54557AB0
P 4650 8600
F 0 "#PWR034" H 4650 8700 30  0001 C CNN
F 1 "3V3" H 4650 8710 30  0000 C CNN
F 2 "" H 4650 8600 60  0001 C CNN
F 3 "" H 4650 8600 60  0001 C CNN
	1    4650 8600
	1    0    0    -1  
$EndComp
Text Label 4000 9200 0    60   ~ 0
I2C1_SDA
Text Label 4000 9350 0    60   ~ 0
I2C1_SCL
$Comp
L R-RESCUE-stamp_mini_4_layers RST2
U 1 1 54557ABA
P 1200 6600
F 0 "RST2" V 1280 6600 50  0000 C CNN
F 1 "10k" V 1200 6600 50  0000 C CNN
F 2 "opendous:SM0603_Opendous" H 1200 6600 60  0001 C CNN
F 3 "" H 1200 6600 60  0001 C CNN
	1    1200 6600
	-1   0    0    1   
$EndComp
Text Label 1600 6250 2    60   ~ 0
BOOT1
$Comp
L R-RESCUE-stamp_mini_4_layers RST3
U 1 1 54557AC8
P 1600 6600
F 0 "RST3" V 1680 6600 50  0000 C CNN
F 1 "10k" V 1600 6600 50  0000 C CNN
F 2 "opendous:SM0603_Opendous" H 1600 6600 60  0001 C CNN
F 3 "" H 1600 6600 60  0001 C CNN
	1    1600 6600
	-1   0    0    1   
$EndComp
Text Label 1200 6250 2    60   ~ 0
BOOT0
$Comp
L GND-RESCUE-stamp_mini_4_layers #PWR035
U 1 1 54557AD0
P 1200 6950
F 0 "#PWR035" H 1200 6950 30  0001 C CNN
F 1 "GND" H 1200 6880 30  0001 C CNN
F 2 "" H 1200 6950 60  0001 C CNN
F 3 "" H 1200 6950 60  0001 C CNN
	1    1200 6950
	1    0    0    -1  
$EndComp
$Comp
L 3V3 #PWR036
U 1 1 54560F39
P 7400 7750
F 0 "#PWR036" H 7400 7850 30  0001 C CNN
F 1 "3V3" H 7400 7860 30  0000 C CNN
F 2 "" H 7400 7750 60  0001 C CNN
F 3 "" H 7400 7750 60  0001 C CNN
	1    7400 7750
	1    0    0    -1  
$EndComp
$Comp
L C-RESCUE-stamp_mini_4_layers CST6
U 1 1 5456EF09
P 6000 1100
F 0 "CST6" H 5750 1000 50  0000 L CNN
F 1 "2.2uF" H 5750 1200 50  0000 L CNN
F 2 "SMD_Packages:SMD-0603" H 6000 1100 60  0001 C CNN
F 3 "" H 6000 1100 60  0001 C CNN
	1    6000 1100
	1    0    0    -1  
$EndComp
$Comp
L GND-RESCUE-stamp_mini_4_layers #PWR037
U 1 1 5456F442
P 6450 900
F 0 "#PWR037" H 6450 900 30  0001 C CNN
F 1 "GND" H 6450 830 30  0001 C CNN
F 2 "" H 6450 900 60  0001 C CNN
F 3 "" H 6450 900 60  0001 C CNN
	1    6450 900 
	-1   0    0    -1  
$EndComp
$Comp
L CRYSTAL XRTC1
U 1 1 54570CDE
P 6450 5600
F 0 "XRTC1" H 6450 5750 60  0000 C CNN
F 1 "CRYSTAL" H 6450 5450 60  0000 C CNN
F 2 "resonator:txc_32k" H 6450 5600 60  0001 C CNN
F 3 "" H 6450 5600 60  0000 C CNN
	1    6450 5600
	0    1    1    0   
$EndComp
$Comp
L C-RESCUE-stamp_mini_4_layers CRT1
U 1 1 54571FAF
P 6850 5900
F 0 "CRT1" H 6900 6000 50  0000 L CNN
F 1 "0.1uF" H 6900 5800 50  0000 L CNN
F 2 "opendous:SM0603_Opendous" H 6850 5900 60  0001 C CNN
F 3 "" H 6850 5900 60  0001 C CNN
	1    6850 5900
	0    1    1    0   
$EndComp
$Comp
L C-RESCUE-stamp_mini_4_layers CRT2
U 1 1 545722BF
P 6850 5300
F 0 "CRT2" H 6900 5400 50  0000 L CNN
F 1 "0.1uF" H 6900 5200 50  0000 L CNN
F 2 "opendous:SM0603_Opendous" H 6850 5300 60  0001 C CNN
F 3 "" H 6850 5300 60  0001 C CNN
	1    6850 5300
	0    1    1    0   
$EndComp
$Comp
L GND-RESCUE-stamp_mini_4_layers #PWR038
U 1 1 54573CB9
P 7450 5650
F 0 "#PWR038" H 7450 5650 30  0001 C CNN
F 1 "GND" H 7450 5580 30  0001 C CNN
F 2 "" H 7450 5650 60  0001 C CNN
F 3 "" H 7450 5650 60  0001 C CNN
	1    7450 5650
	1    0    0    -1  
$EndComp
Text Notes 6350 5100 0    60   ~ 0
887-1504-1-ND
$Comp
L SW_PUSH SW_RST1
U 1 1 5457743F
P 6600 3200
F 0 "SW_RST1" H 6600 3350 50  0000 C CNN
F 1 "SW_PUSH" H 6600 3120 50  0000 C CNN
F 2 "Buttons_Switches_ThroughHole:SW_Tactile_SPST_Angled" H 6600 3200 60  0001 C CNN
F 3 "" H 6600 3200 60  0000 C CNN
	1    6600 3200
	0    1    1    0   
$EndComp
Text Notes 6450 3550 1    60   ~ 0
P10880S-ND
$Comp
L R-RESCUE-stamp_mini_4_layers RST6
U 1 1 54563471
P 7200 2650
F 0 "RST6" V 7280 2650 50  0000 C CNN
F 1 "10k" V 7200 2650 50  0000 C CNN
F 2 "opendous:SM0603_Opendous" H 7200 2650 60  0001 C CNN
F 3 "" H 7200 2650 60  0001 C CNN
	1    7200 2650
	-1   0    0    1   
$EndComp
$Comp
L C-RESCUE-stamp_mini_4_layers CST7
U 1 1 54563864
P 7200 3200
F 0 "CST7" H 7250 3300 50  0000 L CNN
F 1 "0.1uF" H 7250 3100 50  0000 L CNN
F 2 "opendous:SM0603_Opendous" H 7200 3200 60  0001 C CNN
F 3 "" H 7200 3200 60  0001 C CNN
	1    7200 3200
	1    0    0    -1  
$EndComp
$Comp
L GND-RESCUE-stamp_mini_4_layers #PWR039
U 1 1 545650B0
P 6900 3650
F 0 "#PWR039" H 6900 3650 30  0001 C CNN
F 1 "GND" H 6900 3580 30  0001 C CNN
F 2 "" H 6900 3650 60  0001 C CNN
F 3 "" H 6900 3650 60  0001 C CNN
	1    6900 3650
	1    0    0    -1  
$EndComp
$Comp
L 3V3 #PWR040
U 1 1 545655B0
P 7200 2300
F 0 "#PWR040" H 7200 2400 30  0001 C CNN
F 1 "3V3" H 7200 2410 30  0000 C CNN
F 2 "" H 7200 2300 60  0001 C CNN
F 3 "" H 7200 2300 60  0001 C CNN
	1    7200 2300
	1    0    0    -1  
$EndComp
$Comp
L 3V3 #PWR041
U 1 1 5456BBE6
P 1600 6950
F 0 "#PWR041" H 1600 7050 30  0001 C CNN
F 1 "3V3" H 1600 7060 30  0000 C CNN
F 2 "" H 1600 6950 60  0001 C CNN
F 3 "" H 1600 6950 60  0001 C CNN
	1    1600 6950
	-1   0    0    1   
$EndComp
Text Label 8650 1850 0    60   ~ 0
DIR_M0
Text Label 8650 2050 0    60   ~ 0
DIR_M1
Text Label 8650 1950 0    60   ~ 0
SP_M0
Text Label 8650 2150 0    60   ~ 0
SP_M1
$Comp
L CONN_02X18 CD1
U 1 1 54572B84
P 6100 8500
F 0 "CD1" H 6100 9450 50  0000 C CNN
F 1 "CONN_02X18" V 6100 8500 50  0000 C CNN
F 2 "Socket_Strips:Socket_Strip_Straight_2x18" H 6100 7450 60  0001 C CNN
F 3 "" H 6100 7450 60  0000 C CNN
	1    6100 8500
	1    0    0    -1  
$EndComp
Text Label 5700 3450 0    60   ~ 0
IO2
Text Label 5700 3350 0    60   ~ 0
IO3
Text Label 5700 3250 0    60   ~ 0
IO4
Text Label 5700 3150 0    60   ~ 0
IO5
Text Label 5700 3050 0    60   ~ 0
IO6
Text Label 5550 9350 0    60   ~ 0
IO6
Text Label 5550 9250 0    60   ~ 0
IO4
Text Label 6450 9250 0    60   ~ 0
IO3
Text Label 5550 9150 0    60   ~ 0
IO2
Text Label 6450 9150 0    60   ~ 0
IO1
Text Label 6450 9350 0    60   ~ 0
IO5
Text Label 5550 9050 0    60   ~ 0
IO0
Text Label 2200 6000 0    60   ~ 0
SDIO_D0
Text Label 5650 5900 0    60   ~ 0
SDIO_CK
Text Label 5650 5200 0    60   ~ 0
SDIO_CMD
Text Label 5650 6000 0    60   ~ 0
SDIO_D3
Text Label 5650 6100 0    60   ~ 0
SDIO_D2
Text Label 2200 6100 0    60   ~ 0
SDIO_D1
Text Label 5700 3650 0    60   ~ 0
IO0
Text Label 5700 3550 0    60   ~ 0
IO1
Text Label 2300 4400 0    60   ~ 0
IO7
Text Label 2300 4300 0    60   ~ 0
IO8
Text Label 2300 4000 0    60   ~ 0
IO9
Text Label 5700 4700 0    60   ~ 0
IO10
Text Label 5700 4800 0    60   ~ 0
IO11
Text Label 5700 4900 0    60   ~ 0
IO12
Text Label 5700 5000 0    60   ~ 0
IO13
Text Label 5700 5100 0    60   ~ 0
IO14
Text Label 5700 5300 0    60   ~ 0
IO15
Text Label 5700 5400 0    60   ~ 0
IO16
Text Label 2300 3000 0    60   ~ 0
IO17
Text Label 2300 2900 0    60   ~ 0
IO18
Text Label 6450 8950 0    60   ~ 0
IO7
Text Label 5550 8950 0    60   ~ 0
IO8
Text Label 6450 9050 0    60   ~ 0
IO9
Text Label 5550 8850 0    60   ~ 0
IO10
Text Label 6450 8850 0    60   ~ 0
IO11
Text Label 5550 8750 0    60   ~ 0
IO12
Text Label 6450 8750 0    60   ~ 0
IO13
Text Label 5550 8650 0    60   ~ 0
IO14
Text Label 5550 8550 0    60   ~ 0
IO15
Text Label 6450 8550 0    60   ~ 0
IO16
Text Label 6400 8650 0    60   ~ 0
SDIO_CMD
Text Label 5500 8450 0    60   ~ 0
SDIO_CK
Text Label 6400 8450 0    60   ~ 0
SDIO_D3
Text Label 5500 8350 0    60   ~ 0
SDIO_D2
Text Label 2300 2800 0    60   ~ 0
IO19
Text Label 2300 2700 0    60   ~ 0
IO20
Text Label 2300 2600 0    60   ~ 0
IO21
Text Label 2300 5900 0    60   ~ 0
IO22
Text Label 2300 5800 0    60   ~ 0
IO23
Text Label 2300 5000 0    60   ~ 0
IO24
Text Label 2300 4900 0    60   ~ 0
IO25
Text Label 2300 4800 0    60   ~ 0
IO26
Text Label 2300 4600 0    60   ~ 0
IO27
Text Label 5700 3900 0    60   ~ 0
IO28
Text Label 5700 4000 0    60   ~ 0
IO29
Text Label 5700 4100 0    60   ~ 0
IO31
Text Label 6450 8350 0    60   ~ 0
IO17
Text Label 5550 8250 0    60   ~ 0
IO18
Text Label 6450 8250 0    60   ~ 0
IO19
Text Label 5550 8150 0    60   ~ 0
IO20
Text Label 6450 8150 0    60   ~ 0
IO21
Text Label 5550 7950 0    60   ~ 0
IO22
Text Label 6450 7950 0    60   ~ 0
IO23
Text Label 5550 7850 0    60   ~ 0
IO24
Text Label 6450 7850 0    60   ~ 0
IO25
Text Label 5550 7750 0    60   ~ 0
IO26
Text Label 8600 6400 0    60   ~ 0
IO29
Text Label 8600 6500 0    60   ~ 0
IO31
Text Label 8600 6600 0    60   ~ 0
IO32
Text Label 6350 8050 0    60   ~ 0
SDIO_D0
Text Label 5450 8050 0    60   ~ 0
SDIO_D1
$Comp
L 3V3 #PWR042
U 1 1 545883AE
P 5650 7650
F 0 "#PWR042" H 5650 7750 30  0001 C CNN
F 1 "3V3" H 5650 7760 30  0000 C CNN
F 2 "" H 5650 7650 60  0001 C CNN
F 3 "" H 5650 7650 60  0001 C CNN
	1    5650 7650
	1    0    0    -1  
$EndComp
$Comp
L GND-RESCUE-stamp_mini_4_layers #PWR043
U 1 1 5458907A
P 6750 7750
F 0 "#PWR043" H 6750 7750 30  0001 C CNN
F 1 "GND" H 6750 7680 30  0001 C CNN
F 2 "" H 6750 7750 60  0001 C CNN
F 3 "" H 6750 7750 60  0001 C CNN
	1    6750 7750
	0    -1   -1   0   
$EndComp
$Comp
L CONN_02X05 CD2
U 1 1 54589B4D
P 9675 6500
F 0 "CD2" H 9675 6800 50  0000 C CNN
F 1 "CONN_02X05" H 9675 6200 50  0001 C CNN
F 2 "Socket_Strips:Socket_Strip_Straight_2x05" H 9675 6950 60  0001 C CNN
F 3 "" H 9675 5300 60  0000 C CNN
	1    9675 6500
	1    0    0    -1  
$EndComp
$Comp
L GND-RESCUE-stamp_mini_4_layers #PWR044
U 1 1 5458BA6B
P 9375 6850
F 0 "#PWR044" H 9375 6850 30  0001 C CNN
F 1 "GND" H 9375 6780 30  0001 C CNN
F 2 "" H 9375 6850 60  0001 C CNN
F 3 "" H 9375 6850 60  0001 C CNN
	1    9375 6850
	1    0    0    -1  
$EndComp
Text Label 5650 5800 0    60   ~ 0
LED
$Comp
L C-RESCUE-stamp_mini_4_layers CS1
U 1 1 54575129
P 3500 9050
F 0 "CS1" H 3550 9150 50  0000 L CNN
F 1 "0.1uF" H 3550 8950 50  0000 L CNN
F 2 "opendous:SM0603_Opendous" H 3500 9050 60  0001 C CNN
F 3 "" H 3500 9050 60  0001 C CNN
	1    3500 9050
	1    0    0    -1  
$EndComp
Text Label 6750 2900 0    60   ~ 0
NRST
Text Label 5050 8950 0    60   ~ 0
I2C1_SCL
Text Label 6750 8950 0    60   ~ 0
I2C1_SDA
$Comp
L GND-RESCUE-stamp_mini_4_layers #PWR045
U 1 1 5529E404
P 1900 1500
F 0 "#PWR045" H 1900 1500 30  0001 C CNN
F 1 "GND" H 1900 1430 30  0001 C CNN
F 2 "" H 1900 1500 60  0001 C CNN
F 3 "" H 1900 1500 60  0001 C CNN
	1    1900 1500
	0    1    1    0   
$EndComp
$Comp
L CONN_01X05 CD2_2
U 1 1 5565D4D7
P 9000 6500
F 0 "CD2_2" H 9000 6800 50  0000 C CNN
F 1 "CONN_01X05" V 9100 6500 50  0001 C CNN
F 2 "Socket_Strips:Socket_Strip_Straight_1x05" H 9000 6500 60  0001 C CNN
F 3 "" H 9000 6500 60  0000 C CNN
	1    9000 6500
	1    0    0    -1  
$EndComp
Text Label 5700 4200 0    60   ~ 0
IO32
Text Label 8600 6700 0    60   ~ 0
IO27
Text Label 9975 6900 0    60   ~ 0
VM
$Comp
L R-RESCUE-stamp_mini_4_layers RA1
U 1 1 55660488
P 850 2800
F 0 "RA1" V 930 2800 50  0000 C CNN
F 1 "100k" V 850 2800 50  0000 C CNN
F 2 "Resistors_SMD:R_0603" H 850 2800 60  0001 C CNN
F 3 "" H 850 2800 60  0001 C CNN
	1    850  2800
	-1   0    0    1   
$EndComp
$Comp
L R-RESCUE-stamp_mini_4_layers RA2
U 1 1 55660A61
P 1000 2800
F 0 "RA2" V 1080 2800 50  0000 C CNN
F 1 "100k" V 1000 2800 50  0000 C CNN
F 2 "Resistors_SMD:R_0603" H 1000 2800 60  0001 C CNN
F 3 "" H 1000 2800 60  0001 C CNN
	1    1000 2800
	-1   0    0    1   
$EndComp
$Comp
L R-RESCUE-stamp_mini_4_layers RA3
U 1 1 55660AB1
P 1150 2800
F 0 "RA3" V 1230 2800 50  0000 C CNN
F 1 "100k" V 1150 2800 50  0000 C CNN
F 2 "Resistors_SMD:R_0603" H 1150 2800 60  0001 C CNN
F 3 "" H 1150 2800 60  0001 C CNN
	1    1150 2800
	-1   0    0    1   
$EndComp
$Comp
L R-RESCUE-stamp_mini_4_layers RA4
U 1 1 55660AFE
P 1300 2800
F 0 "RA4" V 1380 2800 50  0000 C CNN
F 1 "100k" V 1300 2800 50  0000 C CNN
F 2 "Resistors_SMD:R_0603" H 1300 2800 60  0001 C CNN
F 3 "" H 1300 2800 60  0001 C CNN
	1    1300 2800
	-1   0    0    1   
$EndComp
$Comp
L R-RESCUE-stamp_mini_4_layers RA5
U 1 1 55660B50
P 1450 2800
F 0 "RA5" V 1530 2800 50  0000 C CNN
F 1 "100k" V 1450 2800 50  0000 C CNN
F 2 "Resistors_SMD:R_0603" H 1450 2800 60  0001 C CNN
F 3 "" H 1450 2800 60  0001 C CNN
	1    1450 2800
	-1   0    0    1   
$EndComp
$Comp
L R-RESCUE-stamp_mini_4_layers RA6
U 1 1 55660BA7
P 1600 2800
F 0 "RA6" V 1680 2800 50  0000 C CNN
F 1 "100k" V 1600 2800 50  0000 C CNN
F 2 "Resistors_SMD:R_0603" H 1600 2800 60  0001 C CNN
F 3 "" H 1600 2800 60  0001 C CNN
	1    1600 2800
	-1   0    0    1   
$EndComp
$Comp
L R-RESCUE-stamp_mini_4_layers RA7
U 1 1 55660C05
P 1750 2800
F 0 "RA7" V 1830 2800 50  0000 C CNN
F 1 "100k" V 1750 2800 50  0000 C CNN
F 2 "Resistors_SMD:R_0603" H 1750 2800 60  0001 C CNN
F 3 "" H 1750 2800 60  0001 C CNN
	1    1750 2800
	-1   0    0    1   
$EndComp
$Comp
L R-RESCUE-stamp_mini_4_layers RA8
U 1 1 55660C68
P 1900 2800
F 0 "RA8" V 1980 2800 50  0000 C CNN
F 1 "100k" V 1900 2800 50  0000 C CNN
F 2 "Resistors_SMD:R_0603" H 1900 2800 60  0001 C CNN
F 3 "" H 1900 2800 60  0001 C CNN
	1    1900 2800
	-1   0    0    1   
$EndComp
$Comp
L GND-RESCUE-stamp_mini_4_layers #PWR046
U 1 1 556636B2
P 850 3150
F 0 "#PWR046" H 850 3150 30  0001 C CNN
F 1 "GND" H 850 3080 30  0001 C CNN
F 2 "" H 850 3150 60  0001 C CNN
F 3 "" H 850 3150 60  0001 C CNN
	1    850  3150
	1    0    0    -1  
$EndComp
Text HLabel 10650 1650 2    60   Input ~ 0
VM
$Comp
L CONN_02X02 I2C1
U 1 1 55F4FEAB
P 4550 8000
F 0 "I2C1" H 4550 8150 50  0000 C CNN
F 1 "I2C_1" H 4550 7850 50  0000 C CNN
F 2 "Socket_Strips:Socket_Strip_Straight_2x02" H 4550 7700 60  0001 C CNN
F 3 "" H 4550 6800 60  0000 C CNN
	1    4550 8000
	1    0    0    -1  
$EndComp
Text Label 3800 7950 0    60   ~ 0
I2C1_SCL
Text Label 4200 8050 2    60   ~ 0
I2C1_SDA
$Comp
L GND-RESCUE-stamp_mini_4_layers #PWR047
U 1 1 55F50284
P 4950 8150
F 0 "#PWR047" H 4950 8150 30  0001 C CNN
F 1 "GND" H 4950 8080 30  0001 C CNN
F 2 "" H 4950 8150 60  0001 C CNN
F 3 "" H 4950 8150 60  0001 C CNN
	1    4950 8150
	1    0    0    -1  
$EndComp
$Comp
L +3.3VP #PWR048
U 1 1 55F502C7
P 4950 7800
F 0 "#PWR048" H 5000 7830 20  0001 C CNN
F 1 "+3.3VP" H 4950 7890 30  0000 C CNN
F 2 "" H 4950 7800 60  0001 C CNN
F 3 "" H 4950 7800 60  0001 C CNN
	1    4950 7800
	1    0    0    -1  
$EndComp
Text HLabel 2200 5400 0    60   Input ~ 0
RST_ESP
$Comp
L JUMPER PGM1
U 1 1 5679E80A
P 800 5950
F 0 "PGM1" H 800 6100 60  0000 C CNN
F 1 "J" H 1100 6000 40  0000 C CNN
F 2 "Socket_Strips:Socket_Strip_Straight_1x02" H 800 5950 60  0001 C CNN
F 3 "" H 800 5950 60  0001 C CNN
	1    800  5950
	0    1    1    0   
$EndComp
$Comp
L 3V3 #PWR049
U 1 1 5679F680
P 800 5600
F 0 "#PWR049" H 800 5700 30  0001 C CNN
F 1 "3V3" H 800 5710 30  0000 C CNN
F 2 "" H 800 5600 60  0001 C CNN
F 3 "" H 800 5600 60  0001 C CNN
	1    800  5600
	1    0    0    -1  
$EndComp
$Comp
L CONN_02X08 PSA2
U 1 1 56959FFE
P 2200 8000
F 0 "PSA2" H 2200 8450 50  0000 C CNN
F 1 "CONN_02X08" V 2200 8000 50  0001 C CNN
F 2 "Socket_Strips:Socket_Strip_Straight_2x08" H 2200 6800 60  0001 C CNN
F 3 "" H 2200 6800 60  0000 C CNN
	1    2200 8000
	1    0    0    -1  
$EndComp
$Comp
L CONN_01X08 PSA1
U 1 1 5695A109
P 1650 8000
F 0 "PSA1" H 1650 8450 50  0000 C CNN
F 1 "CONN_01X08" V 1750 8000 50  0001 C CNN
F 2 "Socket_Strips:Socket_Strip_Straight_1x08" H 1650 8000 60  0001 C CNN
F 3 "" H 1650 8000 60  0000 C CNN
	1    1650 8000
	1    0    0    -1  
$EndComp
$Comp
L ULN2003 ULN1
U 1 1 56962661
P 9350 3300
F 0 "ULN1" H 9350 3400 70  0000 C CNN
F 1 "ULN2003" H 9350 3900 70  0000 C CNN
F 2 "Housings_SSOP:TSSOP-16_4.4x5mm_Pitch0.65mm" H 9350 3300 60  0001 C CNN
F 3 "" H 9350 3300 60  0000 C CNN
	1    9350 3300
	1    0    0    -1  
$EndComp
$Comp
L CONN_01X04 MOT1
U 1 1 567A30A6
P 11375 1900
F 0 "MOT1" H 11375 2150 50  0000 C CNN
F 1 "CONN_01X04" V 11475 1900 50  0001 C CNN
F 2 "esp826:282834-4" H 11375 1900 60  0001 C CNN
F 3 "" H 11375 1900 60  0000 C CNN
	1    11375 1900
	1    0    0    -1  
$EndComp
$Comp
L CONN_01X05 STEP1
U 1 1 5696C63B
P 11250 3300
F 0 "STEP1" H 11250 3600 50  0000 C CNN
F 1 "CONN_01X05" V 11350 3300 50  0001 C CNN
F 2 "jst-xh:B5B-XH-A" H 11250 3300 60  0001 C CNN
F 3 "" H 11250 3300 60  0000 C CNN
	1    11250 3300
	1    0    0    -1  
$EndComp
Text Label 7750 3100 0    60   ~ 0
CM1A
Text Label 7750 3200 0    60   ~ 0
CM1B
Text Label 10950 3500 0    60   ~ 0
VM
$Comp
L ULN2003 ULN2
U 1 1 56971ACA
P 9350 5150
F 0 "ULN2" H 9350 5250 70  0000 C CNN
F 1 "ULN2003" H 9350 5750 70  0000 C CNN
F 2 "Housings_SSOP:TSSOP-16_4.4x5mm_Pitch0.65mm" H 9350 5150 60  0001 C CNN
F 3 "" H 9350 5150 60  0000 C CNN
	1    9350 5150
	1    0    0    -1  
$EndComp
$Comp
L CONN_01X05 STEP2
U 1 1 56971AE8
P 11250 5150
F 0 "STEP2" H 11250 5450 50  0000 C CNN
F 1 "CONN_01X05" V 11350 5150 50  0001 C CNN
F 2 "jst-xh:B5B-XH-A" H 11250 5150 60  0001 C CNN
F 3 "" H 11250 5150 60  0000 C CNN
	1    11250 5150
	1    0    0    -1  
$EndComp
Text Label 7750 4950 0    60   ~ 0
CM2A
Text Label 7750 5050 0    60   ~ 0
CM2B
Text Label 10950 5350 0    60   ~ 0
VM
Text Label 2200 5600 0    60   ~ 0
CM1D
Text Label 2200 5700 0    60   ~ 0
CM1B
Text Label 2200 3600 0    60   ~ 0
CM1C
Text Label 2200 3500 0    60   ~ 0
CM1A
Text Notes 10900 1350 0    60   ~ 0
DC MOTOR
Text Notes 10750 2550 0    60   ~ 0
STEP MOTORS
Text Notes 10700 6100 0    60   ~ 0
SERVO MOTORS
Text Label 8600 6300 0    60   ~ 0
IO28
Text Notes 7750 6600 0    60   ~ 0
TIM4 CH4 - PD15\nTIM4 CH3 - PD14\nTIM4 CH2 - PD13\nTIM4 CH1 - PD12
Text Notes 7750 6700 0    60   ~ 0
TIM2_CH4 - PB11
Text Notes 7500 3300 0    60   ~ 0
PB1\nPB0\nPC5\nPC4
Text Notes 575  8275 0    60   ~ 0
ADC0 - PA0\nADC1 - PA1\nADC2 - PA2\nADC3 - PA3\nADC4 - PA4\nADC5 - PA5\nADC6 - PA6\nADC7 - PA7
Text Notes 9075 6700 0    60   ~ 0
SRV1\nSRV2\nSRV3\nSRV4\nPWM1
Text Notes 7725 2150 0    60   ~ 0
PE10\nPE11 - TIM1-CH2\nPE12\nPE14 - TIM1-CH4
Text Notes 9350 7475 0    60   ~ 0
C13
Text Notes 3200 8050 0    60   ~ 0
PB8 - SCL\nPB9 - SDA
Text Notes 9150 4225 0    60   ~ 0
1N4733AW-TPMSTR-ND	   zener\n
Text Label 7750 4850 0    60   ~ 0
CM2C
Text Label 7750 5150 0    60   ~ 0
CM2D
Text Label 7750 3000 0    60   ~ 0
CM1C
Text Label 7750 3300 0    60   ~ 0
CM1D
Text Label 5650 2950 0    60   ~ 0
CM2D
Text Label 5650 2850 0    60   ~ 0
CM2B
Text Label 5650 2750 0    60   ~ 0
CM2A
Text Notes 7500 5150 0    60   ~ 0
PB1\nPE9\nPE8\nPE7
Text Label 5650 2150 0    60   ~ 0
CM2C
$Comp
L ZENERsmall Z1
U 1 1 56C5A92E
P 10225 3700
F 0 "Z1" H 10225 3800 40  0000 C CNN
F 1 "ZENERsmall" H 10225 3600 30  0000 C CNN
F 2 "Diodes_SMD:SOD-123" H 10225 3700 60  0001 C CNN
F 3 "" H 10225 3700 60  0000 C CNN
	1    10225 3700
	1    0    0    -1  
$EndComp
$Comp
L ZENERsmall Z2
U 1 1 56C5B64E
P 10275 5550
F 0 "Z2" H 10275 5650 40  0000 C CNN
F 1 "ZENERsmall" H 10275 5450 30  0000 C CNN
F 2 "Diodes_SMD:SOD-123" H 10275 5550 60  0001 C CNN
F 3 "" H 10275 5550 60  0000 C CNN
	1    10275 5550
	1    0    0    -1  
$EndComp
$Comp
L CONN_01X04 US1
U 1 1 56C5E937
P 6900 6850
F 0 "US1" H 6900 7100 50  0000 C CNN
F 1 "CONN_01X04" V 7000 6850 50  0000 C CNN
F 2 "Socket_Strips:Socket_Strip_Straight_1x04" H 6900 6850 60  0001 C CNN
F 3 "" H 6900 6850 60  0000 C CNN
	1    6900 6850
	1    0    0    -1  
$EndComp
Text Label 6550 6700 0    60   ~ 0
VM
$Comp
L GND-RESCUE-stamp_mini_4_layers #PWR050
U 1 1 56C5F511
P 6550 7100
F 0 "#PWR050" H 6550 7100 30  0001 C CNN
F 1 "GND" H 6550 7030 30  0001 C CNN
F 2 "" H 6550 7100 60  0001 C CNN
F 3 "" H 6550 7100 60  0001 C CNN
	1    6550 7100
	-1   0    0    -1  
$EndComp
$Comp
L R-RESCUE-stamp_mini_4_layers RUS1
U 1 1 56C62164
P 6300 6900
F 0 "RUS1" V 6380 6900 50  0000 C CNN
F 1 "1k" V 6300 6900 50  0000 C CNN
F 2 "opendous:SM0603_Opendous" H 6300 6900 60  0001 C CNN
F 3 "" H 6300 6900 60  0001 C CNN
	1    6300 6900
	0    -1   -1   0   
$EndComp
$Comp
L R-RESCUE-stamp_mini_4_layers RUS2
U 1 1 56C62BD8
P 10500 4750
F 0 "RUS2" V 10580 4750 50  0000 C CNN
F 1 "1k" V 10500 4750 50  0000 C CNN
F 2 "opendous:SM0603_Opendous" H 10500 4750 60  0001 C CNN
F 3 "" H 10500 4750 60  0001 C CNN
	1    10500 4750
	0    -1   -1   0   
$EndComp
Text Label 10000 4750 0    60   ~ 0
TRIGG
Text Label 6450 6800 0    60   ~ 0
TRIGG
Text Label 2200 4700 0    60   ~ 0
TRIGG_3V3
Text Label 5650 2350 0    60   ~ 0
ECHO
Text Label 5700 6900 0    60   ~ 0
ECHO
Text Notes 5300 7050 0    60   ~ 0
PE13 TIM1-CH3
Text Notes 10000 4600 0    60   ~ 0
PB12
Connection ~ 2100 9250
Wire Wire Line
	1450 9250 3500 9250
Connection ~ 2650 9250
Wire Wire Line
	2650 9250 2650 9350
Connection ~ 2800 8850
Connection ~ 2800 9250
Connection ~ 2450 9250
Connection ~ 2450 8850
Wire Wire Line
	2650 8850 2650 8700
Connection ~ 2650 8850
Wire Wire Line
	9200 7700 9050 7700
Wire Wire Line
	9050 7700 9050 8000
Wire Wire Line
	9050 8000 9150 8000
Wire Wire Line
	9800 8000 9650 8000
Wire Wire Line
	9150 7500 9750 7500
Wire Wire Line
	9750 7500 9750 7700
Wire Wire Line
	9750 7700 9600 7700
Wire Wire Line
	8700 7700 8850 7700
Wire Wire Line
	8850 7700 8850 7500
Wire Wire Line
	8900 8000 8750 8000
Wire Wire Line
	8250 8000 8150 8000
Wire Wire Line
	8150 8000 8150 7700
Wire Wire Line
	8150 7700 8300 7700
Wire Wire Line
	8850 7500 8400 7500
Wire Wire Line
	7550 7750 7550 7900
Connection ~ 7550 7900
Wire Wire Line
	1450 8850 3500 8850
Connection ~ 2100 8850
Wire Wire Line
	9000 1650 8750 1650
Wire Wire Line
	8750 1600 8750 1750
Wire Wire Line
	8750 1750 9000 1750
Connection ~ 8750 1650
Wire Wire Line
	1100 9200 1100 9300
Wire Wire Line
	1100 8800 1100 8650
Wire Wire Line
	10350 2150 10350 2250
Wire Wire Line
	10300 2150 10350 2150
Wire Wire Line
	10300 2200 10350 2200
Connection ~ 10350 2200
Wire Wire Line
	10775 1850 11175 1850
Wire Wire Line
	11175 2050 10775 2050
Wire Wire Line
	10775 1750 11175 1750
Wire Wire Line
	10775 1950 11175 1950
Wire Wire Line
	10300 2050 10700 2050
Wire Wire Line
	10300 1850 10700 1850
Wire Wire Line
	10300 1950 10700 1950
Wire Wire Line
	10700 1750 10300 1750
Wire Wire Line
	10650 1650 10300 1650
Wire Wire Line
	800  9200 800  9300
Wire Wire Line
	800  8800 800  8650
Wire Wire Line
	1450 8050 1150 8050
Wire Wire Line
	1450 8150 1150 8150
Wire Wire Line
	1450 8250 1150 8250
Wire Wire Line
	1450 8350 1150 8350
Wire Wire Line
	1450 7650 1150 7650
Wire Wire Line
	1450 7750 1150 7750
Wire Wire Line
	1450 7850 1150 7850
Wire Wire Line
	1450 7950 1150 7950
Connection ~ 1750 8850
Connection ~ 1750 9250
Wire Wire Line
	5600 2650 6000 2650
Wire Wire Line
	5600 2550 6000 2550
Wire Wire Line
	5600 2450 6000 2450
Wire Wire Line
	5600 2250 6000 2250
Wire Wire Line
	5600 5600 6150 5600
Wire Wire Line
	5600 5700 6150 5700
Connection ~ 4050 6700
Wire Wire Line
	4050 6550 4050 6800
Wire Wire Line
	2600 3700 2200 3700
Wire Wire Line
	6000 1500 5600 1500
Wire Wire Line
	5600 1950 6900 1950
Wire Wire Line
	6500 1350 6900 1350
Wire Wire Line
	6500 1350 6500 1850
Connection ~ 4050 900 
Wire Wire Line
	4050 900  4050 800 
Connection ~ 4200 900 
Wire Wire Line
	4200 900  4200 950 
Connection ~ 4100 900 
Wire Wire Line
	4100 900  4100 950 
Connection ~ 4000 900 
Wire Wire Line
	4000 900  4000 950 
Connection ~ 3900 900 
Wire Wire Line
	3900 950  3900 900 
Wire Wire Line
	3800 900  3800 950 
Wire Wire Line
	3800 900  4300 900 
Wire Wire Line
	4300 900  4300 950 
Wire Wire Line
	2250 4200 2600 4200
Wire Wire Line
	7300 1600 7300 1350
Wire Wire Line
	7300 1600 7150 1600
Wire Wire Line
	5050 6650 5050 6750
Wire Wire Line
	750  1800 2600 1800
Wire Wire Line
	2250 3900 2600 3900
Wire Wire Line
	2250 3100 2600 3100
Wire Wire Line
	2600 3300 2250 3300
Wire Wire Line
	750  2500 2600 2500
Wire Wire Line
	750  2300 2600 2300
Wire Wire Line
	750  2100 2600 2100
Wire Wire Line
	750  1900 2600 1900
Wire Wire Line
	4250 6550 4250 6650
Wire Wire Line
	2300 1600 2600 1600
Connection ~ 7400 1750
Wire Wire Line
	7600 1900 7600 1750
Wire Wire Line
	7600 1750 7400 1750
Wire Wire Line
	7300 1350 7400 1350
Wire Wire Line
	7400 1350 7400 1950
Wire Wire Line
	7400 1950 7300 1950
Wire Wire Line
	2300 1400 2600 1400
Wire Wire Line
	750  2000 2600 2000
Wire Wire Line
	4500 800  4500 950 
Connection ~ 6750 1950
Connection ~ 6750 1350
Wire Wire Line
	2250 3200 2600 3200
Wire Wire Line
	2250 3800 2600 3800
Wire Wire Line
	750  2200 2600 2200
Wire Wire Line
	750  2400 2600 2400
Wire Wire Line
	4250 6650 4450 6650
Wire Wire Line
	7150 1700 7300 1700
Wire Wire Line
	7300 1700 7300 1950
Wire Wire Line
	2250 4100 2600 4100
Wire Wire Line
	6500 1850 5600 1850
Wire Wire Line
	5600 1400 5900 1400
Wire Wire Line
	5600 1600 6200 1600
Wire Wire Line
	6300 1700 5600 1700
Wire Wire Line
	4150 6700 4150 6550
Wire Wire Line
	3950 6700 4150 6700
Wire Wire Line
	3950 6700 3950 6550
Wire Wire Line
	1900 1500 2600 1500
Wire Wire Line
	600  850  600  650 
Connection ~ 1550 1250
Wire Wire Line
	1550 1350 1550 1250
Connection ~ 1350 1250
Wire Wire Line
	1350 1250 1750 1250
Wire Wire Line
	1200 850  1750 850 
Connection ~ 1350 850 
Wire Wire Line
	4650 8600 4650 8700
Wire Wire Line
	1600 6350 1600 6250
Wire Wire Line
	1600 6250 1300 6250
Wire Wire Line
	1200 6950 1200 6850
Wire Wire Line
	800  6250 1200 6250
Wire Wire Line
	1200 6250 1200 6350
Wire Wire Line
	4500 9200 3950 9200
Wire Wire Line
	3950 9350 4650 9350
Wire Wire Line
	4650 9350 4650 9200
Wire Wire Line
	4650 8700 4500 8700
Wire Wire Line
	7400 7750 7400 7900
Connection ~ 7400 7900
Wire Wire Line
	6200 1600 6200 1300
Wire Wire Line
	6000 1300 6000 1500
Wire Wire Line
	6000 800  6450 800 
Wire Wire Line
	6450 800  6450 900 
Wire Wire Line
	6200 900  6200 800 
Connection ~ 6200 800 
Wire Wire Line
	6000 900  6000 800 
Wire Wire Line
	6150 5600 6150 5300
Wire Wire Line
	6150 5300 6650 5300
Wire Wire Line
	6150 5700 6150 5900
Wire Wire Line
	6150 5900 6650 5900
Wire Wire Line
	7050 5300 7150 5300
Wire Wire Line
	7150 5300 7150 5900
Wire Wire Line
	7150 5900 7050 5900
Connection ~ 6450 5300
Connection ~ 6450 5900
Wire Wire Line
	7150 5550 7450 5550
Wire Wire Line
	7450 5550 7450 5650
Connection ~ 7150 5550
Wire Wire Line
	7200 2900 7200 3000
Wire Wire Line
	6600 2900 7200 2900
Wire Wire Line
	7200 3550 7200 3400
Wire Wire Line
	6600 3550 7200 3550
Wire Wire Line
	6600 3550 6600 3500
Wire Wire Line
	6900 3550 6900 3650
Connection ~ 6900 3550
Wire Wire Line
	7200 2300 7200 2400
Wire Wire Line
	1600 6850 1600 6950
Wire Wire Line
	8600 2150 9000 2150
Wire Wire Line
	8600 2050 9000 2050
Wire Wire Line
	8600 1950 9000 1950
Wire Wire Line
	8600 1850 9000 1850
Wire Wire Line
	6000 3450 5600 3450
Wire Wire Line
	6000 3250 5600 3250
Wire Wire Line
	6000 3350 5600 3350
Wire Wire Line
	6000 3150 5600 3150
Wire Wire Line
	6000 5200 5600 5200
Wire Wire Line
	6000 6000 5600 6000
Wire Wire Line
	6000 6100 5600 6100
Wire Wire Line
	6000 5800 5600 5800
Wire Wire Line
	6000 5900 5600 5900
Wire Wire Line
	6000 3050 5600 3050
Wire Wire Line
	6750 9350 6350 9350
Wire Wire Line
	5850 9250 5450 9250
Wire Wire Line
	5850 9350 5450 9350
Wire Wire Line
	5850 9150 5450 9150
Wire Wire Line
	6750 9250 6350 9250
Wire Wire Line
	6750 9150 6350 9150
Wire Wire Line
	5850 9050 5450 9050
Wire Wire Line
	2600 6000 2200 6000
Wire Wire Line
	2600 6100 2200 6100
Wire Wire Line
	6000 3650 5600 3650
Wire Wire Line
	6000 3550 5600 3550
Wire Wire Line
	2600 4300 2200 4300
Wire Wire Line
	2600 4400 2200 4400
Wire Wire Line
	2600 4000 2200 4000
Wire Wire Line
	6000 4800 5600 4800
Wire Wire Line
	6000 4700 5600 4700
Wire Wire Line
	6000 4900 5600 4900
Wire Wire Line
	6000 5100 5600 5100
Wire Wire Line
	6000 5000 5600 5000
Wire Wire Line
	6000 5300 5600 5300
Wire Wire Line
	2600 3000 2200 3000
Wire Wire Line
	6000 5400 5600 5400
Wire Wire Line
	2600 2900 2200 2900
Wire Wire Line
	5050 8950 5850 8950
Wire Wire Line
	6350 8950 7150 8950
Wire Wire Line
	6750 9050 6350 9050
Wire Wire Line
	6750 8850 6350 8850
Wire Wire Line
	5850 8850 5450 8850
Wire Wire Line
	5850 8750 5450 8750
Wire Wire Line
	5850 8650 5450 8650
Wire Wire Line
	6750 8750 6350 8750
Wire Wire Line
	5850 8550 5450 8550
Wire Wire Line
	6750 8550 6350 8550
Wire Wire Line
	6750 8650 6350 8650
Wire Wire Line
	6750 8450 6350 8450
Wire Wire Line
	5850 8350 5450 8350
Wire Wire Line
	5850 8450 5450 8450
Wire Wire Line
	2600 2800 2200 2800
Wire Wire Line
	2600 2700 2200 2700
Wire Wire Line
	2600 2600 2200 2600
Wire Wire Line
	2600 5900 2200 5900
Wire Wire Line
	2600 5800 2200 5800
Wire Wire Line
	2600 5000 2200 5000
Wire Wire Line
	2600 4900 2200 4900
Wire Wire Line
	2600 4800 2200 4800
Wire Wire Line
	2600 4600 2200 4600
Wire Wire Line
	6000 3900 5600 3900
Wire Wire Line
	6000 4000 5600 4000
Wire Wire Line
	6000 4100 5600 4100
Wire Wire Line
	6750 8350 6350 8350
Wire Wire Line
	5850 8250 5450 8250
Wire Wire Line
	6750 8250 6350 8250
Wire Wire Line
	5850 8150 5450 8150
Wire Wire Line
	6750 8150 6350 8150
Wire Wire Line
	5850 7950 5450 7950
Wire Wire Line
	6750 7950 6350 7950
Wire Wire Line
	5850 7850 5450 7850
Wire Wire Line
	6750 7850 6350 7850
Wire Wire Line
	5850 7750 5450 7750
Wire Wire Line
	8800 6400 8600 6400
Wire Wire Line
	8800 6500 8600 6500
Wire Wire Line
	8800 6600 8600 6600
Wire Wire Line
	6750 8050 6350 8050
Wire Wire Line
	5850 8050 5450 8050
Wire Wire Line
	5850 7650 5650 7650
Wire Wire Line
	6350 7650 6650 7650
Wire Wire Line
	6350 7750 6750 7750
Connection ~ 3150 8850
Connection ~ 3150 9250
Wire Wire Line
	6000 4200 5600 4200
Wire Wire Line
	8800 6700 8600 6700
Wire Wire Line
	9375 6700 9425 6700
Wire Wire Line
	9375 6300 9375 6850
Wire Wire Line
	9375 6600 9425 6600
Wire Wire Line
	9375 6500 9425 6500
Connection ~ 9375 6600
Wire Wire Line
	9375 6400 9425 6400
Connection ~ 9375 6500
Wire Wire Line
	9375 6300 9425 6300
Connection ~ 9375 6400
Wire Wire Line
	9925 6300 9975 6300
Wire Wire Line
	9975 6300 9975 6900
Wire Wire Line
	9975 6400 9925 6400
Wire Wire Line
	9975 6500 9925 6500
Connection ~ 9975 6400
Wire Wire Line
	9975 6600 9925 6600
Connection ~ 9975 6500
Wire Wire Line
	9975 6700 9925 6700
Connection ~ 9975 6600
Connection ~ 9375 6700
Wire Wire Line
	9975 6900 10075 6900
Connection ~ 9975 6700
Wire Wire Line
	850  2550 850  2500
Connection ~ 850  2500
Wire Wire Line
	1000 2550 1000 2400
Connection ~ 1000 2400
Wire Wire Line
	1150 2550 1150 2300
Connection ~ 1150 2300
Wire Wire Line
	1300 2550 1300 2200
Connection ~ 1300 2200
Wire Wire Line
	1450 2550 1450 2100
Connection ~ 1450 2100
Wire Wire Line
	1600 2550 1600 2000
Connection ~ 1600 2000
Wire Wire Line
	1750 2550 1750 1900
Connection ~ 1750 1900
Wire Wire Line
	1900 2550 1900 1800
Connection ~ 1900 1800
Wire Wire Line
	850  3050 1900 3050
Connection ~ 1750 3050
Connection ~ 1600 3050
Connection ~ 1450 3050
Connection ~ 1300 3050
Connection ~ 1150 3050
Connection ~ 1000 3050
Wire Wire Line
	850  3050 850  3150
Connection ~ 850  3050
Wire Wire Line
	7400 7900 7550 7900
Wire Wire Line
	3800 7950 4300 7950
Wire Wire Line
	4300 8050 3800 8050
Wire Wire Line
	4800 8050 4950 8050
Wire Wire Line
	4950 8050 4950 8150
Wire Wire Line
	4950 7800 4950 7950
Wire Wire Line
	4950 7950 4800 7950
Wire Wire Line
	6650 7650 6650 7750
Connection ~ 6650 7750
Wire Wire Line
	2200 5400 2600 5400
Wire Wire Line
	800  5600 800  5650
Wire Wire Line
	1850 7500 1850 8350
Wire Wire Line
	1850 8350 1950 8350
Wire Wire Line
	1950 7650 1850 7650
Connection ~ 1850 7650
Wire Wire Line
	1950 7750 1850 7750
Connection ~ 1850 7750
Wire Wire Line
	1950 7850 1850 7850
Connection ~ 1850 7850
Wire Wire Line
	1950 7950 1850 7950
Connection ~ 1850 7950
Wire Wire Line
	1950 8050 1850 8050
Connection ~ 1850 8050
Wire Wire Line
	1950 8150 1850 8150
Connection ~ 1850 8150
Wire Wire Line
	1950 8250 1850 8250
Connection ~ 1850 8250
Wire Wire Line
	2600 7400 2600 8350
Wire Wire Line
	2600 8350 2450 8350
Wire Wire Line
	2450 8250 2600 8250
Connection ~ 2600 8250
Wire Wire Line
	2450 8150 2600 8150
Connection ~ 2600 8150
Wire Wire Line
	2450 8050 2600 8050
Connection ~ 2600 8050
Wire Wire Line
	2450 7950 2600 7950
Connection ~ 2600 7950
Wire Wire Line
	2450 7850 2600 7850
Connection ~ 2600 7850
Wire Wire Line
	2450 7750 2600 7750
Connection ~ 2600 7750
Wire Wire Line
	2450 7650 2600 7650
Connection ~ 2600 7650
Wire Wire Line
	7750 3200 8700 3200
Wire Wire Line
	10000 3100 11050 3100
Wire Wire Line
	10000 3200 11050 3200
Wire Wire Line
	10000 3000 10550 3000
Wire Wire Line
	10550 3000 10550 3300
Wire Wire Line
	10550 3300 11050 3300
Wire Wire Line
	10000 3300 10450 3300
Wire Wire Line
	10450 3300 10450 3400
Wire Wire Line
	10450 3400 11050 3400
Wire Wire Line
	10000 3400 10100 3400
Wire Wire Line
	7750 4950 8700 4950
Wire Wire Line
	7750 5050 8700 5050
Wire Wire Line
	10750 5350 11050 5350
Wire Wire Line
	10000 4950 11050 4950
Wire Wire Line
	10000 5050 11050 5050
Wire Wire Line
	10000 4850 10550 4850
Wire Wire Line
	10550 4850 10550 5150
Wire Wire Line
	10550 5150 11050 5150
Wire Wire Line
	10000 5150 10450 5150
Wire Wire Line
	10450 5150 10450 5250
Wire Wire Line
	10450 5250 11050 5250
Wire Wire Line
	2200 5600 2600 5600
Wire Wire Line
	2200 5700 2600 5700
Wire Wire Line
	2600 3500 2200 3500
Wire Wire Line
	2200 3600 2600 3600
Wire Notes Line
	7700 1250 11450 1250
Wire Notes Line
	11450 1250 11450 7150
Wire Notes Line
	11450 7150 7700 7150
Wire Notes Line
	7700 7150 7700 1250
Wire Notes Line
	7700 5950 11450 5950
Wire Notes Line
	7700 2400 11450 2400
Wire Wire Line
	8800 6300 8600 6300
Wire Wire Line
	7750 4850 8700 4850
Wire Wire Line
	8700 5150 7750 5150
Wire Wire Line
	7750 3100 8700 3100
Wire Wire Line
	7750 3000 8700 3000
Wire Wire Line
	7750 3300 8700 3300
Wire Wire Line
	5600 2750 6000 2750
Wire Wire Line
	6000 2850 5600 2850
Wire Wire Line
	6000 2950 5600 2950
Wire Wire Line
	6000 2150 5600 2150
Wire Wire Line
	10000 3700 10125 3700
Wire Wire Line
	10325 3700 10650 3700
Wire Wire Line
	10650 3700 10650 3500
Wire Wire Line
	10650 3500 11050 3500
Wire Wire Line
	10000 5550 10175 5550
Wire Wire Line
	10750 5550 10375 5550
Wire Wire Line
	10750 4750 10750 5550
Wire Wire Line
	6550 6700 6700 6700
Wire Wire Line
	6550 7000 6700 7000
Wire Wire Line
	6550 7000 6550 7100
Wire Wire Line
	10000 4750 10250 4750
Connection ~ 10750 5350
Wire Wire Line
	6450 6800 6700 6800
Wire Wire Line
	2200 4700 2600 4700
Wire Wire Line
	5600 2350 6000 2350
Wire Wire Line
	5600 6900 6050 6900
$Comp
L 3V3 #PWR051
U 1 1 57B3EBAC
P 5900 1400
F 0 "#PWR051" H 5900 1500 30  0001 C CNN
F 1 "3V3" H 5900 1510 30  0000 C CNN
F 2 "" H 5900 1400 60  0001 C CNN
F 3 "" H 5900 1400 60  0001 C CNN
	1    5900 1400
	1    0    0    -1  
$EndComp
Wire Wire Line
	6550 6900 6700 6900
Wire Wire Line
	8700 4750 7750 4750
Text Label 7750 4750 0    60   ~ 0
TRIGG_3V3
Text Notes 7450 4750 0    60   ~ 0
PB12
$EndSCHEMATC
