EESchema Schematic File Version 2
LIBS:stamp_mini_4_layers-cache
LIBS:con-jack
LIBS:adm3101e
LIBS:microsd
LIBS:transistor-npn
LIBS:ipc-7351-transistor
LIBS:switch-misc
LIBS:power
LIBS:device
LIBS:transistors
LIBS:conn
LIBS:linear
LIBS:regul
LIBS:74xx
LIBS:cmos4000
LIBS:adc-dac
LIBS:memory
LIBS:xilinx
LIBS:microcontrollers
LIBS:dsp
LIBS:microchip
LIBS:analog_switches
LIBS:motorola
LIBS:texas
LIBS:intel
LIBS:audio
LIBS:interface
LIBS:digital-audio
LIBS:philips
LIBS:display
LIBS:cypress
LIBS:siliconi
LIBS:opto
LIBS:atmel
LIBS:contrib
LIBS:valves
LIBS:micron_ddr_512Mb
LIBS:iMX23
LIBS:sdmmc
LIBS:usbconn
LIBS:fsusb20
LIBS:r_pack2
LIBS:pasives-connectors
LIBS:EEPROM
LIBS:PWR
LIBS:m25p32
LIBS:PROpendous-cache
LIBS:w_analog
LIBS:gl850g
LIBS:srf2012
LIBS:rclamp0502b
LIBS:mcp130
LIBS:ABM8G
LIBS:usb_a
LIBS:Reset
LIBS:stm32f100vxx
LIBS:lt1117cst
LIBS:zxmhc3f381n8
LIBS:fsusb43
LIBS:usb-mini
LIBS:atsam3n0aa-au
LIBS:drv8835
LIBS:ftdichip
LIBS:stm32f4_lqfp100
LIBS:cstcr6m00g53z
LIBS:ESP8266
LIBS:LM2623
LIBS:lm3478
LIBS:media_board-cache
EELAYER 25 0
EELAYER END
$Descr User 7874 5512
encoding utf-8
Sheet 2 4
Title ""
Date "9 aug 2012"
Rev ""
Comp ""
Comment1 ""
Comment2 ""
Comment3 ""
Comment4 ""
$EndDescr
Wire Wire Line
	2400 1500 2400 1550
Wire Wire Line
	2250 1100 2500 1100
Wire Wire Line
	3200 1550 3200 1600
Wire Wire Line
	3200 1100 3200 1150
Connection ~ 3200 1100
$Comp
L GND-RESCUE-stamp_mini_4_layers #PWR02
U 1 1 4FC6C2CD
P 3200 1600
F 0 "#PWR02" H 3200 1600 30  0001 C CNN
F 1 "GND" H 3200 1530 30  0001 C CNN
F 2 "" H 3200 1600 60  0001 C CNN
F 3 "" H 3200 1600 60  0001 C CNN
	1    3200 1600
	1    0    0    -1  
$EndComp
$Comp
L INDUCTOR L11
U 1 1 4FC6C26A
P 2800 1100
F 0 "L11" V 2750 1100 40  0000 C CNN
F 1 "HZ0805D152R-10" V 2900 1100 40  0000 C CNN
F 2 "opendous:SM0805" H 2800 1100 60  0001 C CNN
F 3 "" H 2800 1100 60  0001 C CNN
	1    2800 1100
	0    -1   -1   0   
$EndComp
$Comp
L C-RESCUE-stamp_mini_4_layers C37
U 1 1 4FC6C1A7
P 3200 1350
F 0 "C37" H 3250 1450 50  0000 L CNN
F 1 "10uF" H 3250 1250 50  0000 L CNN
F 2 "opendous:SM1210_Opendous" H 3200 1350 60  0001 C CNN
F 3 "" H 3200 1350 60  0001 C CNN
	1    3200 1350
	1    0    0    -1  
$EndComp
$Comp
L GND-RESCUE-stamp_mini_4_layers #PWR03
U 1 1 4FC6C11B
P 2400 1550
F 0 "#PWR03" H 2400 1550 30  0001 C CNN
F 1 "GND" H 2400 1480 30  0001 C CNN
F 2 "" H 2400 1550 60  0001 C CNN
F 3 "" H 2400 1550 60  0001 C CNN
	1    2400 1550
	1    0    0    -1  
$EndComp
$Comp
L C-RESCUE-stamp_mini_4_layers C35
U 1 1 4FC6BCE9
P 2400 1300
F 0 "C35" H 2450 1400 50  0000 L CNN
F 1 "10nF" H 2450 1200 50  0000 L CNN
F 2 "opendous:SM0603_Opendous" H 2400 1300 60  0001 C CNN
F 3 "" H 2400 1300 60  0001 C CNN
	1    2400 1300
	1    0    0    -1  
$EndComp
Connection ~ 2400 1100
$Comp
L ESP-07v2 ESP1
U 1 1 55D151A8
P 4800 2000
F 0 "ESP1" H 4800 1900 50  0000 C CNN
F 1 "ESP-07v2" H 4800 2100 50  0000 C CNN
F 2 "esp826:ESP-07v2" H 4800 2000 50  0001 C CNN
F 3 "" H 4800 2000 50  0001 C CNN
	1    4800 2000
	1    0    0    -1  
$EndComp
Text HLabel 6850 1800 2    60   Input ~ 0
RX
Text HLabel 6850 1700 2    60   Input ~ 0
TX
Text HLabel 3750 2100 0    60   Input ~ 0
TDI
Text HLabel 3750 2200 0    60   Input ~ 0
TDO
Text HLabel 3750 2300 0    60   Input ~ 0
TMS
Text HLabel 3750 2000 0    60   Input ~ 0
TCK
Text HLabel 5800 1900 2    60   Input ~ 0
nTRST
Wire Wire Line
	6250 1700 5700 1700
Wire Wire Line
	6250 1800 5700 1800
Wire Wire Line
	3100 1100 4800 1100
$Comp
L GND-RESCUE-stamp_mini_4_layers #PWR04
U 1 1 55D16530
P 4800 2950
F 0 "#PWR04" H 4800 2950 30  0001 C CNN
F 1 "GND" H 4800 2880 30  0001 C CNN
F 2 "" H 4800 2950 60  0001 C CNN
F 3 "" H 4800 2950 60  0001 C CNN
	1    4800 2950
	1    0    0    -1  
$EndComp
Wire Wire Line
	4800 2900 4800 2950
$Comp
L 3V3 #PWR05
U 1 1 55D1702D
P 2250 1100
F 0 "#PWR05" H 2250 1200 30  0001 C CNN
F 1 "3V3" H 2250 1210 30  0000 C CNN
F 2 "" H 2250 1100 60  0001 C CNN
F 3 "" H 2250 1100 60  0001 C CNN
	1    2250 1100
	1    0    0    -1  
$EndComp
Wire Wire Line
	3900 2000 3750 2000
Wire Wire Line
	3750 2100 3900 2100
Wire Wire Line
	3750 2200 3900 2200
Wire Wire Line
	3750 2300 3900 2300
Wire Wire Line
	5800 1900 5700 1900
Text HLabel 5800 2000 2    60   Input ~ 0
nSRST
Wire Wire Line
	5800 2000 5700 2000
$Comp
L SW_PUSH SWESP1
U 1 1 55D17453
P 1550 3000
F 0 "SWESP1" H 1700 3110 50  0000 C CNN
F 1 "SW_PUSH" H 1550 2920 50  0000 C CNN
F 2 "Socket_Strips:Socket_Strip_Straight_2x01" H 1550 3000 60  0001 C CNN
F 3 "" H 1550 3000 60  0000 C CNN
	1    1550 3000
	1    0    0    -1  
$EndComp
$Comp
L R-RESCUE-stamp_mini_4_layers RESP2
U 1 1 55D1746F
P 2350 2350
F 0 "RESP2" V 2430 2350 40  0000 C CNN
F 1 "470K" V 2357 2351 40  0000 C CNN
F 2 "opendous:SM0603_Opendous" V 2280 2350 30  0001 C CNN
F 3 "" H 2350 2350 30  0000 C CNN
	1    2350 2350
	1    0    0    -1  
$EndComp
$Comp
L C-RESCUE-stamp_mini_4_layers CESP2
U 1 1 55D17476
P 2900 3000
F 0 "CESP2" H 2900 3100 40  0000 L CNN
F 1 "2u2" H 2906 2915 40  0000 L CNN
F 2 "opendous:SM0805_Opendous" H 2938 2850 30  0001 C CNN
F 3 "" H 2900 3000 60  0000 C CNN
	1    2900 3000
	1    0    0    -1  
$EndComp
$Comp
L R-RESCUE-stamp_mini_4_layers RESP3
U 1 1 55D1747D
P 2650 2700
F 0 "RESP3" V 2730 2700 40  0000 C CNN
F 1 "100K" V 2657 2701 40  0000 C CNN
F 2 "opendous:SM0603_Opendous" V 2580 2700 30  0001 C CNN
F 3 "" H 2650 2700 30  0000 C CNN
	1    2650 2700
	0    1    1    0   
$EndComp
$Comp
L GND-RESCUE-stamp_mini_4_layers #PWR06
U 1 1 55D174A5
P 3300 3200
F 0 "#PWR06" H 3300 2950 60  0001 C CNN
F 1 "GND" H 3300 3050 60  0001 C CNN
F 2 "" H 3300 3200 60  0000 C CNN
F 3 "" H 3300 3200 60  0000 C CNN
	1    3300 3200
	1    0    0    -1  
$EndComp
$Comp
L GND-RESCUE-stamp_mini_4_layers #PWR07
U 1 1 55D174AB
P 2900 3250
F 0 "#PWR07" H 2900 3000 60  0001 C CNN
F 1 "GND" H 2900 3100 60  0001 C CNN
F 2 "" H 2900 3250 60  0000 C CNN
F 3 "" H 2900 3250 60  0000 C CNN
	1    2900 3250
	1    0    0    -1  
$EndComp
$Comp
L GND-RESCUE-stamp_mini_4_layers #PWR08
U 1 1 55D174B1
P 2350 3200
F 0 "#PWR08" H 2350 2950 60  0001 C CNN
F 1 "GND" H 2350 3050 60  0001 C CNN
F 2 "" H 2350 3200 60  0000 C CNN
F 3 "" H 2350 3200 60  0000 C CNN
	1    2350 3200
	1    0    0    -1  
$EndComp
$Comp
L GND-RESCUE-stamp_mini_4_layers #PWR09
U 1 1 55D174B7
P 1250 3450
F 0 "#PWR09" H 1250 3200 60  0001 C CNN
F 1 "GND" H 1250 3300 60  0001 C CNN
F 2 "" H 1250 3450 60  0000 C CNN
F 3 "" H 1250 3450 60  0000 C CNN
	1    1250 3450
	1    0    0    -1  
$EndComp
$Comp
L R-RESCUE-stamp_mini_4_layers RESP1
U 1 1 55D174EF
P 5850 2600
F 0 "RESP1" V 5930 2600 40  0000 C CNN
F 1 "10K" V 5857 2601 40  0000 C CNN
F 2 "opendous:SM0603_Opendous" V 5780 2600 30  0001 C CNN
F 3 "" H 5850 2600 30  0000 C CNN
	1    5850 2600
	-1   0    0    1   
$EndComp
$Comp
L R-RESCUE-stamp_mini_4_layers RESP4
U 1 1 55D174FC
P 3550 1500
F 0 "RESP4" V 3630 1500 40  0000 C CNN
F 1 "47K" V 3557 1501 40  0000 C CNN
F 2 "opendous:SM0603_Opendous" V 3480 1500 30  0001 C CNN
F 3 "" H 3550 1500 30  0000 C CNN
	1    3550 1500
	1    0    0    -1  
$EndComp
Wire Wire Line
	1850 3000 2050 3000
Wire Wire Line
	2350 3150 2350 3200
Connection ~ 2350 2700
Wire Wire Line
	2900 2700 3000 2700
Wire Wire Line
	2900 2800 2900 2700
Connection ~ 2900 2700
Wire Wire Line
	3300 2850 3300 3200
Wire Wire Line
	1250 3000 1250 3450
Wire Wire Line
	2900 3250 2900 3200
Connection ~ 1900 3000
Wire Wire Line
	1900 3000 1900 3450
$Comp
L C-RESCUE-stamp_mini_4_layers CESP1
U 1 1 55D17568
P 1550 3250
F 0 "CESP1" H 1550 3350 40  0000 L CNN
F 1 "0.1u" H 1556 3165 40  0000 L CNN
F 2 "opendous:SM0603_Opendous" H 1588 3100 30  0001 C CNN
F 3 "" H 1550 3250 60  0000 C CNN
	1    1550 3250
	0    1    1    0   
$EndComp
Wire Wire Line
	1750 3250 1900 3250
Connection ~ 1900 3250
Wire Wire Line
	1350 3250 1250 3250
Connection ~ 1250 3250
Wire Wire Line
	2350 2100 2350 2050
Wire Wire Line
	5700 2100 5950 2100
Text Label 5750 2100 0    39   ~ 0
GPIO0
Wire Wire Line
	3300 2450 3550 2450
Text Label 3350 2450 0    39   ~ 0
GPIO0
Wire Wire Line
	3650 1700 3900 1700
Text Label 3700 1700 0    39   ~ 0
RESET
Wire Wire Line
	1900 3450 2150 3450
Text Label 1950 3450 0    39   ~ 0
RESET
Wire Wire Line
	5700 2300 5850 2300
Wire Wire Line
	5850 2300 5850 2350
$Comp
L GND-RESCUE-stamp_mini_4_layers #PWR010
U 1 1 55D1A893
P 5850 2900
F 0 "#PWR010" H 5850 2900 30  0001 C CNN
F 1 "GND" H 5850 2830 30  0001 C CNN
F 2 "" H 5850 2900 60  0001 C CNN
F 3 "" H 5850 2900 60  0001 C CNN
	1    5850 2900
	1    0    0    -1  
$EndComp
Wire Wire Line
	5850 2850 5850 2900
Wire Wire Line
	3550 1250 3550 1100
Connection ~ 3550 1100
Wire Wire Line
	3900 1900 3550 1900
Wire Wire Line
	3550 1900 3550 1750
$Comp
L BSS138 QESP2
U 1 1 55D202B0
P 3200 2650
F 0 "QESP2" H 3200 2501 40  0000 R CNN
F 1 "BSS138" H 3200 2800 40  0000 R CNN
F 2 "SOT-23" H 3070 2752 29  0001 C CNN
F 3 "" H 3200 2650 60  0000 C CNN
	1    3200 2650
	1    0    0    -1  
$EndComp
$Comp
L BSS138 QESP1
U 1 1 55D2080A
P 2250 2950
F 0 "QESP1" H 2250 2801 40  0000 R CNN
F 1 "BSS138" H 2250 3100 40  0000 R CNN
F 2 "SOT-23" H 2120 3052 29  0001 C CNN
F 3 "" H 2250 2950 60  0000 C CNN
	1    2250 2950
	1    0    0    -1  
$EndComp
Wire Wire Line
	2350 2700 2400 2700
Wire Wire Line
	2350 2600 2350 2750
$Comp
L R-RESCUE-stamp_mini_4_layers RESP5
U 1 1 55D26B4B
P 6350 2600
F 0 "RESP5" V 6430 2600 50  0000 C CNN
F 1 "1k" V 6350 2600 50  0000 C CNN
F 2 "SM0603" H 6350 2600 60  0001 C CNN
F 3 "" H 6350 2600 60  0001 C CNN
	1    6350 2600
	-1   0    0    1   
$EndComp
$Comp
L LED-RESCUE-stamp_mini_4_layers DESP1
U 1 1 55D26B52
P 6150 2200
F 0 "DESP1" H 6150 2300 50  0000 C CNN
F 1 "LED" H 6150 2100 50  0000 C CNN
F 2 "SM0603" H 6150 2200 60  0001 C CNN
F 3 "" H 6150 2200 60  0001 C CNN
	1    6150 2200
	1    0    0    -1  
$EndComp
$Comp
L GND-RESCUE-stamp_mini_4_layers #PWR011
U 1 1 55D26B59
P 6350 2900
F 0 "#PWR011" H 6350 2900 30  0001 C CNN
F 1 "GND" H 6350 2830 30  0001 C CNN
F 2 "" H 6350 2900 60  0001 C CNN
F 3 "" H 6350 2900 60  0001 C CNN
	1    6350 2900
	-1   0    0    -1  
$EndComp
Wire Wire Line
	5950 2200 5700 2200
Wire Wire Line
	6350 2200 6350 2350
Wire Wire Line
	6350 2850 6350 2900
Wire Wire Line
	6850 1700 6750 1700
Wire Wire Line
	6850 1800 6750 1800
$Comp
L GND-RESCUE-stamp_mini_4_layers #PWR012
U 1 1 55D2949A
P 6850 1950
F 0 "#PWR012" H 6850 1950 30  0001 C CNN
F 1 "GND" H 6850 1880 30  0001 C CNN
F 2 "" H 6850 1950 60  0001 C CNN
F 3 "" H 6850 1950 60  0001 C CNN
	1    6850 1950
	-1   0    0    -1  
$EndComp
Wire Wire Line
	6850 1900 6850 1950
$Comp
L GND-RESCUE-stamp_mini_4_layers #PWR013
U 1 1 55D294B2
P 6200 1950
F 0 "#PWR013" H 6200 1950 30  0001 C CNN
F 1 "GND" H 6200 1880 30  0001 C CNN
F 2 "" H 6200 1950 60  0001 C CNN
F 3 "" H 6200 1950 60  0001 C CNN
	1    6200 1950
	-1   0    0    -1  
$EndComp
Wire Wire Line
	6200 1900 6200 1950
Wire Wire Line
	6750 1900 6850 1900
Wire Wire Line
	6250 1900 6200 1900
$Comp
L CONN_02X03 SSE1
U 1 1 55D298F5
P 6500 1800
F 0 "SSE1" H 6500 2000 50  0000 C CNN
F 1 "SSE1" H 6500 1600 50  0000 C CNN
F 2 "Socket_Strips:Socket_Strip_Straight_2x03" H 6500 600 60  0000 C CNN
F 3 "" H 6500 600 60  0000 C CNN
	1    6500 1800
	1    0    0    -1  
$EndComp
Text Label 3850 1100 0    60   ~ 0
3V3_ESP
Wire Wire Line
	2350 2050 2750 2050
Text Label 2350 2050 0    60   ~ 0
3V3_ESP
Text HLabel 2150 3450 2    60   Input ~ 0
RST_ESP
$EndSCHEMATC
